﻿<?xml version="1.0"?>
<!-- Generator: Adobe Illustrator 10.0, SVG Export Plug-In . SVG Version: 3.0.0 Build 77)  -->
<!DOCTYPE svg PUBLIC "-//W3C//DTD SVG 1.0//EN" "http://www.w3.org/TR/2001/REC-SVG-20010904/DTD/svg10.dtd"[
	<!ENTITY ns_flows "http://ns.adobe.com/Flows/1.0/">
	<!ENTITY ns_svg "http://www.w3.org/2000/svg">
	<!ENTITY ns_xlink "http://www.w3.org/1999/xlink">
	<!ENTITY st0 "font-size:6.6387px;">
	<!ENTITY st1 "fill:none;stroke:#000000;stroke-width:1.1331;stroke-linecap:round;stroke-linejoin:round;">
	<!ENTITY st2 "fill:none;stroke:#000000;stroke-width:0.8499;stroke-linecap:round;stroke-linejoin:round;">
	<!ENTITY st3 "font-family:'Arial';">
	<!ATTLIST svg
		xmlns:ewd CDATA #FIXED "http://shcl.co.jp/ewd"
		xmlns:a CDATA #FIXED "http://ns.adobe.com/AdobeSVGViewerExtensions/3.0/"
		ewd:ver CDATA #IMPLIED>
	<!ATTLIST g
		ewd:pinNo CDATA #IMPLIED>
]>
<svg width="212.465" height="87.252" viewBox="0 0 212.465 87.252" style="overflow:visible;enable-background:new 0 0 212.465 87.252" xml:space="preserve" onload="call_execInitLoadProc_svg('connector')" ewd:ver="2.1.2.5" xmlns="&ns_svg;" xmlns:ewd="http://shcl.co.jp/ewd" xmlns:a="http://ns.adobe.com/AdobeSVGViewerExtensions/3.0/" xmlns:xlink="&ns_xlink;">
<script type="text/javascript" xlink:href="../../../../../system/js/ewd/fig/svgfig.js"/>
<g id="レイヤー_1">
	<g>
		<path style="&st2;" d="M122.946,58.357h74.788"/>
		<path style="&st2;" d="M122.946,47.025h18.697"/>
		<path style="&st2;" d="M122.946,69.688h74.788"/>
		<path style="&st2;" d="M169.688,47.025v22.663"/>
		<path style="&st2;" d="M160.34,58.357v11.332"/>
		<path style="&st2;" d="M150.991,58.357v11.332"/>
		<path style="&st2;" d="M179.037,47.025v22.663"/>
		<path style="&st2;" d="M188.385,47.025v22.663"/>
		<path style="&st2;" d="M141.643,47.025v22.663"/>
		<path style="&st2;" d="M132.295,47.025v22.663"/>
		<path style="&st2;" d="M122.946,47.025v22.663"/>
		<path style="&st2;" d="M197.734,47.025v22.663"/>
		<path style="&st2;" d="M169.688,47.025h28.045"/>
		<path style="&st2;" d="M120.113,41.36v9.915"/>
		<path style="&st2;" d="M117.281,41.36v9.915"/>
		<path style="&st2;" d="M120.113,59.773v11.332"/>
		<path style="&st2;" d="M117.281,59.773v11.332"/>
		<path style="&st2;" d="M150.991,55.524h9.349"/>
		<path style="&st2;" d="M150.991,52.691h9.349"/>
		<path style="&st2;" d="M200.567,41.36v9.915"/>
		<path style="&st2;" d="M203.399,41.36v9.915"/>
		<path style="&st2;" d="M200.567,59.773v11.332"/>
		<path style="&st2;" d="M203.399,59.773v11.332"/>
		<path style="&st2;" d="M124.363,42.776h15.864"/>
		<path style="&st2;" d="M124.363,39.943h15.864"/>
		<path style="&st2;" d="M171.105,42.776h25.212"/>
		<path style="&st2;" d="M171.105,39.943h25.212"/>
		<path style="&st2;" d="M114.448,35.694v42.493"/>
		<path style="&st2;" d="M206.232,35.694v42.493"/>
		<path style="&st2;" d="M127.62,35.694v4.249"/>
		<path style="&st2;" d="M117.281,32.861h7.507"/>
		<path style="&st2;" d="M195.892,32.861h7.507"/>
		<path style="&st2;" d="M193.059,35.694v4.249"/>
		<path style="&st2;" d="M117.281,81.02h2.833"/>
		<path style="&st1;" d="M114.448,86.686h91.785"/>
		<path style="&st1;" d="M114.448,27.195h16.006"/>
		<path style="&st1;" d="M108.782,32.861V81.02"/>
		<path style="&st1;" d="M211.898,32.861V81.02"/>
		<path style="&st1;" d="M133.286,30.028v1.417"/>
		<path style="&st1;" d="M187.394,30.028v1.417"/>
		<path style="&st1;" d="M190.227,27.195h16.005"/>
		<path style="&st1;" d="M140.368,18.98v13.881"/>
		<path style="&st1;" d="M180.312,18.98v13.881"/>
		<path style="&st2;" d="M148.867,18.98v3.966"/>
		<path style="&st2;" d="M171.813,18.98v3.966"/>
		<path style="&st2;" d="M153.116,27.195h14.448"/>
		<path style="&st2;" d="M164.589,22.238v3.399"/>
		<path style="&st2;" d="M156.091,22.238v3.399"/>
		<path style="&st2;" d="M163.173,19.405v2.833"/>
		<path style="&st2;" d="M157.507,19.405v2.833"/>
		<path style="&st2;" d="M157.507,19.405h5.666"/>
		<path style="&st2;" d="M157.507,20.822h5.666"/>
		<path style="&st2;" d="M156.091,25.637h8.499"/>
		<path style="&st2;" d="M122.946,72.521v5.666"/>
		<path style="&st2;" d="M197.734,72.521v5.666"/>
		<path style="&st2;" d="M200.567,81.02h2.833"/>
		<path style="&st2;" d="M144.901,72.521v8.499"/>
		<path style="&st2;" d="M147.734,72.521v8.499"/>
		<path style="&st2;" d="M163.598,72.521v8.499"/>
		<path style="&st2;" d="M166.43,72.521v8.499"/>
		<path style="&st2;" d="M182.295,72.521v8.499"/>
		<path style="&st2;" d="M185.127,72.521v8.499"/>
		<path style="&st2;" d="M120.113,81.02h80.454"/>
		<path style="&st2;" d="M124.363,71.105h19.122"/>
		<path style="&st2;" d="M167.847,71.105h13.031"/>
		<path style="&st2;" d="M149.15,71.105h13.031"/>
		<path style="&st2;" d="M186.544,71.105h9.773"/>
		<path style="&st2;" d="M148.158,32.861v19.83"/>
		<path style="&st2;" d="M163.173,32.861v19.83"/>
		<path style="&st2;" d="M143.059,40.793v11.898"/>
		<path style="&st2;" d="M168.272,40.793v11.898"/>
		<path style="&st2;" d="M144.476,54.108h2.266"/>
		<path style="&st2;" d="M164.589,54.108h2.266"/>
		<path style="&st2;" d="M140.227,39.943h1.983"/>
		<path style="&st2;" d="M169.122,39.943h1.983"/>
		<path style="&st2;" d="M150.991,41.36v2.125"/>
		<path style="&st2;" d="M160.34,41.36v2.125"/>
		<path style="&st2;" d="M127.62,38.527h12.606"/>
		<path style="&st2;" d="M171.105,38.527h21.955"/>
		<path style="&st2;" d="M61.19,54.391h-3.116"/>
		<path style="&st2;" d="M83.34,41.36h-5.72"/>
		<path style="&st2;" d="M83.853,39.943h-1.417"/>
		<path style="&st2;" d="M87.535,44.855v5.003"/>
		<path style="&st2;" d="M64.872,41.36h-2.266"/>
		<path style="&st2;" d="M88.102,65.723h-1.133"/>
		<path style="&st2;" d="M88.102,49.858h-1.133"/>
		<path style="&st2;" d="M70.051,39.943H61.19"/>
		<path style="&st1;" d="M82.436,39.943H70.051"/>
		<path style="&st1;" d="M58.073,54.391h-1.417"/>
		<path style="&st2;" d="M37.394,54.391h3.116"/>
		<path style="&st2;" d="M6.178,41.36h5.72"/>
		<path style="&st2;" d="M1.983,44.855v5.003"/>
		<path style="&st2;" d="M33.711,41.36h2.266"/>
		<path style="&st2;" d="M1.417,65.723H2.55"/>
		<path style="&st2;" d="M1.417,49.858H2.55"/>
		<path style="&st2;" d="M1.983,65.723v6.232"/>
		<path style="&st1;" d="M40.51,54.391h1.417"/>
		<path style="&st2;" d="M4.816,70.821v0.284"/>
		<path style="&st2;" d="M84.702,70.821v0.284"/>
		<path style="&st2;" d="M14.589,70.821v0.284"/>
		<path style="&st2;" d="M18.839,70.821v0.284"/>
		<path style="&st2;" d="M28.612,70.821v0.284"/>
		<path style="&st2;" d="M32.861,70.821v0.284"/>
		<path style="&st2;" d="M42.635,70.821v0.284"/>
		<path style="&st2;" d="M46.884,70.821v0.284"/>
		<path style="&st2;" d="M56.657,70.821v0.284"/>
		<path style="&st2;" d="M60.906,70.821v0.284"/>
		<path style="&st2;" d="M70.68,70.821v0.284"/>
		<path style="&st2;" d="M74.929,70.821v0.284"/>
		<path style="&st1;" d="M1.983,78.187v-2.833"/>
		<path style="&st1;" d="M87.535,75.354v2.833"/>
		<path style="&st1;" d="M88.952,73.371V36.544"/>
		<path style="&st2;" d="M37.394,39.943h-8.861"/>
		<path style="&st2;" d="M7.082,39.943H5.666"/>
		<path style="&st1;" d="M28.532,39.943H7.082"/>
		<path style="&st2;" d="M120.113,41.36c0-0.782-0.634-1.417-1.416-1.417"/>
		<path style="&st2;" d="M118.697,39.943c-0.782,0-1.417,0.634-1.417,1.417"/>
		<path style="&st2;" d="M120.113,59.773c0-0.782-0.634-1.417-1.416-1.417"/>
		<path style="&st2;" d="M118.697,58.357c-0.782,0-1.417,0.634-1.417,1.417"/>
		<path style="&st2;" d="M117.281,71.105c0,0.782,0.634,1.417,1.417,1.417"/>
		<path style="&st2;" d="M118.697,72.521c0.782,0,1.416-0.634,1.416-1.417"/>
		<path style="&st2;" d="M117.281,51.275c0,0.782,0.634,1.417,1.417,1.417"/>
		<path style="&st2;" d="M118.697,52.691c0.782,0,1.416-0.634,1.416-1.417"/>
		<path style="&st2;" d="M201.983,39.943c-0.782,0-1.416,0.634-1.416,1.417"/>
		<path style="&st2;" d="M203.399,41.36c0-0.782-0.634-1.417-1.417-1.417"/>
		<path style="&st2;" d="M201.983,58.357c-0.782,0-1.416,0.634-1.416,1.417"/>
		<path style="&st2;" d="M203.399,59.773c0-0.782-0.634-1.417-1.417-1.417"/>
		<path style="&st2;" d="M201.983,72.521c0.783,0,1.417-0.634,1.417-1.417"/>
		<path style="&st2;" d="M200.567,71.105c0,0.782,0.634,1.417,1.416,1.417"/>
		<path style="&st2;" d="M201.983,52.691c0.783,0,1.417-0.634,1.417-1.417"/>
		<path style="&st2;" d="M200.567,51.275c0,0.782,0.634,1.417,1.416,1.417"/>
		<path style="&st2;" d="M124.363,39.943c-0.782,0-1.417,0.634-1.417,1.417"/>
		<path style="&st2;" d="M122.946,41.36c0,0.782,0.634,1.417,1.417,1.417"/>
		<path style="&st2;" d="M141.643,41.36c0-0.782-0.634-1.417-1.416-1.417"/>
		<path style="&st2;" d="M140.227,42.776c0.782,0,1.416-0.634,1.416-1.417"/>
		<path style="&st2;" d="M171.105,39.943c-0.782,0-1.417,0.634-1.417,1.417"/>
		<path style="&st2;" d="M197.734,41.36c0-0.782-0.634-1.417-1.417-1.417"/>
		<path style="&st2;" d="M196.317,42.776c0.782,0,1.417-0.634,1.417-1.417"/>
		<path style="&st2;" d="M169.688,41.36c0,0.782,0.634,1.417,1.417,1.417"/>
		<path style="&st2;" d="M117.281,32.861c-1.564,0-2.833,1.268-2.833,2.833"/>
		<path style="&st2;" d="M127.62,35.694c0-1.565-1.269-2.833-2.833-2.833"/>
		<path style="&st2;" d="M195.892,32.861c-1.564,0-2.833,1.268-2.833,2.833"/>
		<path style="&st2;" d="M206.232,35.694c0-1.565-1.269-2.833-2.833-2.833"/>
		<path style="&st2;" d="M114.448,78.187c0,1.564,1.269,2.833,2.833,2.833"/>
		<path style="&st1;" d="M114.448,27.195c-3.129,0-5.666,2.537-5.666,5.666"/>
		<path style="&st1;" d="M206.232,86.686c3.129,0,5.666-2.537,5.666-5.666"/>
		<path style="&st1;" d="M108.782,81.02c0,3.129,2.537,5.666,5.666,5.666"/>
		<path style="&st1;" d="M133.286,30.028c0-1.564-1.268-2.833-2.833-2.833"/>
		<path style="&st1;" d="M190.227,27.195c-1.565,0-2.833,1.269-2.833,2.833"/>
		<path style="&st1;" d="M211.898,32.861c0-3.129-2.537-5.666-5.666-5.666"/>
		<path style="&st1;" d="M133.286,31.445c0,0.782,0.634,1.417,1.417,1.417"/>
		<path style="&st1;" d="M185.977,32.861c0.782,0,1.417-0.634,1.417-1.417"/>
		<path style="&st2;" d="M148.867,22.946c0,2.347,1.902,4.249,4.249,4.249"/>
		<path style="&st2;" d="M167.564,27.195c2.347,0,4.249-1.902,4.249-4.249"/>
		<path style="&st1;" d="M141.785,17.564c-0.783,0-1.417,0.634-1.417,1.416"/>
		<path style="&st1;" d="M180.312,18.98c0-0.782-0.634-1.416-1.417-1.416"/>
		<path style="&st2;" d="M148.867,18.98c0-0.782-0.634-1.416-1.417-1.416"/>
		<path style="&st2;" d="M173.229,17.564c-0.782,0-1.417,0.634-1.417,1.416"/>
		<path style="&st2;" d="M120.113,81.02c1.565,0,2.833-1.269,2.833-2.833"/>
		<path style="&st2;" d="M197.734,78.187c0,1.564,1.269,2.833,2.833,2.833"/>
		<path style="&st2;" d="M203.399,81.02c1.564,0,2.833-1.269,2.833-2.833"/>
		<path style="&st2;" d="M124.363,71.105c-0.782,0-1.417,0.634-1.417,1.417"/>
		<path style="&st2;" d="M197.734,72.521c0-0.782-0.634-1.417-1.417-1.417"/>
		<path style="&st2;" d="M149.15,71.105c-0.782,0-1.417,0.634-1.417,1.417"/>
		<path style="&st2;" d="M144.901,72.521c0-0.782-0.634-1.417-1.417-1.417"/>
		<path style="&st2;" d="M163.598,72.521c0-0.782-0.634-1.417-1.417-1.417"/>
		<path style="&st2;" d="M167.847,71.105c-0.782,0-1.417,0.634-1.417,1.417"/>
		<path style="&st2;" d="M182.295,72.521c0-0.782-0.634-1.417-1.417-1.417"/>
		<path style="&st2;" d="M186.544,71.105c-0.782,0-1.417,0.634-1.417,1.417"/>
		<path style="&st2;" d="M150.991,52.691c-0.782,0-1.417,0.634-1.417,1.417"/>
		<path style="&st2;" d="M161.756,54.108c0-0.783-0.634-1.417-1.416-1.417"/>
		<path style="&st2;" d="M160.34,55.524c0.782,0,1.416-0.634,1.416-1.416"/>
		<path style="&st2;" d="M149.575,54.108c0,0.782,0.634,1.416,1.417,1.416"/>
		<path style="&st2;" d="M143.059,52.691c0,0.782,0.634,1.417,1.417,1.417"/>
		<path style="&st2;" d="M146.742,54.108c0.782,0,1.417-0.634,1.417-1.417"/>
		<path style="&st2;" d="M163.173,52.691c0,0.782,0.634,1.417,1.417,1.417"/>
		<path style="&st2;" d="M166.855,54.108c0.782,0,1.417-0.634,1.417-1.417"/>
		<path style="&st2;" d="M169.122,39.943c-0.469,0-0.85,0.38-0.85,0.85"/>
		<path style="&st2;" d="M143.059,40.793c0-0.469-0.38-0.85-0.85-0.85"/>
		<path style="&st2;" d="M194.334,52.691c0-0.704-0.571-1.275-1.275-1.275"/>
		<path style="&st2;" d="M193.059,51.417c-0.704,0-1.274,0.571-1.274,1.275"/>
		<path style="&st2;" d="M191.785,52.691c0,0.704,0.57,1.274,1.274,1.274"/>
		<path style="&st2;" d="M193.059,53.966c0.704,0,1.275-0.57,1.275-1.274"/>
		<path style="&st2;" d="M194.014,52.691c0-0.527-0.427-0.955-0.955-0.955"/>
		<path style="&st2;" d="M193.059,51.737c-0.527,0-0.955,0.427-0.955,0.955"/>
		<path style="&st2;" d="M192.105,52.691c0,0.527,0.427,0.955,0.955,0.955"/>
		<path style="&st2;" d="M193.059,53.646c0.527,0,0.955-0.427,0.955-0.955"/>
		<path style="&st2;" d="M184.986,52.691c0-0.704-0.571-1.275-1.274-1.275"/>
		<path style="&st2;" d="M183.711,51.417c-0.704,0-1.275,0.571-1.275,1.275"/>
		<path style="&st2;" d="M182.436,52.691c0,0.704,0.571,1.274,1.275,1.274"/>
		<path style="&st2;" d="M183.711,53.966c0.704,0,1.274-0.57,1.274-1.274"/>
		<path style="&st2;" d="M184.666,52.691c0-0.527-0.428-0.955-0.955-0.955"/>
		<path style="&st2;" d="M183.711,51.737c-0.527,0-0.955,0.427-0.955,0.955"/>
		<path style="&st2;" d="M182.756,52.691c0,0.527,0.428,0.955,0.955,0.955"/>
		<path style="&st2;" d="M183.711,53.646c0.527,0,0.955-0.427,0.955-0.955"/>
		<path style="&st2;" d="M175.637,52.691c0-0.704-0.571-1.275-1.275-1.275"/>
		<path style="&st2;" d="M174.363,51.417c-0.704,0-1.275,0.571-1.275,1.275"/>
		<path style="&st2;" d="M173.088,52.691c0,0.704,0.571,1.274,1.275,1.274"/>
		<path style="&st2;" d="M174.363,53.966c0.704,0,1.275-0.57,1.275-1.274"/>
		<path style="&st2;" d="M175.317,52.691c0-0.527-0.427-0.955-0.955-0.955"/>
		<path style="&st2;" d="M174.363,51.737c-0.527,0-0.955,0.427-0.955,0.955"/>
		<path style="&st2;" d="M173.408,52.691c0,0.527,0.427,0.955,0.955,0.955"/>
		<path style="&st2;" d="M174.363,53.646c0.527,0,0.955-0.427,0.955-0.955"/>
		<path style="&st2;" d="M138.243,52.691c0-0.704-0.571-1.275-1.274-1.275"/>
		<path style="&st2;" d="M136.969,51.417c-0.704,0-1.275,0.571-1.275,1.275"/>
		<path style="&st2;" d="M135.694,52.691c0,0.704,0.571,1.274,1.275,1.274"/>
		<path style="&st2;" d="M136.969,53.966c0.704,0,1.274-0.57,1.274-1.274"/>
		<path style="&st2;" d="M137.924,52.691c0-0.527-0.428-0.955-0.955-0.955"/>
		<path style="&st2;" d="M136.969,51.737c-0.527,0-0.955,0.427-0.955,0.955"/>
		<path style="&st2;" d="M136.014,52.691c0,0.527,0.428,0.955,0.955,0.955"/>
		<path style="&st2;" d="M136.969,53.646c0.527,0,0.955-0.427,0.955-0.955"/>
		<path style="&st2;" d="M128.895,52.691c0-0.704-0.571-1.275-1.275-1.275"/>
		<path style="&st2;" d="M127.62,51.417c-0.704,0-1.275,0.571-1.275,1.275"/>
		<path style="&st2;" d="M126.345,52.691c0,0.704,0.571,1.274,1.275,1.274"/>
		<path style="&st2;" d="M127.62,53.966c0.704,0,1.275-0.57,1.275-1.274"/>
		<path style="&st2;" d="M128.575,52.691c0-0.527-0.427-0.955-0.955-0.955"/>
		<path style="&st2;" d="M127.62,51.737c-0.527,0-0.955,0.427-0.955,0.955"/>
		<path style="&st2;" d="M126.666,52.691c0,0.527,0.427,0.955,0.955,0.955"/>
		<path style="&st2;" d="M127.62,53.646c0.527,0,0.955-0.427,0.955-0.955"/>
		<path style="&st2;" d="M128.895,64.022c0-0.704-0.571-1.274-1.275-1.274"/>
		<path style="&st2;" d="M127.62,62.748c-0.704,0-1.275,0.57-1.275,1.274"/>
		<path style="&st2;" d="M126.345,64.022c0,0.704,0.571,1.275,1.275,1.275"/>
		<path style="&st2;" d="M127.62,65.297c0.704,0,1.275-0.571,1.275-1.275"/>
		<path style="&st2;" d="M128.575,64.022c0-0.527-0.427-0.955-0.955-0.955"/>
		<path style="&st2;" d="M127.62,63.068c-0.527,0-0.955,0.428-0.955,0.955"/>
		<path style="&st2;" d="M126.666,64.022c0,0.527,0.427,0.955,0.955,0.955"/>
		<path style="&st2;" d="M127.62,64.978c0.527,0,0.955-0.428,0.955-0.955"/>
		<path style="&st2;" d="M138.243,64.022c0-0.704-0.571-1.274-1.274-1.274"/>
		<path style="&st2;" d="M136.969,62.748c-0.704,0-1.275,0.57-1.275,1.274"/>
		<path style="&st2;" d="M135.694,64.022c0,0.704,0.571,1.275,1.275,1.275"/>
		<path style="&st2;" d="M136.969,65.297c0.704,0,1.274-0.571,1.274-1.275"/>
		<path style="&st2;" d="M137.924,64.022c0-0.527-0.428-0.955-0.955-0.955"/>
		<path style="&st2;" d="M136.969,63.068c-0.527,0-0.955,0.428-0.955,0.955"/>
		<path style="&st2;" d="M136.014,64.022c0,0.527,0.428,0.955,0.955,0.955"/>
		<path style="&st2;" d="M136.969,64.978c0.527,0,0.955-0.428,0.955-0.955"/>
		<path style="&st2;" d="M147.592,64.022c0-0.704-0.571-1.274-1.275-1.274"/>
		<path style="&st2;" d="M146.317,62.748c-0.704,0-1.274,0.57-1.274,1.274"/>
		<path style="&st2;" d="M145.043,64.022c0,0.704,0.57,1.275,1.274,1.275"/>
		<path style="&st2;" d="M146.317,65.297c0.704,0,1.275-0.571,1.275-1.275"/>
		<path style="&st2;" d="M147.272,64.022c0-0.527-0.427-0.955-0.955-0.955"/>
		<path style="&st2;" d="M146.317,63.068c-0.527,0-0.955,0.428-0.955,0.955"/>
		<path style="&st2;" d="M145.363,64.022c0,0.527,0.427,0.955,0.955,0.955"/>
		<path style="&st2;" d="M146.317,64.978c0.527,0,0.955-0.428,0.955-0.955"/>
		<path style="&st2;" d="M156.941,64.022c0-0.704-0.571-1.274-1.275-1.274"/>
		<path style="&st2;" d="M155.666,62.748c-0.704,0-1.275,0.57-1.275,1.274"/>
		<path style="&st2;" d="M154.391,64.022c0,0.704,0.571,1.275,1.275,1.275"/>
		<path style="&st2;" d="M155.666,65.297c0.704,0,1.275-0.571,1.275-1.275"/>
		<path style="&st2;" d="M156.62,64.022c0-0.527-0.427-0.955-0.955-0.955"/>
		<path style="&st2;" d="M155.666,63.068c-0.527,0-0.955,0.428-0.955,0.955"/>
		<path style="&st2;" d="M154.711,64.022c0,0.527,0.427,0.955,0.955,0.955"/>
		<path style="&st2;" d="M155.666,64.978c0.527,0,0.955-0.428,0.955-0.955"/>
		<path style="&st2;" d="M166.289,64.022c0-0.704-0.571-1.274-1.275-1.274"/>
		<path style="&st2;" d="M165.014,62.748c-0.704,0-1.274,0.57-1.274,1.274"/>
		<path style="&st2;" d="M163.74,64.022c0,0.704,0.571,1.275,1.274,1.275"/>
		<path style="&st2;" d="M165.014,65.297c0.704,0,1.275-0.571,1.275-1.275"/>
		<path style="&st2;" d="M165.969,64.022c0-0.527-0.428-0.955-0.955-0.955"/>
		<path style="&st2;" d="M165.014,63.068c-0.527,0-0.955,0.428-0.955,0.955"/>
		<path style="&st2;" d="M164.059,64.022c0,0.527,0.428,0.955,0.955,0.955"/>
		<path style="&st2;" d="M165.014,64.978c0.527,0,0.955-0.428,0.955-0.955"/>
		<path style="&st2;" d="M175.637,64.022c0-0.704-0.571-1.274-1.275-1.274"/>
		<path style="&st2;" d="M174.363,62.748c-0.704,0-1.275,0.57-1.275,1.274"/>
		<path style="&st2;" d="M173.088,64.022c0,0.704,0.571,1.275,1.275,1.275"/>
		<path style="&st2;" d="M174.363,65.297c0.704,0,1.275-0.571,1.275-1.275"/>
		<path style="&st2;" d="M175.317,64.022c0-0.527-0.427-0.955-0.955-0.955"/>
		<path style="&st2;" d="M174.363,63.068c-0.527,0-0.955,0.428-0.955,0.955"/>
		<path style="&st2;" d="M173.408,64.022c0,0.527,0.427,0.955,0.955,0.955"/>
		<path style="&st2;" d="M174.363,64.978c0.527,0,0.955-0.428,0.955-0.955"/>
		<path style="&st2;" d="M184.986,64.022c0-0.704-0.571-1.274-1.274-1.274"/>
		<path style="&st2;" d="M183.711,62.748c-0.704,0-1.275,0.57-1.275,1.274"/>
		<path style="&st2;" d="M182.436,64.022c0,0.704,0.571,1.275,1.275,1.275"/>
		<path style="&st2;" d="M183.711,65.297c0.704,0,1.274-0.571,1.274-1.275"/>
		<path style="&st2;" d="M184.666,64.022c0-0.527-0.428-0.955-0.955-0.955"/>
		<path style="&st2;" d="M183.711,63.068c-0.527,0-0.955,0.428-0.955,0.955"/>
		<path style="&st2;" d="M182.756,64.022c0,0.527,0.428,0.955,0.955,0.955"/>
		<path style="&st2;" d="M183.711,64.978c0.527,0,0.955-0.428,0.955-0.955"/>
		<path style="&st2;" d="M194.334,64.022c0-0.704-0.571-1.274-1.275-1.274"/>
		<path style="&st2;" d="M193.059,62.748c-0.704,0-1.274,0.57-1.274,1.274"/>
		<path style="&st2;" d="M191.785,64.022c0,0.704,0.57,1.275,1.274,1.275"/>
		<path style="&st2;" d="M193.059,65.297c0.704,0,1.275-0.571,1.275-1.275"/>
		<path style="&st2;" d="M194.014,64.022c0-0.527-0.427-0.955-0.955-0.955"/>
		<path style="&st2;" d="M193.059,63.068c-0.527,0-0.955,0.428-0.955,0.955"/>
		<path style="&st2;" d="M192.105,64.022c0,0.527,0.427,0.955,0.955,0.955"/>
		<path style="&st2;" d="M193.059,64.978c0.527,0,0.955-0.428,0.955-0.955"/>
		<path style="&st1;" d="M84.702,34.278c-1.251,0-2.266,1.015-2.266,2.266"/>
		<path style="&st1;" d="M88.952,36.544c0-1.251-1.015-2.266-2.267-2.266"/>
		<path style="&st1;" d="M61.592,35.04c-1.18,0.822-1.82,2.049-1.82,3.487"/>
		<path style="&st1;" d="M67.383,38.054c-0.534-1.51-1.538-2.605-2.996-3.269"/>
		<path style="&st1;" d="M64.385,34.788c-0.939-0.427-1.946-0.335-2.792,0.254"/>
		<path style="&st2;" d="M62.889,38.527c0,0.782,0.634,1.417,1.417,1.417"/>
		<path style="&st1;" d="M67.383,38.054c0.408,1.155,1.443,1.887,2.668,1.887"/>
		<path style="&st2;" d="M61.19,39.943c-0.782,0-1.417,0.634-1.417,1.417"/>
		<path style="&st2;" d="M62.606,41.36c-0.782,0-1.417,0.634-1.417,1.417"/>
		<path style="&st1;" d="M58.073,54.391c0.939,0,1.7-0.761,1.7-1.7"/>
		<path style="&st1;" d="M57.802,39.034c0.368-0.335,0.556-0.76,0.556-1.258"/>
		<path style="&st1;" d="M58.357,34.561c0-1.564-1.268-2.833-2.833-2.833"/>
		<path style="&st1;" d="M55.241,52.975c0,0.782,0.634,1.417,1.416,1.417"/>
		<path style="&st1;" d="M87.535,74.788c0.782,0,1.417-0.634,1.417-1.417"/>
		<path style="&st2;" d="M86.119,73.371c0.782,0,1.417-0.634,1.417-1.417"/>
		<path style="&st1;" d="M86.685,79.037c0.47,0,0.85-0.38,0.85-0.85"/>
		<path style="&st2;" d="M86.969,49.858c-0.939,0-1.7,0.761-1.7,1.7"/>
		<path style="&st2;" d="M85.269,64.022c0,0.939,0.761,1.7,1.7,1.7"/>
		<path style="&st2;" d="M88.952,66.572c0-0.469-0.381-0.85-0.85-0.85"/>
		<path style="&st2;" d="M88.102,49.858c0.469,0,0.85-0.38,0.85-0.85"/>
		<path style="&st1;" d="M7.082,36.544c0-1.251-1.015-2.266-2.266-2.266"/>
		<path style="&st1;" d="M2.833,34.278c-1.251,0-2.266,1.015-2.266,2.266"/>
		<path style="&st1;" d="M38.81,38.527c0-1.437-0.641-2.664-1.82-3.486"/>
		<path style="&st1;" d="M34.198,34.788c-1.458,0.663-2.461,1.758-2.995,3.267"/>
		<path style="&st1;" d="M36.991,35.04c-0.847-0.59-1.855-0.682-2.794-0.254"/>
		<path style="&st2;" d="M34.278,39.943c0.782,0,1.417-0.634,1.417-1.417"/>
		<path style="&st1;" d="M28.532,39.943c1.226,0,2.262-0.733,2.671-1.889"/>
		<path style="&st2;" d="M38.81,41.36c0-0.782-0.634-1.417-1.417-1.417"/>
		<path style="&st2;" d="M37.394,42.776c0-0.782-0.634-1.417-1.417-1.417"/>
		<path style="&st1;" d="M38.81,52.691c0,0.938,0.761,1.7,1.7,1.7"/>
		<path style="&st1;" d="M40.227,37.776c0,0.498,0.188,0.922,0.556,1.257"/>
		<path style="&st1;" d="M43.059,31.728c-1.564,0-2.833,1.269-2.833,2.833"/>
		<path style="&st1;" d="M41.927,54.391c0.782,0,1.416-0.634,1.416-1.417"/>
		<path style="&st1;" d="M0.567,73.371c0,0.782,0.634,1.417,1.416,1.417"/>
		<path style="&st2;" d="M1.983,71.955c0,0.782,0.634,1.417,1.417,1.417"/>
		<path style="&st1;" d="M1.983,78.187c0,0.469,0.381,0.85,0.85,0.85"/>
		<path style="&st2;" d="M4.249,51.558c0-0.938-0.761-1.7-1.7-1.7"/>
		<path style="&st2;" d="M2.55,65.723c0.939,0,1.7-0.761,1.7-1.7"/>
		<path style="&st2;" d="M1.417,65.723c-0.469,0-0.85,0.38-0.85,0.85"/>
		<path style="&st2;" d="M0.567,49.009c0,0.469,0.38,0.85,0.85,0.85"/>
		<path style="&st2;" d="M4.816,71.105c0,0.469,0.38,0.85,0.85,0.85"/>
		<path style="&st2;" d="M5.666,69.972c-0.469,0-0.85,0.38-0.85,0.85"/>
		<path style="&st2;" d="M14.589,70.821c0-0.469-0.38-0.85-0.85-0.85"/>
		<path style="&st2;" d="M13.74,71.955c0.469,0,0.85-0.38,0.85-0.85"/>
		<path style="&st2;" d="M18.839,71.105c0,0.469,0.38,0.85,0.85,0.85"/>
		<path style="&st2;" d="M19.688,69.972c-0.469,0-0.85,0.38-0.85,0.85"/>
		<path style="&st2;" d="M28.612,70.821c0-0.469-0.381-0.85-0.85-0.85"/>
		<path style="&st2;" d="M27.762,71.955c0.469,0,0.85-0.38,0.85-0.85"/>
		<path style="&st2;" d="M32.861,71.105c0,0.469,0.38,0.85,0.85,0.85"/>
		<path style="&st2;" d="M33.711,69.972c-0.47,0-0.85,0.38-0.85,0.85"/>
		<path style="&st2;" d="M42.635,70.821c0-0.469-0.38-0.85-0.85-0.85"/>
		<path style="&st2;" d="M41.785,71.955c0.469,0,0.85-0.38,0.85-0.85"/>
		<path style="&st2;" d="M46.884,71.105c0,0.469,0.38,0.85,0.85,0.85"/>
		<path style="&st2;" d="M47.734,69.972c-0.469,0-0.85,0.38-0.85,0.85"/>
		<path style="&st2;" d="M56.657,70.821c0-0.469-0.38-0.85-0.85-0.85"/>
		<path style="&st2;" d="M55.807,71.955c0.469,0,0.85-0.38,0.85-0.85"/>
		<path style="&st2;" d="M60.906,71.105c0,0.469,0.38,0.85,0.85,0.85"/>
		<path style="&st2;" d="M61.757,69.972c-0.47,0-0.85,0.38-0.85,0.85"/>
		<path style="&st2;" d="M70.68,70.821c0-0.469-0.38-0.85-0.85-0.85"/>
		<path style="&st2;" d="M69.83,71.955c0.47,0,0.85-0.38,0.85-0.85"/>
		<path style="&st2;" d="M74.929,71.105c0,0.469,0.381,0.85,0.85,0.85"/>
		<path style="&st2;" d="M75.779,69.972c-0.469,0-0.85,0.38-0.85,0.85"/>
		<path style="&st2;" d="M83.853,71.955c0.469,0,0.85-0.38,0.85-0.85"/>
		<path style="&st2;" d="M84.702,70.821c0-0.469-0.38-0.85-0.85-0.85"/>
		<path style="&st1;" d="M180.312,32.861h5.666"/>
		<path style="&st2;" d="M148.867,22.238h22.946"/>
		<path style="&st1;" d="M173.229,17.564h5.666"/>
		<path style="&st1;" d="M141.785,17.564h5.666"/>
		<path style="&st1;" d="M147.45,17.564h25.779"/>
		<path style="&st2;" d="M122.946,75.354h21.955"/>
		<path style="&st2;" d="M147.734,75.354h15.864"/>
		<path style="&st2;" d="M166.43,75.354h15.864"/>
		<path style="&st2;" d="M185.127,75.354h12.606"/>
		<path style="&st2;" d="M163.173,39.943h-15.014"/>
		<path style="&st2;" d="M163.173,41.36h-15.014"/>
		<path style="&st2;" d="M160.34,43.484h-9.349"/>
		<path style="&st2;" d="M140.227,32.861v7.082"/>
		<path style="&st2;" d="M171.105,32.861v7.082"/>
		<path style="&st1;" d="M134.702,32.861h5.666"/>
		<path style="&st2;" d="M140.368,32.861h39.943"/>
		<path style="&st2;" d="M192.737,53.589v-1.796h0.646v1.796"/>
		<path style="&st2;" d="M183.388,53.589v-1.796h0.646v1.796"/>
		<path style="&st2;" d="M174.04,53.589v-1.796h0.646v1.796"/>
		<path style="&st2;" d="M136.646,53.589v-1.796h0.646v1.796"/>
		<path style="&st2;" d="M127.298,53.589v-1.796h0.646v1.796"/>
		<path style="&st2;" d="M127.298,64.921v-1.796h0.646v1.796"/>
		<path style="&st2;" d="M136.646,64.921v-1.796h0.646v1.796"/>
		<path style="&st2;" d="M145.994,64.921v-1.796h0.646v1.796"/>
		<path style="&st2;" d="M155.343,64.921v-1.796h0.646v1.796"/>
		<path style="&st2;" d="M164.691,64.921v-1.796h0.646v1.796"/>
		<path style="&st2;" d="M174.04,64.921v-1.796h0.646v1.796"/>
		<path style="&st2;" d="M183.388,64.921v-1.796h0.646v1.796"/>
		<path style="&st2;" d="M192.737,64.921v-1.796h0.646v1.796"/>
		<path style="&st2;" d="M193.059,52.691h-18.697v11.331h18.697"/>
		<path style="&st2;" d="M136.969,52.691h-9.349v11.331h37.394"/>
		<path style="&st2;" d="M53.824,57.791v10.765"/>
		<path style="&st2;" d="M71.955,47.025v21.53"/>
		<path style="&st2;" d="M61.19,42.776v11.615"/>
		<path style="&st1;" d="M59.773,38.527v14.165"/>
		<path style="&st2;" d="M62.889,34.55v3.977"/>
		<path style="&st1;" d="M84.702,34.278h1.983"/>
		<path style="&st1;" d="M82.436,36.544v3.399"/>
		<path style="&st2;" d="M83.853,39.943l5.099,4.249"/>
		<path style="&st2;" d="M83.34,41.36l4.195,3.496"/>
		<path style="&st1;" d="M58.357,34.561v3.215"/>
		<path style="&st1;" d="M55.241,41.36v11.615"/>
		<path style="&st1;" d="M55.241,41.36l2.561-2.326"/>
		<path style="&st2;" d="M66.289,39.943v3.399"/>
		<path style="&st2;" d="M76.204,39.943v3.399"/>
		<path style="&st2;" d="M52.408,37.394h2.833"/>
		<path style="&st2;" d="M55.241,37.394v3.966"/>
		<path style="&st2;" d="M44.759,57.791v10.765"/>
		<path style="&st2;" d="M26.629,47.025v21.53"/>
		<path style="&st2;" d="M37.394,42.776v11.615"/>
		<path style="&st1;" d="M38.81,38.527v14.165"/>
		<path style="&st2;" d="M35.694,34.55v3.977"/>
		<path style="&st1;" d="M4.816,34.278H2.833"/>
		<path style="&st1;" d="M7.082,36.544v3.399"/>
		<path style="&st2;" d="M5.666,39.943l-5.099,4.249"/>
		<path style="&st2;" d="M6.178,41.36l-4.196,3.496"/>
		<path style="&st1;" d="M40.227,34.561v3.215"/>
		<path style="&st1;" d="M43.343,41.36v11.615"/>
		<path style="&st1;" d="M43.343,41.36l-2.561-2.326"/>
		<path style="&st2;" d="M32.295,39.943v3.399"/>
		<path style="&st2;" d="M13.315,39.943v3.399"/>
		<path style="&st2;" d="M46.176,37.394h-2.833"/>
		<path style="&st2;" d="M43.343,37.394v3.966"/>
		<path style="&st2;" d="M17.564,47.025v21.53"/>
		<path style="&st2;" d="M75.779,69.972h8.074"/>
		<path style="&st2;" d="M1.983,74.788h85.552"/>
		<path style="&st2;" d="M3.399,73.371h82.719"/>
		<path style="&st2;" d="M75.779,71.955h8.074"/>
		<path style="&st1;" d="M55.524,31.728H43.059"/>
		<path style="&st2;" d="M33.711,71.955h8.074"/>
		<path style="&st2;" d="M33.711,69.972h8.074"/>
		<path style="&st2;" d="M19.688,69.972h8.074"/>
		<path style="&st2;" d="M19.688,71.955h8.074"/>
		<path style="&st2;" d="M5.666,69.972h8.074"/>
		<path style="&st2;" d="M5.666,71.955h8.074"/>
		<path style="&st2;" d="M47.734,69.972h8.074"/>
		<path style="&st2;" d="M47.734,71.955h8.074"/>
		<path style="&st2;" d="M61.757,69.972h8.073"/>
		<path style="&st2;" d="M61.757,71.955h8.073"/>
		<path style="&st2;" d="M4.249,74.788v1.983h3.966v-1.983"/>
		<path style="&st2;" d="M14.164,74.788v1.983h3.966v-1.983"/>
		<path style="&st2;" d="M24.079,74.788v1.983h3.966v-1.983"/>
		<path style="&st2;" d="M35.128,74.788v1.983h3.966v-1.983"/>
		<path style="&st1;" d="M77.904,79.037h8.782"/>
		<path style="&st1;" d="M11.615,79.037l2.266,1.417h61.756l2.266-1.417"/>
		<path style="&st2;" d="M59.49,74.788v1.983h3.966v-1.983"/>
		<path style="&st2;" d="M73.938,74.788v1.983h-3.966v-1.983"/>
		<path style="&st2;" d="M85.269,74.788v1.983h-3.966v-1.983"/>
		<path style="&st2;" d="M51.275,74.788v2.833h-3.966v-2.833"/>
		<path style="&st2;" d="M8.499,57.791H81.02"/>
		<path style="&st2;" d="M62.889,68.555v-21.53h18.13v21.53H8.499v-21.53h27.196v21.53"/>
		<path style="&st2;" d="M33.711,39.943v3.399H11.898v-3.399"/>
		<path style="&st2;" d="M64.872,39.943v3.399H77.62v-3.399"/>
		<path style="&st2;" d="M51.275,76.204h-3.966"/>
		<path style="&st1;" d="M0.567,73.371V36.544"/>
		<path style="&st2;" d="M85.269,64.022V51.558"/>
		<path style="&st2;" d="M87.535,71.955v-6.232"/>
		<path style="&st2;" d="M4.249,64.022V51.558"/>
		<path style="&st1;" d="M2.833,79.037h8.782"/>
		<path style="&st2;" d="M11.615,79.037h66.289"/>
		<path style="&st2;" d="M55.241,39.094H43.343"/>
		<path style="&st2;" d="M53.541,37.394v-3.399h-8.499v3.399"/>
		<path style="&st2;" d="M46.17,35.127h6.238v2.833h-6.232v-2.833"/>
		<path style="&st1;" d="M44.759,9.065V0.567H160.34v8.499"/>
		<g ewd:pinNo="1">
			<text transform="matrix(0.88 0 0 1 11.3655 54.377)"><tspan x="0" y="0" style="&st3; &st0;">1</tspan></text>
		</g>
		<g ewd:pinNo="2">
			<text transform="matrix(0.88 0 0 1 20.4304 54.377)"><tspan x="0" y="0" style="&st3; &st0;">2</tspan></text>
		</g>
		<g ewd:pinNo="3">
			<text transform="matrix(0.88 0 0 1 29.4958 54.377)"><tspan x="0" y="0" style="&st3; &st0;">3</tspan></text>
		</g>
		<g ewd:pinNo="4">
			<text transform="matrix(0.88 0 0 1 65.7566 54.377)"><tspan x="0" y="0" style="&st3; &st0;">4</tspan></text>
		</g>
		<g ewd:pinNo="5">
			<text transform="matrix(0.88 0 0 1 74.8215 54.377)"><tspan x="0" y="0" style="&st3; &st0;">5</tspan></text>
		</g>
		<g ewd:pinNo="6">
			<text transform="matrix(0.88 0 0 1 11.3655 65.1416)"><tspan x="0" y="0" style="&st3; &st0;">6</tspan></text>
		</g>
		<g ewd:pinNo="7">
			<text transform="matrix(0.88 0 0 1 20.4304 65.1416)"><tspan x="0" y="0" style="&st3; &st0;">7</tspan></text>
		</g>
		<g ewd:pinNo="8">
			<text transform="matrix(0.88 0 0 1 29.4958 65.1416)"><tspan x="0" y="0" style="&st3; &st0;">8</tspan></text>
		</g>
		<g ewd:pinNo="9">
			<text transform="matrix(0.88 0 0 1 38.5608 65.1416)"><tspan x="0" y="0" style="&st3; &st0;">9</tspan></text>
		</g>
		<g ewd:pinNo="10">
			<text transform="matrix(0.88 0 0 1 45.9602 65.1416)"><tspan x="0" y="0" style="&st3; &st0;">1</tspan></text>
			<text transform="matrix(0.88 0 0 1 49.3186 65.1416)"><tspan x="0" y="0" style="&st3; &st0;">0</tspan></text>
		</g>
		<g ewd:pinNo="11">
			<text transform="matrix(0.88 0 0 1 55.0256 65.1416)"><tspan x="0" y="0" style="&st3; &st0;">1</tspan></text>
			<text transform="matrix(0.88 0 0 1 58.3835 65.1416)"><tspan x="0" y="0" style="&st3; &st0;">1</tspan></text>
		</g>
		<g ewd:pinNo="12">
			<text transform="matrix(0.88 0 0 1 64.0906 65.1416)"><tspan x="0" y="0" style="&st3; &st0;">1</tspan></text>
			<text transform="matrix(0.88 0 0 1 67.4485 65.1416)"><tspan x="0" y="0" style="&st3; &st0;">2</tspan></text>
		</g>
		<g ewd:pinNo="13">
			<text transform="matrix(0.88 0 0 1 73.156 65.1416)"><tspan x="0" y="0" style="&st3; &st0;">1</tspan></text>
			<text transform="matrix(0.88 0 0 1 76.5139 65.1416)"><tspan x="0" y="0" style="&st3; &st0;">3</tspan></text>
		</g>
	</g>
</g>
</svg>