﻿<?xml version="1.0"?>
<!-- Generator: Adobe Illustrator 10.0, SVG Export Plug-In . SVG Version: 3.0.0 Build 77)  -->
<!DOCTYPE svg PUBLIC "-//W3C//DTD SVG 1.0//EN" "http://www.w3.org/TR/2001/REC-SVG-20010904/DTD/svg10.dtd"[
	<!ENTITY ns_flows "http://ns.adobe.com/Flows/1.0/">
	<!ENTITY ns_svg "http://www.w3.org/2000/svg">
	<!ENTITY ns_xlink "http://www.w3.org/1999/xlink">
	<!ENTITY st0 "font-size:6.6349px;">
	<!ENTITY st1 "fill:none;stroke:#000000;stroke-width:1.1331;stroke-linecap:round;stroke-linejoin:round;">
	<!ENTITY st2 "fill:none;stroke:#000000;stroke-width:0.8499;stroke-linecap:round;stroke-linejoin:round;">
	<!ENTITY st3 "font-family:'Arial';">
	<!ATTLIST svg
		xmlns:ewd CDATA #FIXED "http://shcl.co.jp/ewd"
		xmlns:a CDATA #FIXED "http://ns.adobe.com/AdobeSVGViewerExtensions/3.0/"
		ewd:ver CDATA #IMPLIED>
	<!ATTLIST g
		ewd:pinNo CDATA #IMPLIED>
]>
<svg width="60.51" height="43.909" viewBox="0 0 60.51 43.909" style="overflow:visible;enable-background:new 0 0 60.51 43.909" xml:space="preserve" onload="call_execInitLoadProc_svg('connector')" ewd:ver="2.1.2.5" xmlns="&ns_svg;" xmlns:ewd="http://shcl.co.jp/ewd" xmlns:a="http://ns.adobe.com/AdobeSVGViewerExtensions/3.0/" xmlns:xlink="&ns_xlink;">
<script type="text/javascript" xlink:href="../../../../../system/js/ewd/fig/svgfig.js"/>
<g id="レイヤー_1">
	<g>
		<path style="&st2;" d="M4.108,36.969h52.294"/>
		<path style="&st1;" d="M25.875,0.567h8.759"/>
		<path style="&st1;" d="M57.111,7.649h-3.671"/>
		<path style="&st1;" d="M7.071,7.649H3.399"/>
		<path style="&st1;" d="M13.722,43.343h33.065"/>
		<path style="&st2;" d="M43.819,34.844V21.813"/>
		<path style="&st2;" d="M34.776,21.813v13.031"/>
		<path style="&st2;" d="M25.734,34.844V21.813"/>
		<path style="&st2;" d="M16.691,21.813v13.031"/>
		<path style="&st2;" d="M45.807,13.314H14.702"/>
		<path style="&st2;" d="M35.343,9.773H25.167"/>
		<path style="&st2;" d="M35.343,11.19H25.167"/>
		<path style="&st2;" d="M26.584,9.773v1.417"/>
		<path style="&st2;" d="M33.927,9.773v1.417"/>
		<path style="&st2;" d="M54.986,18.98H5.524"/>
		<path style="&st2;" d="M4.816,19.688v4.462"/>
		<path style="&st2;" d="M55.694,19.688v4.462"/>
		<path style="&st2;" d="M4.816,30.878v5.382"/>
		<path style="&st2;" d="M55.694,30.878v5.382"/>
		<path style="&st2;" d="M2.691,23.442v8.145"/>
		<path style="&st2;" d="M57.819,23.442v8.145"/>
		<path style="&st2;" d="M45.807,16.855H14.702"/>
		<path style="&st2;" d="M4.108,16.855h3.671"/>
		<path style="&st2;" d="M52.731,16.855h3.671"/>
		<path style="&st2;" d="M8.81,39.802h42.889"/>
		<path style="&st2;" d="M56.402,36.969v0.431"/>
		<path style="&st2;" d="M4.108,36.969v0.431"/>
		<path style="&st2;" d="M4.108,16.855c-0.782,0-1.417,0.634-1.417,1.417"/>
		<path style="&st1;" d="M2.691,35.552c0,0.561,0.301,1.038,0.807,1.279"/>
		<path style="&st2;" d="M56.402,36.969c0.221,0,0.409-0.042,0.608-0.137"/>
		<path style="&st2;" d="M57.819,18.272c0-0.782-0.634-1.417-1.417-1.417"/>
		<path style="&st1;" d="M25.875,0.567c-0.782,0-1.417,0.634-1.417,1.416"/>
		<path style="&st1;" d="M36.051,1.983c0-0.782-0.634-1.416-1.417-1.416"/>
		<path style="&st1;" d="M16.119,7.649c-0.782,0-1.417,0.634-1.417,1.417"/>
		<path style="&st1;" d="M45.807,9.065c0-0.782-0.634-1.417-1.417-1.417"/>
		<path style="&st1;" d="M3.399,7.649c-0.391,0-0.708,0.317-0.708,0.708"/>
		<path style="&st1;" d="M7.779,8.357c0-0.391-0.317-0.708-0.708-0.708"/>
		<path style="&st1;" d="M53.439,7.649c-0.391,0-0.708,0.317-0.708,0.708"/>
		<path style="&st1;" d="M57.819,8.357c0-0.391-0.317-0.708-0.708-0.708"/>
		<path style="&st1;" d="M11.79,42.581c0.547,0.51,1.185,0.762,1.932,0.762"/>
		<path style="&st1;" d="M46.787,43.343c0.748,0,1.386-0.251,1.933-0.762"/>
		<path style="&st2;" d="M25.167,11.19c-0.391,0-0.708,0.317-0.708,0.708"/>
		<path style="&st2;" d="M36.051,11.898c0-0.391-0.317-0.708-0.708-0.708"/>
		<path style="&st2;" d="M24.459,9.065c0,0.391,0.317,0.708,0.708,0.708"/>
		<path style="&st2;" d="M35.343,9.773c0.391,0,0.708-0.317,0.708-0.708"/>
		<path style="&st2;" d="M55.694,19.688c0-0.391-0.317-0.708-0.708-0.708"/>
		<path style="&st2;" d="M5.524,18.98c-0.391,0-0.708,0.317-0.708,0.708"/>
		<path style="&st2;" d="M4.816,36.261c0,0.391,0.317,0.708,0.708,0.708"/>
		<path style="&st2;" d="M54.986,36.969c0.392,0,0.708-0.317,0.708-0.708"/>
		<path style="&st2;" d="M3.499,36.83c0.2,0.095,0.388,0.138,0.609,0.138"/>
		<path style="&st1;" d="M57.011,36.833c0.507-0.241,0.809-0.719,0.809-1.281"/>
		<path style="&st2;" d="M39.298,16.855v-1.7H21.213v1.7"/>
		<path style="&st1;" d="M14.702,9.065v7.79H7.779V8.357"/>
		<path style="&st1;" d="M24.459,1.983v5.666h-8.34"/>
		<path style="&st1;" d="M44.391,7.649h-8.34V1.983"/>
		<path style="&st1;" d="M52.731,8.357v8.499h-6.923v-7.79"/>
		<path style="&st1;" d="M2.691,35.552v-3.966H0.567v-8.145h2.125V8.357"/>
		<path style="&st1;" d="M57.819,35.552v-3.966h2.125v-8.145h-2.125V8.357"/>
		<path style="&st2;" d="M33.218,7.649V3.399h-5.926v4.249"/>
		<path style="&st2;" d="M7.649,21.813h45.212v13.031H7.649V21.813"/>
		<path style="&st1;" d="M11.79,42.581l-2.98-2.779H4.108v-2.402L3.499,36.83"/>
		<path style="&st1;" d="M57.011,36.83l-0.609,0.569v2.402h-4.703l-2.98,2.779"/>
		<path style="&st2;" d="M2.691,30.878h2.833V24.15H2.691"/>
		<path style="&st2;" d="M57.819,24.15h-2.833v6.728h2.833"/>
		<path style="&st2;" d="M36.051,13.314V7.649H24.459v5.666"/>
		<g ewd:pinNo="1">
			<text transform="matrix(0.88 0 0 1 10.5042 30.2979)"><tspan x="0" y="0" style="&st3; &st0;">1</tspan></text>
		</g>
		<g ewd:pinNo="2">
			<text transform="matrix(0.88 0 0 1 19.5466 30.2979)"><tspan x="0" y="0" style="&st3; &st0;">2</tspan></text>
		</g>
		<g ewd:pinNo="3">
			<text transform="matrix(0.88 0 0 1 28.5891 30.2979)"><tspan x="0" y="0" style="&st3; &st0;">3</tspan></text>
		</g>
		<g ewd:pinNo="4">
			<text transform="matrix(0.88 0 0 1 37.6316 30.2979)"><tspan x="0" y="0" style="&st3; &st0;">4</tspan></text>
		</g>
		<g ewd:pinNo="5">
			<text transform="matrix(0.88 0 0 1 46.6741 30.2979)"><tspan x="0" y="0" style="&st3; &st0;">5</tspan></text>
		</g>
	</g>
</g>
</svg>