﻿<?xml version="1.0"?>
<!-- Generator: Adobe Illustrator 10.0, SVG Export Plug-In . SVG Version: 3.0.0 Build 77)  -->
<!DOCTYPE svg PUBLIC "-//W3C//DTD SVG 1.0//EN" "http://www.w3.org/TR/2001/REC-SVG-20010904/DTD/svg10.dtd"[
	<!ENTITY ns_flows "http://ns.adobe.com/Flows/1.0/">
	<!ENTITY ns_svg "http://www.w3.org/2000/svg">
	<!ENTITY ns_xlink "http://www.w3.org/1999/xlink">
	<!ENTITY st0 "font-size:6.6349px;">
	<!ENTITY st1 "fill:none;stroke:#000000;stroke-width:1.1331;stroke-linecap:round;stroke-linejoin:round;">
	<!ENTITY st2 "fill:none;stroke:#000000;stroke-width:0.8499;stroke-linecap:round;stroke-linejoin:round;">
	<!ENTITY st3 "font-family:'Arial';">
	<!ATTLIST svg
		xmlns:ewd CDATA #FIXED "http://shcl.co.jp/ewd"
		xmlns:a CDATA #FIXED "http://ns.adobe.com/AdobeSVGViewerExtensions/3.0/"
		ewd:ver CDATA #IMPLIED>
	<!ATTLIST g
		ewd:pinNo CDATA #IMPLIED>
]>
<svg width="154.107" height="104.532" viewBox="0 0 154.107 104.532" style="overflow:visible;enable-background:new 0 0 154.107 104.532" xml:space="preserve" onload="call_execInitLoadProc_svg('connector')" ewd:ver="2.1.2.5" xmlns="&ns_svg;" xmlns:ewd="http://shcl.co.jp/ewd" xmlns:a="http://ns.adobe.com/AdobeSVGViewerExtensions/3.0/" xmlns:xlink="&ns_xlink;">
<script type="text/javascript" xlink:href="../../../../../system/js/ewd/fig/svgfig.js"/>
<g id="レイヤー_1">
	<g>
		<path style="&st2;" d="M36.544,67.139c-1.095,0-1.983,0.888-1.983,1.983"/>
		<path style="&st2;" d="M37.394,19.547c-1.564,0-2.833,1.268-2.833,2.833"/>
		<path style="&st2;" d="M48.442,69.122c0-1.096-0.888-1.983-1.983-1.983"/>
		<path style="&st2;" d="M105.666,90.651c0,1.095,0.888,1.983,1.983,1.983"/>
		<path style="&st2;" d="M117.564,92.635c1.095,0,1.983-0.888,1.983-1.983"/>
		<path style="&st2;" d="M117.564,86.969c1.095,0,1.983-0.888,1.983-1.983"/>
		<path style="&st2;" d="M105.666,84.986c0,1.095,0.888,1.983,1.983,1.983"/>
		<path style="&st2;" d="M107.649,67.139c-1.095,0-1.983,0.888-1.983,1.983"/>
		<path style="&st2;" d="M119.547,22.38c0-1.564-1.268-2.833-2.833-2.833"/>
		<path style="&st2;" d="M34.561,90.651c0,1.095,0.888,1.983,1.983,1.983"/>
		<path style="&st2;" d="M119.547,69.122c0-1.096-0.888-1.983-1.983-1.983"/>
		<path style="&st2;" d="M46.459,92.635c1.095,0,1.983-0.888,1.983-1.983"/>
		<path style="&st2;" d="M34.561,84.986c0,1.095,0.888,1.983,1.983,1.983"/>
		<path style="&st2;" d="M46.459,86.969c1.095,0,1.983-0.888,1.983-1.983"/>
		<path style="&st1;" d="M0.567,101.133c0,1.564,1.268,2.833,2.833,2.833"/>
		<path style="&st1;" d="M49.858,103.966c1.565,0,2.833-1.268,2.833-2.833"/>
		<path style="&st1;" d="M101.416,101.133c0,1.564,1.269,2.833,2.833,2.833"/>
		<path style="&st1;" d="M150.708,103.966c1.564,0,2.833-1.268,2.833-2.833"/>
		<path style="&st1;" d="M65.722,0.567c7.32,3.904,15.343,3.904,22.663,0"/>
		<path style="&st2;" d="M64.385,6.232c8.326,3.919,17.011,3.919,25.337,0"/>
		<path style="&st2;" d="M34.561,58.64c0-1.564-1.268-2.833-2.833-2.833"/>
		<path style="&st2;" d="M37.394,13.881c-4.694,0-8.499,3.805-8.499,8.499"/>
		<path style="&st2;" d="M122.38,55.808c-1.564,0-2.833,1.268-2.833,2.833"/>
		<path style="&st2;" d="M125.212,22.38c0-4.694-3.805-8.499-8.499-8.499"/>
		<path style="&st2;" d="M3.399,87.819c-1.564,0-2.833,1.268-2.833,2.833"/>
		<path style="&st2;" d="M14.731,90.651c0-1.564-1.268-2.833-2.833-2.833"/>
		<path style="&st2;" d="M153.541,90.651c0-1.564-1.268-2.833-2.833-2.833"/>
		<path style="&st2;" d="M142.21,87.819c-1.564,0-2.833,1.268-2.833,2.833"/>
		<path style="&st2;" d="M117.564,69.972h-9.915v14.165h9.915V69.972"/>
		<path style="&st2;" d="M36.544,67.139h9.915"/>
		<path style="&st2;" d="M119.547,22.38v68.272"/>
		<path style="&st2;" d="M36.544,69.972h9.915v14.165h-9.915V69.972"/>
		<path style="&st2;" d="M117.564,92.635h-9.915"/>
		<path style="&st2;" d="M117.564,86.969h-9.915"/>
		<path style="&st2;" d="M34.561,22.38v68.272"/>
		<path style="&st2;" d="M36.544,92.635h9.915"/>
		<path style="&st2;" d="M117.564,67.139h-9.915"/>
		<path style="&st2;" d="M36.544,86.969h9.915"/>
		<path style="&st1;" d="M52.691,92.635h48.725"/>
		<path style="&st1;" d="M26.062,0.567h39.66"/>
		<path style="&st1;" d="M52.691,92.635v8.499"/>
		<path style="&st1;" d="M49.858,103.966H3.399"/>
		<path style="&st1;" d="M0.567,42.776v58.357"/>
		<path style="&st1;" d="M153.541,42.776v58.357"/>
		<path style="&st1;" d="M104.249,103.966h46.459"/>
		<path style="&st1;" d="M101.416,92.635v8.499"/>
		<path style="&st1;" d="M128.045,0.567h-39.66"/>
		<path style="&st2;" d="M34.561,61.473H17.564l-5.666,5.666V78.47l5.666,5.666h16.997"/>
		<path style="&st2;" d="M119.547,61.473h19.83l5.666,5.666V78.47l-5.666,5.666h-19.83"/>
		<path style="&st2;" d="M37.394,19.547h79.32"/>
		<path style="&st1;" d="M0.567,42.776l25.496-42.21"/>
		<path style="&st1;" d="M128.045,0.567l25.496,42.21"/>
		<path style="&st2;" d="M6.232,44.354L29.258,6.232"/>
		<path style="&st2;" d="M0.567,55.808h21.247v-8.499h5.666v8.499h4.25"/>
		<path style="&st2;" d="M6.232,44.354v5.788"/>
		<path style="&st2;" d="M6.232,50.142h9.915v-8.499h12.748"/>
		<path style="&st2;" d="M28.895,41.643V22.38"/>
		<path style="&st2;" d="M37.394,13.881h2.833V6.232"/>
		<path style="&st2;" d="M29.258,6.232h10.969"/>
		<path style="&st2;" d="M45.892,6.232h18.493"/>
		<path style="&st2;" d="M45.892,6.232v7.649"/>
		<path style="&st2;" d="M147.875,44.354L124.85,6.232"/>
		<path style="&st2;" d="M147.875,50.142h-9.915v-8.499h-12.748"/>
		<path style="&st2;" d="M147.875,44.354v5.788"/>
		<path style="&st2;" d="M153.541,55.808h-21.246v-8.499h-5.666v8.499h-4.249"/>
		<path style="&st2;" d="M125.212,41.643V22.38"/>
		<path style="&st2;" d="M116.714,13.881h-2.833V6.232"/>
		<path style="&st2;" d="M124.85,6.232h-10.969"/>
		<path style="&st2;" d="M108.215,6.232v7.649"/>
		<path style="&st2;" d="M89.722,6.232h18.493"/>
		<path style="&st2;" d="M45.892,13.881h62.323"/>
		<path style="&st2;" d="M60.057,54.108h-9.915v5.666l-1.7,1.7v29.178"/>
		<path style="&st2;" d="M105.666,90.651V61.473l-1.7-1.7v-5.666h-9.915"/>
		<path style="&st2;" d="M60.057,54.108l14.164,16.997h5.666l14.165-16.997"/>
		<path style="&st2;" d="M71.861,68.272h10.385"/>
		<path style="&st2;" d="M49.858,101.133H3.399"/>
		<path style="&st2;" d="M11.898,96.884h37.96"/>
		<path style="&st2;" d="M3.399,90.651v10.482"/>
		<path style="&st2;" d="M49.858,96.884v4.25"/>
		<path style="&st2;" d="M3.399,90.651h8.499v6.232"/>
		<path style="&st2;" d="M3.399,87.819h8.499"/>
		<path style="&st2;" d="M14.731,90.651v1.983h4.25v-1.983l2.833-2.833h12.748"/>
		<path style="&st2;" d="M150.708,90.651v10.482"/>
		<path style="&st2;" d="M142.21,96.884h-37.96"/>
		<path style="&st2;" d="M150.708,87.819h-8.499"/>
		<path style="&st2;" d="M139.377,90.651v1.983h-4.249v-1.983l-2.833-2.833h-12.748"/>
		<path style="&st2;" d="M104.249,101.133h46.459"/>
		<path style="&st2;" d="M104.249,96.884v4.25"/>
		<path style="&st2;" d="M150.708,90.651h-8.499v6.232"/>
		<g ewd:pinNo="2">
			<text transform="matrix(0.88 0 0 1 39.8357 79.0229)"><tspan x="0" y="0" style="&st3; &st0;">2</tspan></text>
		</g>
		<g ewd:pinNo="1">
			<text transform="matrix(0.88 0 0 1 110.9407 79.0229)"><tspan x="0" y="0" style="&st3; &st0;">1</tspan></text>
		</g>
	</g>
</g>
</svg>