﻿<?xml version="1.0"?>
<!-- Generator: Adobe Illustrator 10.0, SVG Export Plug-In . SVG Version: 3.0.0 Build 77)  -->
<!DOCTYPE svg PUBLIC "-//W3C//DTD SVG 1.0//EN" "http://www.w3.org/TR/2001/REC-SVG-20010904/DTD/svg10.dtd"[
	<!ENTITY ns_flows "http://ns.adobe.com/Flows/1.0/">
	<!ENTITY ns_svg "http://www.w3.org/2000/svg">
	<!ENTITY ns_xlink "http://www.w3.org/1999/xlink">
	<!ENTITY st0 "font-size:6.6349px;">
	<!ENTITY st1 "fill:none;stroke:#000000;stroke-width:1.1331;stroke-linecap:round;stroke-linejoin:round;">
	<!ENTITY st2 "fill:none;stroke:#000000;stroke-width:0.8499;stroke-linecap:round;stroke-linejoin:round;">
	<!ENTITY st3 "font-family:'Arial';">
	<!ATTLIST svg
		xmlns:ewd CDATA #FIXED "http://shcl.co.jp/ewd"
		xmlns:a CDATA #FIXED "http://ns.adobe.com/AdobeSVGViewerExtensions/3.0/"
		ewd:ver CDATA #IMPLIED>
	<!ATTLIST g
		ewd:pinNo CDATA #IMPLIED>
]>
<svg width="107.393" height="80.454" viewBox="0 0 107.393 80.454" style="overflow:visible;enable-background:new 0 0 107.393 80.454" xml:space="preserve" onload="call_execInitLoadProc_svg('connector')" ewd:ver="2.1.2.5" xmlns="&ns_svg;" xmlns:ewd="http://shcl.co.jp/ewd" xmlns:a="http://ns.adobe.com/AdobeSVGViewerExtensions/3.0/" xmlns:xlink="&ns_xlink;">
<script type="text/javascript" xlink:href="../../../../../system/js/ewd/fig/svgfig.js"/>
<g id="レイヤー_1">
	<g>
		<path style="&st1;" d="M96.017,79.887c1.816,0,3.362-0.485,4.853-1.521"/>
		<path style="&st1;" d="M6.524,78.365c1.491,1.037,3.037,1.522,4.853,1.522"/>
		<path style="&st1;" d="M106.813,14.731c0-7.823-6.342-14.164-14.165-14.164"/>
		<path style="&st1;" d="M14.745,0.567c-7.823,0-14.164,6.342-14.164,14.164"/>
		<path style="&st2;" d="M100.439,69.972v4.25"/>
		<path style="&st2;" d="M6.955,69.972v4.25"/>
		<path style="&st2;" d="M21.827,50.142V34.561H6.246v15.581h94.901V34.561H85.567v15.581"/>
		<path style="&st2;" d="M21.827,37.394h63.739"/>
		<path style="&st2;" d="M34.575,37.394v12.748"/>
		<path style="&st2;" d="M47.323,37.394v12.748"/>
		<path style="&st2;" d="M60.071,37.394v12.748"/>
		<path style="&st2;" d="M72.819,37.394v12.748"/>
		<path style="&st2;" d="M21.827,50.142v15.581H6.246V50.142"/>
		<path style="&st2;" d="M101.147,50.142v15.581H85.567V50.142"/>
		<path style="&st2;" d="M21.827,62.89h25.496V50.142"/>
		<path style="&st2;" d="M60.071,50.142V62.89h25.496"/>
		<path style="&st2;" d="M72.819,50.142V62.89"/>
		<path style="&st2;" d="M34.575,50.142V62.89"/>
		<path style="&st2;" d="M101.147,55.808h5.666"/>
		<path style="&st2;" d="M0.581,69.972h106.232"/>
		<path style="&st2;" d="M50.156,74.221V52.975h7.082v21.247"/>
		<path style="&st2;" d="M50.156,55.808h7.082"/>
		<path style="&st1;" d="M11.377,79.887h84.64"/>
		<path style="&st1;" d="M0.567,74.221l5.957,4.144"/>
		<path style="&st1;" d="M106.827,74.221l-5.958,4.144"/>
		<path style="&st2;" d="M106.813,23.229h-5.666v8.499"/>
		<path style="&st2;" d="M0.581,23.229h5.666v8.499"/>
		<path style="&st2;" d="M101.147,26.062h5.666"/>
		<path style="&st2;" d="M0.581,26.062h5.666"/>
		<path style="&st2;" d="M34.575,31.728V13.314"/>
		<path style="&st1;" d="M14.745,0.567h77.904"/>
		<path style="&st1;" d="M0.581,14.731v59.49"/>
		<path style="&st2;" d="M72.819,13.314v18.414"/>
		<path style="&st2;" d="M57.238,74.221h49.575"/>
		<path style="&st1;" d="M106.813,14.731v59.49"/>
		<path style="&st2;" d="M34.575,18.98h38.244"/>
		<path style="&st2;" d="M6.246,31.728h15.581"/>
		<path style="&st2;" d="M0.581,74.221h49.575"/>
		<path style="&st2;" d="M30.326,13.314h46.742"/>
		<path style="&st2;" d="M34.575,21.813h-4.249V9.065h46.742v12.748h-4.25"/>
		<path style="&st2;" d="M21.827,31.728V16.147h5.666v15.581"/>
		<path style="&st2;" d="M79.901,31.728V16.147h5.666v15.581"/>
		<path style="&st2;" d="M40.241,13.314v-1.417h26.912v1.417"/>
		<path style="&st2;" d="M34.575,16.147h5.666v-2.833"/>
		<path style="&st2;" d="M79.901,18.98h5.666"/>
		<path style="&st2;" d="M21.827,18.98h5.666"/>
		<path style="&st2;" d="M67.153,13.314v2.833h5.666"/>
		<path style="&st2;" d="M27.493,16.147V6.232h52.408v9.915"/>
		<path style="&st2;" d="M101.147,38.81h5.666"/>
		<path style="&st2;" d="M6.246,55.808H0.581"/>
		<path style="&st2;" d="M6.246,38.81H0.581"/>
		<path style="&st2;" d="M1.997,58.64v7.083H4.83V58.64H1.997"/>
		<path style="&st2;" d="M102.564,58.64v7.083h2.833V58.64H102.564"/>
		<path style="&st2;" d="M27.493,31.728h7.082"/>
		<path style="&st2;" d="M85.567,31.728h15.581"/>
		<path style="&st2;" d="M72.819,31.728h7.082"/>
		<g ewd:pinNo="1">
			<text transform="matrix(0.88 0 0 1 12.3713 44.3203)"><tspan x="0" y="0" style="&st3; &st0;">1</tspan></text>
		</g>
		<g ewd:pinNo="2">
			<text transform="matrix(0.88 0 0 1 26.5354 45.7368)"><tspan x="0" y="0" style="&st3; &st0;">2</tspan></text>
		</g>
		<g ewd:pinNo="3">
			<text transform="matrix(0.88 0 0 1 39.2834 45.7368)"><tspan x="0" y="0" style="&st3; &st0;">3</tspan></text>
		</g>
		<g ewd:pinNo="4">
			<text transform="matrix(0.88 0 0 1 52.031 45.7368)"><tspan x="0" y="0" style="&st3; &st0;">4</tspan></text>
		</g>
		<g ewd:pinNo="5">
			<text transform="matrix(0.88 0 0 1 64.7791 45.7368)"><tspan x="0" y="0" style="&st3; &st0;">5</tspan></text>
		</g>
		<g ewd:pinNo="6">
			<text transform="matrix(0.88 0 0 1 77.5266 45.7368)"><tspan x="0" y="0" style="&st3; &st0;">6</tspan></text>
		</g>
		<g ewd:pinNo="7">
			<text transform="matrix(0.88 0 0 1 91.6912 44.3203)"><tspan x="0" y="0" style="&st3; &st0;">7</tspan></text>
		</g>
		<g ewd:pinNo="13">
			<text transform="matrix(0.88 0 0 1 90.0256 59.9014)"><tspan x="0" y="0" style="&st3; &st0;">1</tspan></text>
			<text transform="matrix(0.88 0 0 1 93.3835 59.9014)"><tspan x="0" y="0" style="&st3; &st0;">3</tspan></text>
		</g>
		<g ewd:pinNo="12">
			<text transform="matrix(0.88 0 0 1 75.8611 58.4849)"><tspan x="0" y="0" style="&st3; &st0;">1</tspan></text>
			<text transform="matrix(0.88 0 0 1 79.219 58.4849)"><tspan x="0" y="0" style="&st3; &st0;">2</tspan></text>
		</g>
		<g ewd:pinNo="11">
			<text transform="matrix(0.88 0 0 1 63.1135 58.4849)"><tspan x="0" y="0" style="&st3; &st0;">1</tspan></text>
			<text transform="matrix(0.88 0 0 1 66.4714 58.4849)"><tspan x="0" y="0" style="&st3; &st0;">1</tspan></text>
		</g>
		<g ewd:pinNo="10">
			<text transform="matrix(0.88 0 0 1 37.6174 58.4849)"><tspan x="0" y="0" style="&st3; &st0;">1</tspan></text>
			<text transform="matrix(0.88 0 0 1 40.9758 58.4849)"><tspan x="0" y="0" style="&st3; &st0;">0</tspan></text>
		</g>
		<g ewd:pinNo="9">
			<text transform="matrix(0.88 0 0 1 26.5354 58.4849)"><tspan x="0" y="0" style="&st3; &st0;">9</tspan></text>
		</g>
		<g ewd:pinNo="8">
			<text transform="matrix(0.88 0 0 1 12.3713 59.9014)"><tspan x="0" y="0" style="&st3; &st0;">8</tspan></text>
		</g>
	</g>
</g>
</svg>