﻿<?xml version="1.0"?>
<!-- Generator: Adobe Illustrator 10.0, SVG Export Plug-In . SVG Version: 3.0.0 Build 77)  -->
<!DOCTYPE svg PUBLIC "-//W3C//DTD SVG 1.0//EN" "http://www.w3.org/TR/2001/REC-SVG-20010904/DTD/svg10.dtd"[
	<!ENTITY ns_flows "http://ns.adobe.com/Flows/1.0/">
	<!ENTITY ns_svg "http://www.w3.org/2000/svg">
	<!ENTITY ns_xlink "http://www.w3.org/1999/xlink">
	<!ENTITY st0 "font-size:6.6349px;">
	<!ENTITY st1 "fill:none;stroke:#000000;stroke-width:1.1331;stroke-linecap:round;stroke-linejoin:round;">
	<!ENTITY st2 "fill:none;stroke:#000000;stroke-width:0.8499;stroke-linecap:round;stroke-linejoin:round;">
	<!ENTITY st3 "font-family:'Arial';">
	<!ATTLIST svg
		xmlns:ewd CDATA #FIXED "http://shcl.co.jp/ewd"
		xmlns:a CDATA #FIXED "http://ns.adobe.com/AdobeSVGViewerExtensions/3.0/"
		ewd:ver CDATA #IMPLIED>
	<!ATTLIST g
		ewd:pinNo CDATA #IMPLIED>
]>
<svg width="80.153" height="50.15" viewBox="0 0 80.153 50.15" style="overflow:visible;enable-background:new 0 0 80.153 50.15" xml:space="preserve" onload="call_execInitLoadProc_svg('connector')" ewd:ver="2.1.2.5" xmlns="&ns_svg;" xmlns:ewd="http://shcl.co.jp/ewd" xmlns:a="http://ns.adobe.com/AdobeSVGViewerExtensions/3.0/" xmlns:xlink="&ns_xlink;">
<script type="text/javascript" xlink:href="../../../../../system/js/ewd/fig/svgfig.js"/>
<g id="レイヤー_1">
	<g>
		<path style="&st1;" d="M53.317,4.249h2.34"/>
		<path style="&st1;" d="M24.944,4.249h2.342"/>
		<path style="&st2;" d="M76.81,37.224V17.986"/>
		<path style="&st2;" d="M6.176,44.38h67.802"/>
		<path style="&st2;" d="M3.343,17.986v19.238"/>
		<path style="&st1;" d="M60.518,49.583H19.635"/>
		<path style="&st1;" d="M24.944,4.249c-0.98,0-1.795,0.69-1.957,1.657"/>
		<path style="&st1;" d="M28.252,5.02c-0.104-0.457-0.497-0.77-0.966-0.77"/>
		<path style="&st1;" d="M53.317,4.249c-0.469,0-0.862,0.313-0.967,0.771"/>
		<path style="&st1;" d="M57.615,5.906c-0.161-0.968-0.977-1.658-1.958-1.658"/>
		<path style="&st1;" d="M6.176,10.198c-1.565,0-2.833,1.269-2.833,2.833"/>
		<path style="&st2;" d="M75.394,13.031c0-0.782-0.634-1.417-1.417-1.417"/>
		<path style="&st1;" d="M3.343,41.547c0,1.304,0.84,2.398,2.099,2.736"/>
		<path style="&st2;" d="M73.977,42.963c0.782,0,1.417-0.634,1.417-1.417"/>
		<path style="&st1;" d="M10.286,47.079c2.981,1.721,5.907,2.505,9.349,2.505"/>
		<path style="&st1;" d="M60.518,49.583c3.442,0,6.368-0.784,9.348-2.505"/>
		<path style="&st2;" d="M6.176,11.615c-0.782,0-1.417,0.634-1.417,1.417"/>
		<path style="&st2;" d="M4.759,41.547c0,0.782,0.634,1.417,1.417,1.417"/>
		<path style="&st1;" d="M76.81,13.031c0-1.564-1.269-2.833-2.833-2.833"/>
		<path style="&st2;" d="M73.977,44.38c0.261,0,0.481-0.029,0.734-0.097"/>
		<path style="&st1;" d="M32.184,7.609c0,0.782,0.276,1.45,0.83,2.003"/>
		<path style="&st1;" d="M47.589,9.612c0.553-0.553,0.829-1.221,0.829-2.003"/>
		<path style="&st2;" d="M33.6,3.399c-0.782,0-1.416,0.634-1.416,1.417"/>
		<path style="&st2;" d="M48.416,4.816c0-0.782-0.634-1.417-1.417-1.417"/>
		<path style="&st2;" d="M48.416,3.399c0-0.782-0.634-1.417-1.417-1.417"/>
		<path style="&st2;" d="M33.6,1.983c-0.782,0-1.416,0.634-1.416,1.417"/>
		<path style="&st1;" d="M33.6,0.567c-0.782,0-1.416,0.634-1.416,1.416"/>
		<path style="&st1;" d="M48.416,1.983c0-0.782-0.634-1.416-1.417-1.416"/>
		<path style="&st2;" d="M5.442,44.283c0.252,0.068,0.473,0.097,0.734,0.097"/>
		<path style="&st1;" d="M74.711,44.283c1.259-0.337,2.099-1.433,2.099-2.736"/>
		<path style="&st2;" d="M28.881,41.83V15.204H6.218V41.83h67.989V15.204H51.544V41.83"/>
		<path style="&st1;" d="M45.584,11.615v9.578h4.958v-8.247l1.807-7.926"/>
		<path style="&st1;" d="M6.176,10.198h16.096l0.716-4.292"/>
		<path style="&st1;" d="M73.977,10.198H58.328l-0.714-4.292"/>
		<path style="&st2;" d="M22.272,10.198h5.955l1.833,2.748"/>
		<path style="&st2;" d="M58.328,10.198h-5.037l-2.75,2.748"/>
		<path style="&st2;" d="M73.977,10.198v2.833H56.912v-2.833"/>
		<path style="&st1;" d="M3.343,41.547v-4.323H0.567V17.986h2.776v-4.955"/>
		<path style="&st1;" d="M10.286,47.079l-4.844-2.796"/>
		<path style="&st2;" d="M75.394,13.031v28.516"/>
		<path style="&st2;" d="M6.176,10.198v2.833h17.512v-2.833"/>
		<path style="&st2;" d="M4.759,13.031v28.516"/>
		<path style="&st1;" d="M76.81,41.547v-4.323h2.776V17.986H76.81v-4.955"/>
		<path style="&st1;" d="M69.867,47.079l4.844-2.796"/>
		<path style="&st2;" d="M6.176,42.963h67.802"/>
		<path style="&st2;" d="M74.207,28.516H6.218"/>
		<path style="&st2;" d="M17.55,15.204V41.83"/>
		<path style="&st2;" d="M62.875,15.204V41.83"/>
		<path style="&st2;" d="M40.213,28.516V41.83"/>
		<path style="&st2;" d="M23.688,11.615h3.782l1.411,2.119"/>
		<path style="&st2;" d="M35.017,21.193v1.416"/>
		<path style="&st2;" d="M30.059,21.193l-1.178,1.416"/>
		<path style="&st2;" d="M28.881,13.734l1.178-0.787"/>
		<path style="&st2;" d="M27.47,11.615l0.756-1.417"/>
		<path style="&st2;" d="M28.881,22.609h6.136"/>
		<path style="&st2;" d="M28.881,13.734v1.47"/>
		<path style="&st2;" d="M56.912,11.615h-3.034l-2.334,2.334"/>
		<path style="&st2;" d="M53.292,10.198l0.586,1.417"/>
		<path style="&st2;" d="M50.541,12.946l1.002,1.003"/>
		<path style="&st2;" d="M50.541,21.193l1.002,1.416"/>
		<path style="&st2;" d="M51.544,22.609h-5.96v-1.416"/>
		<path style="&st2;" d="M35.017,10.198h10.567"/>
		<path style="&st2;" d="M37.283,10.198V5.949h6.034v4.249"/>
		<path style="&st2;" d="M35.017,11.615v-1.417"/>
		<path style="&st2;" d="M35.017,8.782h2.267"/>
		<path style="&st2;" d="M43.317,8.782h2.267"/>
		<path style="&st1;" d="M33.014,9.612l2.002,2.003"/>
		<path style="&st1;" d="M45.584,11.615l2.005-2.003"/>
		<path style="&st1;" d="M32.184,1.983v5.626"/>
		<path style="&st1;" d="M48.416,1.983v5.626"/>
		<path style="&st2;" d="M33.6,3.399H47"/>
		<path style="&st2;" d="M33.6,1.983H47"/>
		<path style="&st1;" d="M33.6,0.567H47"/>
		<path style="&st2;" d="M45.584,8.782v1.416"/>
		<path style="&st2;" d="M35.017,8.782v1.416"/>
		<path style="&st1;" d="M28.252,5.02l1.807,7.926v8.247h4.958v-9.578"/>
		<path style="&st2;" d="M45.584,10.198v1.417"/>
		<path style="&st2;" d="M51.544,13.949v1.255"/>
		<g ewd:pinNo="5">
			<text transform="matrix(0.88 0 0 1 10.218 37.1421)"><tspan x="0" y="0" style="&st3; &st0;">5</tspan></text>
		</g>
		<g ewd:pinNo="2">
			<text transform="matrix(0.88 0 0 1 21.5496 23.8306)"><tspan x="0" y="0" style="&st3; &st0;">2</tspan></text>
		</g>
		<g ewd:pinNo="1">
			<text transform="matrix(0.88 0 0 1 10.218 23.8306)"><tspan x="0" y="0" style="&st3; &st0;">1</tspan></text>
		</g>
		<g ewd:pinNo="3">
			<text transform="matrix(0.88 0 0 1 55.5437 23.8306)"><tspan x="0" y="0" style="&st3; &st0;">3</tspan></text>
		</g>
		<g ewd:pinNo="4">
			<text transform="matrix(0.88 0 0 1 66.8752 23.8306)"><tspan x="0" y="0" style="&st3; &st0;">4</tspan></text>
		</g>
		<g ewd:pinNo="6">
			<text transform="matrix(0.88 0 0 1 21.5496 37.1421)"><tspan x="0" y="0" style="&st3; &st0;">6</tspan></text>
		</g>
		<g ewd:pinNo="7">
			<text transform="matrix(0.88 0 0 1 32.8811 37.1421)"><tspan x="0" y="0" style="&st3; &st0;">7</tspan></text>
		</g>
		<g ewd:pinNo="8">
			<text transform="matrix(0.88 0 0 1 44.2126 37.1421)"><tspan x="0" y="0" style="&st3; &st0;">8</tspan></text>
		</g>
		<g ewd:pinNo="9">
			<text transform="matrix(0.88 0 0 1 55.5437 37.1421)"><tspan x="0" y="0" style="&st3; &st0;">9</tspan></text>
		</g>
		<g ewd:pinNo="10">
			<text transform="matrix(0.88 0 0 1 65.2097 37.1421)"><tspan x="0" y="0" style="&st3; &st0;">1</tspan></text>
			<text transform="matrix(0.88 0 0 1 68.5676 37.1421)"><tspan x="0" y="0" style="&st3; &st0;">0</tspan></text>
		</g>
	</g>
</g>
</svg>