﻿<?xml version="1.0"?>
<!-- Generator: Adobe Illustrator 10.0, SVG Export Plug-In . SVG Version: 3.0.0 Build 77)  -->
<!DOCTYPE svg PUBLIC "-//W3C//DTD SVG 1.0//EN" "http://www.w3.org/TR/2001/REC-SVG-20010904/DTD/svg10.dtd"[
	<!ENTITY ns_flows "http://ns.adobe.com/Flows/1.0/">
	<!ENTITY ns_svg "http://www.w3.org/2000/svg">
	<!ENTITY ns_xlink "http://www.w3.org/1999/xlink">
	<!ENTITY st0 "font-size:6.6349px;">
	<!ENTITY st1 "fill:none;stroke:#000000;stroke-width:1.1331;stroke-linecap:round;stroke-linejoin:round;">
	<!ENTITY st2 "fill:none;stroke:#000000;stroke-width:0.8499;stroke-linecap:round;stroke-linejoin:round;">
	<!ENTITY st3 "font-family:'Arial';">
	<!ATTLIST svg
		xmlns:ewd CDATA #FIXED "http://shcl.co.jp/ewd"
		xmlns:a CDATA #FIXED "http://ns.adobe.com/AdobeSVGViewerExtensions/3.0/"
		ewd:ver CDATA #IMPLIED>
	<!ATTLIST g
		ewd:pinNo CDATA #IMPLIED>
]>
<svg width="78.47" height="69.742" viewBox="0 0 78.47 69.742" style="overflow:visible;enable-background:new 0 0 78.47 69.742" xml:space="preserve" onload="call_execInitLoadProc_svg('connector')" ewd:ver="2.1.2.5" xmlns="&ns_svg;" xmlns:ewd="http://shcl.co.jp/ewd" xmlns:a="http://ns.adobe.com/AdobeSVGViewerExtensions/3.0/" xmlns:xlink="&ns_xlink;">
<script type="text/javascript" xlink:href="../../../../../system/js/ewd/fig/svgfig.js"/>
<g id="レイヤー_1">
	<g>
		<path style="&st2;" d="M14.448,36.881v-5.666"/>
		<path style="&st2;" d="M5.949,36.881v-5.666"/>
		<path style="&st1;" d="M33.235,20.15c-0.648-3.891-2.035-7.057-4.454-10.173"/>
		<path style="&st1;" d="M29.944,20.289c-0.648-3.891-2.035-7.057-4.454-10.173"/>
		<path style="&st1;" d="M2.051,25.411c-0.978,0.838-1.484,1.938-1.484,3.227"/>
		<path style="&st1;" d="M19.573,19.844c-0.159-0.398-0.579-0.612-0.994-0.508"/>
		<path style="&st1;" d="M13.55,19.306c0.091,0.619,0.667,1.048,1.286,0.958"/>
		<path style="&st1;" d="M14.836,20.264c0.039-0.006,0.072-0.012,0.111-0.022"/>
		<path style="&st1;" d="M33.711,23c0,0.469,0.38,0.85,0.85,0.85"/>
		<path style="&st1;" d="M34.561,23.85c0.469,0,0.85-0.381,0.85-0.85"/>
		<path style="&st2;" d="M28.328,31.216c1.252,0,2.267-1.015,2.267-2.267"/>
		<path style="&st1;" d="M28.782,58.119c2.419-3.116,3.805-6.282,4.454-10.173"/>
		<path style="&st1;" d="M25.49,57.98c2.419-3.116,3.805-6.282,4.454-10.173"/>
		<path style="&st1;" d="M0.567,39.459c0,1.288,0.506,2.388,1.484,3.227"/>
		<path style="&st1;" d="M18.578,48.762c0.417,0.104,0.837-0.111,0.996-0.509"/>
		<path style="&st1;" d="M14.946,47.856c-0.607-0.152-1.222,0.217-1.374,0.824"/>
		<path style="&st1;" d="M13.573,48.68c-0.01,0.039-0.017,0.071-0.022,0.111"/>
		<path style="&st1;" d="M35.411,45.096c0-0.469-0.381-0.85-0.85-0.85"/>
		<path style="&st1;" d="M34.561,44.247c-0.469,0-0.85,0.38-0.85,0.85"/>
		<path style="&st2;" d="M30.595,39.148c0-1.252-1.015-2.267-2.267-2.267"/>
		<path style="&st1;" d="M23.397,3.043c0.32-1.047-0.268-2.155-1.314-2.476"/>
		<path style="&st1;" d="M22.082,0.567c-1.047-0.321-2.155,0.268-2.476,1.315"/>
		<path style="&st1;" d="M19.606,1.881c-0.321,1.047,0.268,2.155,1.314,2.476"/>
		<path style="&st1;" d="M20.921,4.357c0.043,0.013,0.081,0.023,0.125,0.034"/>
		<path style="&st1;" d="M21.045,63.705c-1.065,0.252-1.725,1.32-1.473,2.386"/>
		<path style="&st1;" d="M19.573,66.091c0.251,1.065,1.319,1.725,2.385,1.473"/>
		<path style="&st1;" d="M21.957,67.564c1.066-0.251,1.725-1.32,1.473-2.385"/>
		<path style="&st1;" d="M23.43,65.178c-0.01-0.044-0.021-0.081-0.034-0.125"/>
		<path style="&st1;" d="M38.243,3.17c-1.564,0-2.833,1.269-2.833,2.833"/>
		<path style="&st1;" d="M77.904,6.003c0-1.564-1.268-2.833-2.833-2.833"/>
		<path style="&st1;" d="M75.071,64.927c1.565,0,2.833-1.268,2.833-2.833"/>
		<path style="&st1;" d="M35.411,62.094c0,1.565,1.268,2.833,2.833,2.833"/>
		<path style="&st2;" d="M41.076,57.844c0,0.782,0.634,1.417,1.417,1.417"/>
		<path style="&st2;" d="M70.822,59.261c0.782,0,1.417-0.634,1.417-1.417"/>
		<path style="&st2;" d="M72.238,10.252c0-0.782-0.634-1.417-1.417-1.417"/>
		<path style="&st2;" d="M42.493,23c-0.782,0-1.417,0.634-1.417,1.417"/>
		<path style="&st2;" d="M45.326,23c0.782,0,1.416-0.634,1.416-1.417"/>
		<path style="&st1;" d="M4.805,36.881c-0.391,0-0.708,0.317-0.708,0.708"/>
		<path style="&st1;" d="M4.096,37.59c0,0.256,0.123,0.474,0.343,0.606"/>
		<path style="&st1;" d="M4.439,29.901c-0.335,0.202-0.442,0.637-0.241,0.972"/>
		<path style="&st1;" d="M4.198,30.873c0.132,0.219,0.35,0.342,0.606,0.342"/>
		<path style="&st1;" d="M23.397,3.043l5.385,6.935"/>
		<path style="&st1;" d="M33.235,20.15L33.711,23"/>
		<path style="&st1;" d="M21.045,4.391l4.445,5.725"/>
		<path style="&st1;" d="M29.944,20.289l0.651,3.909"/>
		<path style="&st1;" d="M4.439,29.901l15.425-9.329"/>
		<path style="&st1;" d="M13.065,15.969l0.484,3.337"/>
		<path style="&st1;" d="M13.065,15.969L2.051,25.411"/>
		<path style="&st1;" d="M0.567,28.637v10.822"/>
		<path style="&st1;" d="M14.946,20.241l3.632-0.906"/>
		<path style="&st1;" d="M19.573,19.844l0.292,0.728"/>
		<path style="&st2;" d="M13.55,19.306l0.68,4.671"/>
		<path style="&st2;" d="M28.328,31.216h7.083"/>
		<path style="&st1;" d="M23.397,65.054l5.385-6.935"/>
		<path style="&st1;" d="M33.235,47.947l0.476-2.85"/>
		<path style="&st1;" d="M21.045,63.705l4.445-5.725"/>
		<path style="&st1;" d="M29.944,47.807l0.651-3.909"/>
		<path style="&st1;" d="M4.439,38.196l15.425,9.329"/>
		<path style="&st1;" d="M13.065,52.128l0.484-3.337"/>
		<path style="&st1;" d="M13.065,52.128L2.051,42.686"/>
		<path style="&st1;" d="M14.946,47.856l3.632,0.907"/>
		<path style="&st1;" d="M19.573,48.252l0.292-0.728"/>
		<path style="&st2;" d="M13.55,48.791l0.68-4.671"/>
		<path style="&st2;" d="M28.328,36.881h7.083"/>
		<path style="&st1;" d="M38.243,3.17h36.827"/>
		<path style="&st2;" d="M38.243,64.927h36.827"/>
		<path style="&st1;" d="M77.904,6.003v56.09"/>
		<path style="&st1;" d="M35.411,23V6.003"/>
		<path style="&st1;" d="M35.411,62.094V45.096"/>
		<path style="&st2;" d="M72.238,10.252v47.592"/>
		<path style="&st2;" d="M42.493,59.261h28.329"/>
		<path style="&st2;" d="M41.076,57.844V24.417"/>
		<path style="&st2;" d="M46.742,8.836h24.08"/>
		<path style="&st2;" d="M42.493,23h2.833"/>
		<path style="&st2;" d="M46.742,21.584V8.836"/>
		<path style="&st2;" d="M46.742,14.502h19.83V8.836"/>
		<path style="&st2;" d="M53.824,8.836v2.833h5.666V8.836"/>
		<path style="&st2;" d="M72.238,42.264h-4.25v16.997"/>
		<path style="&st2;" d="M41.076,42.264h4.25v16.997"/>
		<path style="&st2;" d="M48.158,35.89v12.748h16.998V35.89H48.158"/>
		<path style="&st2;" d="M56.657,35.89v12.748"/>
		<path style="&st2;" d="M35.411,45.096v-8.215"/>
		<path style="&st2;" d="M35.411,31.216V23"/>
		<path style="&st2;" d="M31.161,36.881v-5.666"/>
		<path style="&st1;" d="M30.595,28.383h-6.232V25.55h-8.499v5.666"/>
		<path style="&st1;" d="M15.864,36.881v5.666h8.499v-2.833h6.232"/>
		<path style="&st2;" d="M28.328,36.881H15.864"/>
		<path style="&st1;" d="M15.864,36.881H4.805"/>
		<path style="&st2;" d="M28.328,31.216H15.864"/>
		<path style="&st1;" d="M15.864,31.216H4.805"/>
		<path style="&st1;" d="M30.595,43.898v-4.184"/>
		<path style="&st2;" d="M30.595,39.714v-0.566"/>
		<path style="&st1;" d="M30.595,24.198v4.184"/>
		<path style="&st2;" d="M30.595,28.383v0.566"/>
		<path style="&st2;" d="M38.243,8.836v11.331h5.666V8.836H38.243"/>
		<path style="&st1;" d="M38.243,64.927v4.25h36.827v-4.25"/>
		<path style="&st2;" d="M43.909,69.176v-4.25"/>
		<path style="&st2;" d="M69.405,69.176v-4.25"/>
		<path style="&st2;" d="M62.323,69.176v-4.25"/>
		<path style="&st2;" d="M50.991,69.176v-4.25"/>
		<path style="&st2;" d="M50.991,66.343h11.332"/>
		<g ewd:pinNo="2">
			<text transform="matrix(0.88 0 0 1 50.7419 44.2327)"><tspan x="0" y="0" style="&st3; &st0;">2</tspan></text>
		</g>
		<g ewd:pinNo="1">
			<text transform="matrix(0.88 0 0 1 59.241 44.2327)"><tspan x="0" y="0" style="&st3; &st0;">1</tspan></text>
		</g>
	</g>
</g>
</svg>