﻿<?xml version="1.0"?>
<!-- Generator: Adobe Illustrator 10.0, SVG Export Plug-In . SVG Version: 3.0.0 Build 77)  -->
<!DOCTYPE svg PUBLIC "-//W3C//DTD SVG 1.0//EN" "http://www.w3.org/TR/2001/REC-SVG-20010904/DTD/svg10.dtd"[
	<!ENTITY ns_flows "http://ns.adobe.com/Flows/1.0/">
	<!ENTITY ns_svg "http://www.w3.org/2000/svg">
	<!ENTITY ns_xlink "http://www.w3.org/1999/xlink">
	<!ENTITY st0 "font-size:6.6349px;">
	<!ENTITY st1 "fill:none;stroke:#000000;stroke-width:1.1331;stroke-linecap:round;stroke-linejoin:round;">
	<!ENTITY st2 "fill:none;stroke:#000000;stroke-width:0.8499;stroke-linecap:round;stroke-linejoin:round;">
	<!ENTITY st3 "font-family:'Arial';">
	<!ATTLIST svg
		xmlns:ewd CDATA #FIXED "http://shcl.co.jp/ewd"
		xmlns:a CDATA #FIXED "http://ns.adobe.com/AdobeSVGViewerExtensions/3.0/"
		ewd:ver CDATA #IMPLIED>
	<!ATTLIST g
		ewd:pinNo CDATA #IMPLIED>
]>
<svg width="58.64" height="44.194" viewBox="0 0 58.64 44.194" style="overflow:visible;enable-background:new 0 0 58.64 44.194" xml:space="preserve" onload="call_execInitLoadProc_svg('connector')" ewd:ver="2.1.2.5" xmlns="&ns_svg;" xmlns:ewd="http://shcl.co.jp/ewd" xmlns:a="http://ns.adobe.com/AdobeSVGViewerExtensions/3.0/" xmlns:xlink="&ns_xlink;">
<script type="text/javascript" xlink:href="../../../../../system/js/ewd/fig/svgfig.js"/>
<g id="レイヤー_1">
	<g>
		<path style="&st1;" d="M11.397,43.626h35.847"/>
		<path style="&st2;" d="M3.969,37.96h50.7"/>
		<path style="&st1;" d="M4.391,18.13h7.366"/>
		<path style="&st1;" d="M52.55,12.465h2.55"/>
		<path style="&st2;" d="M29.32,22.805v12.323"/>
		<path style="&st1;" d="M40.085,7.224v8.64"/>
		<path style="&st1;" d="M18.555,7.224v8.64"/>
		<path style="&st1;" d="M44.617,7.224v8.64"/>
		<path style="&st1;" d="M14.023,7.224v8.64"/>
		<path style="&st2;" d="M40.652,22.805v12.323"/>
		<path style="&st2;" d="M17.989,22.805v12.323"/>
		<path style="&st2;" d="M25.071,4.249h8.499"/>
		<path style="&st1;" d="M38.669,2.975v1.275"/>
		<path style="&st1;" d="M19.971,2.975v1.275"/>
		<path style="&st1;" d="M34.561,0.85h1.983"/>
		<path style="&st1;" d="M22.096,0.85h1.983"/>
		<path style="&st2;" d="M25.071,5.666h8.499"/>
		<path style="&st1;" d="M50.249,42.382l4.493-4.496"/>
		<path style="&st1;" d="M3.898,37.887l4.493,4.496"/>
		<path style="&st2;" d="M11.757,18.13h9.065"/>
		<path style="&st2;" d="M51.699,18.13h2.55"/>
		<path style="&st2;" d="M37.819,18.13h9.065"/>
		<path style="&st2;" d="M55.949,22.805v9.915"/>
		<path style="&st2;" d="M2.691,22.805v9.915"/>
		<path style="&st1;" d="M4.391,18.13c-0.939,0-1.7,0.761-1.7,1.7"/>
		<path style="&st1;" d="M2.691,36.261c0,0.763,0.477,1.405,1.207,1.626"/>
		<path style="&st1;" d="M54.742,37.887c0.73-0.221,1.207-0.863,1.207-1.626"/>
		<path style="&st2;" d="M55.949,19.83c0-0.939-0.761-1.7-1.7-1.7"/>
		<path style="&st1;" d="M11.757,18.13c1.251,0,2.266-1.015,2.266-2.266"/>
		<path style="&st1;" d="M18.555,15.864c0,1.252,1.015,2.266,2.266,2.266"/>
		<path style="&st1;" d="M37.819,18.13c1.251,0,2.267-1.015,2.267-2.266"/>
		<path style="&st1;" d="M44.617,15.864c0,1.252,1.015,2.266,2.267,2.266"/>
		<path style="&st2;" d="M25.071,4.249c-0.782,0-1.416,0.634-1.416,1.417"/>
		<path style="&st2;" d="M34.986,5.666c0-0.782-0.634-1.417-1.416-1.417"/>
		<path style="&st1;" d="M19.971,4.249c0,0.782,0.634,1.417,1.417,1.417"/>
		<path style="&st1;" d="M37.252,5.666c0.782,0,1.417-0.634,1.417-1.417"/>
		<path style="&st1;" d="M38.669,2.975c0-1.173-0.952-2.125-2.125-2.125"/>
		<path style="&st1;" d="M22.096,0.85c-1.173,0-2.125,0.951-2.125,2.125"/>
		<path style="&st1;" d="M25.921,2.691c0-1.017-0.824-1.841-1.841-1.841"/>
		<path style="&st1;" d="M34.561,0.85c-1.017,0-1.841,0.824-1.841,1.841"/>
		<path style="&st2;" d="M25.071,5.666c-0.782,0-1.416,0.634-1.416,1.417"/>
		<path style="&st2;" d="M34.986,7.082c0-0.782-0.634-1.417-1.416-1.417"/>
		<path style="&st1;" d="M52.55,12.465c-0.469,0-0.85,0.381-0.85,0.85"/>
		<path style="&st1;" d="M55.949,13.314c0-0.469-0.38-0.85-0.85-0.85"/>
		<path style="&st1;" d="M47.243,43.626c1.173,0,2.175-0.415,3.005-1.245"/>
		<path style="&st1;" d="M8.391,42.382c0.83,0.83,1.832,1.245,3.006,1.245"/>
		<path style="&st1;" d="M44.617,7.224c0-1.252-1.015-2.266-2.266-2.266"/>
		<path style="&st1;" d="M42.351,4.958c-1.251,0-2.266,1.015-2.266,2.266"/>
		<path style="&st1;" d="M18.555,7.224c0-1.252-1.015-2.266-2.267-2.266"/>
		<path style="&st1;" d="M16.289,4.958c-1.251,0-2.266,1.015-2.266,2.266"/>
		<path style="&st2;" d="M25.921,2.691v1.558"/>
		<path style="&st2;" d="M2.691,31.303h2.55v-7.082h-2.55"/>
		<path style="&st2;" d="M55.949,31.303h-2.55v-7.082h2.55"/>
		<path style="&st2;" d="M54.532,24.221v-4.674h-8.923"/>
		<path style="&st2;" d="M13.031,19.547H4.108v4.674"/>
		<path style="&st2;" d="M54.532,31.303v5.241H4.108v-5.241"/>
		<path style="&st1;" d="M32.719,2.691V0.567h-6.799v2.125"/>
		<path style="&st2;" d="M32.719,4.249V2.691"/>
		<path style="&st1;" d="M20.822,18.13h2.833V5.666h-2.267"/>
		<path style="&st1;" d="M37.819,18.13h-2.833V5.666h2.267"/>
		<path style="&st2;" d="M23.655,18.13v2.125H13.031V18.13"/>
		<path style="&st2;" d="M45.609,18.13v2.125H34.986V18.13"/>
		<path style="&st1;" d="M46.884,18.13h4.815v-4.816"/>
		<path style="&st1;" d="M2.691,19.83v2.975H0.567v9.915h2.125v3.541"/>
		<path style="&st1;" d="M55.949,36.261V32.72h2.125v-9.915h-2.125v-9.49"/>
		<path style="&st2;" d="M17.989,35.127h33.995V22.805H6.657v12.323H17.989"/>
		<g ewd:pinNo="1">
			<text transform="matrix(0.88 0 0 1 10.657 30.9351)"><tspan x="0" y="0" style="&st3; &st0;">1</tspan></text>
		</g>
		<g ewd:pinNo="2">
			<text transform="matrix(0.88 0 0 1 21.9885 30.9351)"><tspan x="0" y="0" style="&st3; &st0;">2</tspan></text>
		</g>
		<g ewd:pinNo="3">
			<text transform="matrix(0.88 0 0 1 33.3201 30.9351)"><tspan x="0" y="0" style="&st3; &st0;">3</tspan></text>
		</g>
		<g ewd:pinNo="4">
			<text transform="matrix(0.88 0 0 1 44.6516 30.9351)"><tspan x="0" y="0" style="&st3; &st0;">4</tspan></text>
		</g>
	</g>
</g>
</svg>