﻿<?xml version="1.0" encoding="utf-8"?>
<!DOCTYPE svg PUBLIC "-//W3C//DTD SVG 1.0//EN" "http://www.w3.org/TR/2001/REC-SVG-20010904/DTD/svg10.dtd"[
	<!ENTITY ns_flows "http://ns.adobe.com/Flows/1.0/">
	<!ENTITY ns_svg "http://www.w3.org/2000/svg">
	<!ENTITY ns_xlink "http://www.w3.org/1999/xlink">
	<!ENTITY st0 "font-size:7px;font-family:'MS-PGothic';adobe-font-script:japanese;">
	<!ENTITY st1 "font-size:6px;font-family:'ArialMT';">
	<!-- White fill  -->
	<!ENTITY st2 "fill:#FFFFFF;stroke:#000000; stroke-width:1.41;stroke-linecap:round;stroke-linejoin:round;">
	<!-- Yellow fill  -->
	<!ENTITY st3 "fill:#FFFFCC;stroke:#FFFFCC; stroke-width:0.1;stroke-linecap:round;stroke-linejoin:round;">
	<!-- Gray fill  -->
	<!ENTITY st4 "fill:#CCCCCC;stroke:#CCCCCC; stroke-width:0.1;stroke-linecap:round;stroke-linejoin:round;">
	<!-- Light-blue fill -->
	<!ENTITY st5 "fill:#CCECF4;stroke:#000000; stroke-width:1.133;stroke-linecap:round;stroke-linejoin:round;">
	<!ENTITY st6 "fill:none;stroke-linecap:butt; stroke-linejoin:round;">
	<!ENTITY st7 "fill:none;stroke:#000000;stroke-linecap:round;stroke-linejoin:round;">
	<!ENTITY st8 "enable-background:new    ;">
	<!-- Black fill -->
	<!ENTITY st9 "fill:#000000;stroke:#000000; stroke-linecap:round;stroke-linejoin:round;">
	<!-- SRS note   -->
	<!ENTITY st10 "font-size:9px;font-family:'ArialMT';">
	<!ENTITY st11 "font-size:9px;font-family:'Svg Symbol';">
	<!ENTITY st12 "font-size:6px;font-family:'Svg Symbol';">
	<!ENTITY st13 "fill:none;stroke:#ff0000;stroke-linecap:round;stroke-linejoin:round;">
	<!-- Yellow fill  -->
	<!ENTITY st14 "fill:#FFFF00;stroke:#FFFF00; stroke-width:0.1;stroke-linecap:round;stroke-linejoin:round;">
	<!ENTITY st15 "font-size:6px;font-family:'MS-PGothic';adobe-font-script:japanese;">
	<!ENTITY st16 "1.00 0.00 0.00 1.00">
	<!ENTITY st17 "0.00 -1.00 1.00 0.00">
	<!ENTITY st18 "font-size:6px;font-family:'Arial';">
	<!ENTITY st19 "font-size:9px;font-family:'Arial';">
	<!ENTITY st20 "font-size:6px;font-family:'MS-PGothic','MS PGothic';adobe-font-script:japanese;">
	<!ENTITY st21 "font-size:7px;font-family:'MS-PGothic','MS PGothic';adobe-font-script:japanese;">
	<!ATTLIST svg
		xmlns:ewd CDATA #FIXED "http://shcl.co.jp/ewd"
		xmlns:a CDATA #FIXED "http://ns.adobe.com/AdobeSVGViewerExtensions/3.0/"
		ewd:ver CDATA #IMPLIED
	>
	<!ATTLIST a
		ewd:lineID CDATA #IMPLIED
		ewd:groupID CDATA #IMPLIED
		ewd:figtype CDATA #IMPLIED
		ewd:code CDATA #IMPLIED
		ewd:figID CDATA #IMPLIED
		ewd:pinNo CDATA #IMPLIED
		ewd:comment CDATA #IMPLIED >
	<!ATTLIST g
		ewd:lineID CDATA #IMPLIED
		ewd:groupID CDATA #IMPLIED
		ewd:figtype CDATA #IMPLIED
		ewd:code CDATA #IMPLIED
		ewd:figID CDATA #IMPLIED
		ewd:pinNo CDATA #IMPLIED
		ewd:comment CDATA #IMPLIED >
	<!ATTLIST text
		ewd:textID CDATA #IMPLIED >
	<!ATTLIST title
		ewd:textID CDATA #IMPLIED >
]>
<!-- Generator: Shintec Hozumi YS   -->
<svg onload="call_execInitLoadProc_svg('system')" style="overflow:visible;  enable-background:new 0 0 3606.770 710.000" viewBox="0 0 3606.770 710.000" height="710.000" width="3606.770" xml:space="preserve" ewd:ver="2.1.2.5" xmlns="&ns_svg;" xmlns:a="http://ns.adobe.com/AdobeSVGViewerExtensions/3.0/" xmlns:ewd="http://shcl.co.jp/ewd" xmlns:xlink="&ns_xlink;">
<text style="&st18;" transform="matrix(&st17;  123.78  147.87 )">R</text><text style="&st18;" transform="matrix(&st17;  336.25  232.82 )">L</text><text style="&st18;" transform="matrix(&st17;  47.3  148.22 )">G</text><text style="&st18;" transform="matrix(&st17;  47.3  232.82 )">L</text><text style="&st18;" transform="matrix(&st17;  378.74  237.2 )">W-B</text><text style="&st18;" transform="matrix(&st16;  490.61  32.08 )">V</text><text style="&st18;" transform="matrix(&st16;  489.95  15.09 )">W</text><g ewd:figtype="conn" ewd:figID="2" ewd:code="G78"><path style="stroke-width: 1.42 ;&st7;  " d=" M   254.96,   112.27  L   475.92,   112.27  L   475.92,    69.77  L   254.96,    69.77  L   254.96,   112.27  " /><g ewd:lineID="44"><text style="&st18;" transform="matrix(&st16;  447.13  67.21 )">22</text><text style="&st18;" transform="matrix(&st16;  456.62  67.21 )">A</text><path style="stroke-width: 1.42 ;&st7;   " d=" M   463.46,    65.24  C   463.46     62.74    461.43     60.71    458.92     60.71  " /><path style="stroke-width: 1.42 ;&st7;   " d=" M   458.92,    60.71  C   456.42     60.71    454.39     62.74    454.39     65.24  " /><path style="stroke-width: 1.42 ;&st7;   " d=" M   454.39,    65.24  C   454.39     67.74    456.42     69.77    458.92     69.77  " /><path style="stroke-width: 1.42 ;&st7;   " d=" M   458.92,    69.77  C   461.43     69.77    463.46     67.74    463.46     65.24  " /><text style="&st18;" transform="matrix(&st16;  450.88  77.41 )">CLTE</text></g><g ewd:lineID="48"><text style="&st18;" transform="matrix(&st16;  413.13  67.21 )">20</text><text style="&st18;" transform="matrix(&st16;  422.62  67.21 )">A</text><path style="stroke-width: 1.42 ;&st7;   " d=" M   429.46,    65.24  C   429.46     62.74    427.43     60.71    424.93     60.71  " /><path style="stroke-width: 1.42 ;&st7;   " d=" M   424.93,    60.71  C   422.43     60.71    420.40     62.74    420.40     65.24  " /><path style="stroke-width: 1.42 ;&st7;   " d=" M   420.40,    65.24  C   420.40     67.74    422.43     69.77    424.93     69.77  " /><path style="stroke-width: 1.42 ;&st7;   " d=" M   424.93,    69.77  C   427.43     69.77    429.46     67.74    429.46     65.24  " /><text style="&st18;" transform="matrix(&st16;  416.81  77.41 )">CLTB</text></g><g ewd:figtype="title"><text style="&st18;" transform="matrix(&st16;  260.04  58.97 )">G78(A)</text><text style="&st18;" transform="matrix(&st16;  260.05  66.08 )" ewd:textID="31">Main Body ECU</text></g><g ewd:lineID="108"><text style="&st18;" transform="matrix(&st16;  265.31  108.57 )">ACC</text><text style="&st18;" transform="matrix(&st16;  297.6  108.57 )">BECU</text><text style="&st18;" transform="matrix(&st16;  336.59  108.57 )">IG</text><text style="&st18;" transform="matrix(&st16;  374.24  108.57 )">GND1</text></g></g><g ewd:figtype="rb" ewd:figID="34" ewd:code="FUSE5"><path style="stroke-width: 1.42 ;&st7;   " d=" M   133.85,    99.52  C   133.85     97.17    131.95     95.27    129.60     95.27  " /><path style="stroke-width: 1.42 ;&st7;   " d=" M   129.60,   103.77  C   131.95    103.77    133.85    101.87    133.85     99.52  " /><path style="stroke-width: 1.42 ;&st7;   " d=" M   121.10,    99.52  C   121.10    101.87    123.01    103.77    125.35    103.77  " /><path style="stroke-width: 1.42 ;&st7;   " d=" M   125.35,    95.27  C   123.01     95.27    121.10     97.17    121.10     99.52  " /><path style="stroke-width: 1.42 ;&st7;  " d=" M   129.60,    95.27  L   125.35,    95.27  " /><path style="stroke-width: 1.42 ;&st7;  " d=" M   129.60,   103.77  L   125.35,   103.77  " /><path style="stroke-width: 0.85 ;&st7;  " d=" M   127.48,    78.27  L   127.48,    95.27  " /><path style="stroke-width: 0.28 ;&st9;  " d=" M   127.48,    90.37  L   124.65,    87.54  L   124.65,    91.79  L   127.48,    94.62  L   130.31,    91.79  L   130.31,    87.54  L   127.48,    90.37  " /><text style="&st18;" transform="matrix(&st16;  143.9  53.34 )">10A <tspan x="0 " dy="6.0">ECU-B </tspan><tspan x="0 " dy="6.0">NO.1</tspan></text><text style="&st18;" transform="matrix(&st16;  125.68  101.49 )">1</text><text style="&st18;" transform="matrix(&st16;  121.29  86.47 )">2</text><text style="&st18;" transform="matrix(&st16;  119.44  32.08 )">(BAT)</text><path style="stroke-width: 0.85 ;&st7;   " d=" M   128.90,    68.36  C   128.90     67.57    128.26     66.94    127.48     66.94  " /><path style="stroke-width: 0.85 ;&st7;   " d=" M   127.48,    66.94  C   126.70     66.94    126.06     67.57    126.06     68.36  " /><path style="stroke-width: 0.85 ;&st7;   " d=" M   126.06,    68.36  C   126.06     69.14    126.70     69.77    127.48     69.77  " /><path style="stroke-width: 0.85 ;&st7;   " d=" M   127.48,    69.77  C   128.26     69.77    128.90     69.14    128.90     68.36  " /><path style="stroke-width: 0.85 ;&st7;   " d=" M   128.90,    45.69  C   128.90     44.91    128.26     44.28    127.48     44.28  " /><path style="stroke-width: 0.85 ;&st7;   " d=" M   127.48,    44.28  C   126.70     44.28    126.06     44.91    126.06     45.69  " /><path style="stroke-width: 0.85 ;&st7;   " d=" M   126.06,    45.69  C   126.06     46.48    126.70     47.11    127.48     47.11  " /><path style="stroke-width: 0.85 ;&st7;   " d=" M   127.48,    47.11  C   128.26     47.11    128.90     46.48    128.90     45.69  " /><path style="stroke-width: 1.42 ;&st7;   " d=" M   127.48,    66.94  C   130.22     65.33    131.13     61.80    129.52     59.06  " /><path style="stroke-width: 1.42 ;&st7;   " d=" M   129.52,    59.06  C   129.00     58.18    128.36     57.55    127.48     57.03  " /><path style="stroke-width: 1.42 ;&st7;   " d=" M   127.48,    47.11  C   124.74     48.72    123.83     52.25    125.44     54.99  " /><path style="stroke-width: 1.42 ;&st7;   " d=" M   125.44,    54.99  C   125.96     55.87    126.60     56.51    127.48     57.03  " /><path style="stroke-width: 0.85 ;&st7;  " d=" M   127.48,    69.77  L   127.48,    78.27  " /><path style="stroke-width: 1.42 ;&st7;  " d=" M   114.73,    35.78  L   114.73,    78.27  L   140.23,    78.27  L   140.23,    35.78  L   114.73,    35.78  " /></g><g ewd:figtype="conn" ewd:figID="35" ewd:code="G100"><path style="stroke-width: 1.42 ;&st7;  " d=" M    42.49,   180.26  L    59.49,   180.26  L    59.49,   197.25  L    42.49,   197.25  L    42.49,   180.26  " /><path style="stroke-width: 0.85 ;&st7;  " d=" M    50.99,   180.26  L    50.99,   197.25  " /><text style="&st18;" transform="matrix(&st16;  41.71  176.57 )">12</text><text style="&st18;" transform="matrix(&st16;  41.71  205.45 )">18</text><g ewd:figtype="title"><text style="&st18;" transform="matrix(&st17;  67.1  200.15 )">G100</text><text style="&st18;" transform="matrix(&st17;  74.21  200.16 )" ewd:textID="36">No. 6 <tspan x="0 " dy="6.0">Junction Connector</tspan></text></g></g><g ewd:figtype="jb" ewd:figID="52" ewd:code="3"><path style="stroke-width: 1.42 ;&st7;   " d=" M    57.37,    99.52  C    57.37     97.17     55.46     95.27     53.12     95.27  " /><path style="stroke-width: 1.42 ;&st7;   " d=" M    53.12,   103.77  C    55.46    103.77     57.37    101.87     57.37     99.52  " /><path style="stroke-width: 1.42 ;&st7;   " d=" M    44.62,    99.52  C    44.62    101.87     46.52    103.77     48.87    103.77  " /><path style="stroke-width: 1.42 ;&st7;   " d=" M    48.87,    95.27  C    46.52     95.27     44.62     97.17     44.62     99.52  " /><path style="stroke-width: 0.85 ;&st7;   " d=" M    52.41,    68.36  C    52.41     67.57     51.77     66.94     50.99     66.94  " /><path style="stroke-width: 0.85 ;&st7;   " d=" M    50.99,    66.94  C    50.21     66.94     49.58     67.57     49.58     68.36  " /><path style="stroke-width: 0.85 ;&st7;   " d=" M    49.58,    68.36  C    49.58     69.14     50.21     69.77     50.99     69.77  " /><path style="stroke-width: 0.85 ;&st7;   " d=" M    50.99,    69.77  C    51.77     69.77     52.41     69.14     52.41     68.36  " /><path style="stroke-width: 0.85 ;&st7;   " d=" M    52.41,    45.69  C    52.41     44.91     51.77     44.28     50.99     44.28  " /><path style="stroke-width: 0.85 ;&st7;   " d=" M    50.99,    44.28  C    50.21     44.28     49.58     44.91     49.58     45.69  " /><path style="stroke-width: 0.85 ;&st7;   " d=" M    49.58,    45.69  C    49.58     46.48     50.21     47.11     50.99     47.11  " /><path style="stroke-width: 0.85 ;&st7;   " d=" M    50.99,    47.11  C    51.77     47.11     52.41     46.48     52.41     45.69  " /><path style="stroke-width: 1.42 ;&st7;   " d=" M    50.99,    66.94  C    53.73     65.33     54.64     61.80     53.03     59.06  " /><path style="stroke-width: 1.42 ;&st7;   " d=" M    53.03,    59.06  C    52.51     58.18     51.87     57.55     50.99     57.03  " /><path style="stroke-width: 1.42 ;&st7;   " d=" M    50.99,    47.11  C    48.25     48.72     47.34     52.25     48.95     54.99  " /><path style="stroke-width: 1.42 ;&st7;   " d=" M    48.95,    54.99  C    49.47     55.87     50.11     56.51     50.99     57.03  " /><path style="stroke-width: 0.85 ;&st7;  " d=" M    50.99,    78.27  L    50.99,    95.27  " /><path style="stroke-width: 1.42 ;&st7;  " d=" M    53.12,   103.77  L    48.87,   103.77  " /><path style="stroke-width: 1.42 ;&st7;  " d=" M    53.12,    95.27  L    48.87,    95.27  " /><path style="stroke-width: 0.85 ;&st7;  " d=" M    50.99,    69.77  L    50.99,    78.27  " /><path style="stroke-width: 0.28 ;&st9;  " d=" M    50.99,    90.37  L    48.16,    87.54  L    48.16,    91.79  L    50.99,    94.62  L    53.82,    91.79  L    53.82,    87.54  L    50.99,    90.37  " /><path style="stroke-width: 1.42 ;&st7;  " d=" M    38.24,    35.78  L    38.24,    78.27  L    63.74,    78.27  L    63.74,    35.78  L    38.24,    35.78  " /><text style="&st18;" transform="matrix(&st16;  67.42  53.34 )">5A <tspan x="0 " dy="6.0">ECU-IG </tspan><tspan x="0 " dy="6.0">NO.2</tspan></text><text style="&st18;" transform="matrix(&st16;  47.02  101.49 )">3C</text><text style="&st18;" transform="matrix(&st16;  37.38  101.49 )">15</text><text style="&st18;" transform="matrix(&st16;  44.81  86.47 )">2</text><text style="&st18;" transform="matrix(&st16;  45.78  32.08 )">(IG)</text></g><g ewd:figtype="jb" ewd:figID="53" ewd:code="3"><path style="stroke-width: 1.42 ;&st7;   " d=" M   388.81,   167.51  C   388.81    165.16    386.91    163.26    384.56    163.26  " /><path style="stroke-width: 1.42 ;&st7;   " d=" M   380.31,   163.26  C   377.96    163.26    376.06    165.16    376.06    167.51  " /><path style="stroke-width: 1.42 ;&st7;   " d=" M   384.56,   171.76  C   386.91    171.76    388.81    169.85    388.81    167.51  " /><path style="stroke-width: 1.42 ;&st7;  " d=" M   308.07,   171.76  L   303.82,   171.76  " /><path style="stroke-width: 1.42 ;&st7;  " d=" M   308.07,   163.26  L   303.82,   163.26  " /><path style="stroke-width: 1.42 ;&st7;  " d=" M   182.72,    35.78  L   182.72,    78.27  L   208.22,    78.27  L   208.22,    35.78  L   182.72,    35.78  " /><path style="stroke-width: 1.42 ;&st7;   " d=" M   376.06,   167.51  C   376.06    169.85    377.96    171.76    380.31    171.76  " /><path style="stroke-width: 1.42 ;&st7;   " d=" M   346.32,   167.51  C   346.32    165.16    344.41    163.26    342.07    163.26  " /><path style="stroke-width: 1.42 ;&st7;   " d=" M   342.07,   171.76  C   344.41    171.76    346.32    169.85    346.32    167.51  " /><path style="stroke-width: 1.42 ;&st7;   " d=" M   333.57,   167.51  C   333.57    169.85    335.47    171.76    337.82    171.76  " /><path style="stroke-width: 1.42 ;&st7;   " d=" M   337.82,   163.26  C   335.47    163.26    333.57    165.16    333.57    167.51  " /><path style="stroke-width: 1.42 ;&st7;   " d=" M   312.32,   167.51  C   312.32    165.16    310.42    163.26    308.07    163.26  " /><path style="stroke-width: 1.42 ;&st7;   " d=" M   308.07,   171.76  C   310.42    171.76    312.32    169.85    312.32    167.51  " /><path style="stroke-width: 1.42 ;&st7;   " d=" M   299.57,   167.51  C   299.57    169.85    301.48    171.76    303.82    171.76  " /><path style="stroke-width: 1.42 ;&st7;   " d=" M   303.82,   163.26  C   301.48    163.26    299.57    165.16    299.57    167.51  " /><path style="stroke-width: 0.85 ;&st7;   " d=" M   196.88,    68.36  C   196.88     67.57    196.25     66.94    195.47     66.94  " /><path style="stroke-width: 0.85 ;&st7;   " d=" M   195.47,    66.94  C   194.69     66.94    194.05     67.57    194.05     68.36  " /><path style="stroke-width: 0.85 ;&st7;   " d=" M   194.05,    68.36  C   194.05     69.14    194.69     69.77    195.47     69.77  " /><path style="stroke-width: 0.85 ;&st7;   " d=" M   195.47,    69.77  C   196.25     69.77    196.88     69.14    196.88     68.36  " /><path style="stroke-width: 0.85 ;&st7;   " d=" M   196.88,    45.69  C   196.88     44.91    196.25     44.28    195.47     44.28  " /><path style="stroke-width: 0.85 ;&st7;   " d=" M   195.47,    44.28  C   194.69     44.28    194.05     44.91    194.05     45.69  " /><path style="stroke-width: 0.85 ;&st7;   " d=" M   194.05,    45.69  C   194.05     46.48    194.69     47.11    195.47     47.11  " /><path style="stroke-width: 0.85 ;&st7;   " d=" M   195.47,    47.11  C   196.25     47.11    196.88     46.48    196.88     45.69  " /><path style="stroke-width: 1.42 ;&st7;   " d=" M   195.47,    66.94  C   198.21     65.33    199.12     61.80    197.50     59.06  " /><path style="stroke-width: 1.42 ;&st7;   " d=" M   197.50,    59.06  C   196.98     58.18    196.35     57.55    195.47     57.03  " /><path style="stroke-width: 1.42 ;&st7;   " d=" M   195.47,    47.11  C   192.73     48.72    191.82     52.25    193.43     54.99  " /><path style="stroke-width: 1.42 ;&st7;   " d=" M   193.43,    54.99  C   193.95     55.87    194.59     56.51    195.47     57.03  " /><path style="stroke-width: 1.42 ;&st7;  " d=" M   384.56,   163.26  L   380.31,   163.26  " /><path style="stroke-width: 1.42 ;&st7;  " d=" M   384.56,   171.76  L   380.31,   171.76  " /><path style="stroke-width: 1.42 ;&st7;  " d=" M   342.07,   171.76  L   337.82,   171.76  " /><path style="stroke-width: 1.42 ;&st7;  " d=" M   342.07,   163.26  L   337.82,   163.26  " /><path style="stroke-width: 0.85 ;&st7;  " d=" M   195.47,    69.77  L   195.47,    78.27  " /><path style="stroke-width: 0.85 ;&st7;  " d=" M   195.47,    78.27  L   195.47,   163.26  L   271.95,   163.26  L   271.95,   112.27  " /><path style="stroke-width: 0.28 ;&st9;  " d=" M   305.95,   158.36  L   303.12,   155.53  L   303.12,   159.78  L   305.95,   162.61  L   308.78,   159.78  L   308.78,   155.53  L   305.95,   158.36  " /><path style="stroke-width: 0.85 ;&st7;  " d=" M   305.95,   112.27  L   305.95,   163.26  " /><path style="stroke-width: 0.28 ;&st9;  " d=" M   339.94,   158.36  L   337.11,   155.53  L   337.11,   159.78  L   339.94,   162.61  L   342.78,   159.78  L   342.78,   155.53  L   339.94,   158.36  " /><path style="stroke-width: 0.85 ;&st7;  " d=" M   339.94,   112.27  L   339.94,   163.26  " /><path style="stroke-width: 0.28 ;&st9;  " d=" M   382.44,   158.36  L   379.60,   155.53  L   379.60,   159.78  L   382.44,   162.61  L   385.27,   159.78  L   385.27,   155.53  L   382.44,   158.36  " /><path style="stroke-width: 0.85 ;&st7;  " d=" M   382.44,   112.27  L   382.44,   163.26  " /><text style="&st18;" transform="matrix(&st16;  211.89  56.17 )">7.5A <tspan x="0 " dy="6.0">ACC</tspan></text><text style="&st18;" transform="matrix(&st16;  189.28  86.47 )">2</text><text style="&st18;" transform="matrix(&st16;  186.96  32.08 )">(ACC)</text><text style="&st18;" transform="matrix(&st16;  262.67  120.46 )">29</text><text style="&st18;" transform="matrix(&st16;  302.21  169.48 )">3B</text><text style="&st18;" transform="matrix(&st16;  292.34  169.48 )">16</text><text style="&st18;" transform="matrix(&st16;  296.66  120.46 )">30</text><text style="&st18;" transform="matrix(&st16;  336.01  169.48 )">3D</text><text style="&st18;" transform="matrix(&st16;  326.33  169.48 )">40</text><text style="&st18;" transform="matrix(&st16;  330.66  120.46 )">32</text><text style="&st18;" transform="matrix(&st16;  371.93  169.48 )">9</text><text style="&st18;" transform="matrix(&st16;  378.5  169.48 )">3D</text><text style="&st18;" transform="matrix(&st16;  373.15  120.46 )">11</text></g><g ewd:figtype="gp" ewd:figID="76" ewd:code="GA"><path style="stroke-width: 0.85 ;&st7;  " d=" M   381.02,   710.00  L   383.85,   710.00  " /><path style="stroke-width: 0.85 ;&st7;  " d=" M   379.60,   707.17  L   385.27,   707.17  " /><path style="stroke-width: 0.85 ;&st7;  " d=" M   378.19,   704.33  L   386.69,   704.33  " /><path style="stroke-width: 0.85 ;&st7;  " d=" M   373.94,   701.50  L   390.93,   701.50  " /><path style="stroke-width: 0.85 ;&st7;  " d=" M   382.44,   697.25  L   382.44,   701.50  " /></g><g ewd:code="1" ewd:figID="104" ewd:comment="" ewd:figtype="comment"><text style="&st18;" transform="matrix(&st16;  73.08  369.19 )">* 1 :2WD</text></g><g ewd:code="3" ewd:figID="105" ewd:comment="" ewd:figtype="comment"><text style="&st18;" transform="matrix(&st16;  73.08  377.69 )" ewd:textID="2">* 3 :w/ ECO MODE Switch</text></g></svg>