﻿<?xml version="1.0" encoding="utf-8"?>
<!DOCTYPE svg PUBLIC "-//W3C//DTD SVG 1.0//EN" "http://www.w3.org/TR/2001/REC-SVG-20010904/DTD/svg10.dtd"[
	<!ENTITY ns_flows "http://ns.adobe.com/Flows/1.0/">
	<!ENTITY ns_svg "http://www.w3.org/2000/svg">
	<!ENTITY ns_xlink "http://www.w3.org/1999/xlink">
	<!ENTITY st0 "font-size:7px;font-family:'MS-PGothic';adobe-font-script:japanese;">
	<!ENTITY st1 "font-size:6px;font-family:'ArialMT';">
	<!-- White fill  -->
	<!ENTITY st2 "fill:#FFFFFF;stroke:#000000; stroke-width:1.41;stroke-linecap:round;stroke-linejoin:round;">
	<!-- Yellow fill  -->
	<!ENTITY st3 "fill:#FFFFCC;stroke:#FFFFCC; stroke-width:0.1;stroke-linecap:round;stroke-linejoin:round;">
	<!-- Gray fill  -->
	<!ENTITY st4 "fill:#CCCCCC;stroke:#CCCCCC; stroke-width:0.1;stroke-linecap:round;stroke-linejoin:round;">
	<!-- Light-blue fill -->
	<!ENTITY st5 "fill:#CCECF4;stroke:#000000; stroke-width:1.133;stroke-linecap:round;stroke-linejoin:round;">
	<!ENTITY st6 "fill:none;stroke-linecap:butt; stroke-linejoin:round;">
	<!ENTITY st7 "fill:none;stroke:#000000;stroke-linecap:round;stroke-linejoin:round;">
	<!ENTITY st8 "enable-background:new    ;">
	<!-- Black fill -->
	<!ENTITY st9 "fill:#000000;stroke:#000000; stroke-linecap:round;stroke-linejoin:round;">
	<!-- SRS note   -->
	<!ENTITY st10 "font-size:9px;font-family:'ArialMT';">
	<!ENTITY st11 "font-size:9px;font-family:'Svg Symbol';">
	<!ENTITY st12 "font-size:6px;font-family:'Svg Symbol';">
	<!ENTITY st13 "fill:none;stroke:#ff0000;stroke-linecap:round;stroke-linejoin:round;">
	<!-- Yellow fill  -->
	<!ENTITY st14 "fill:#FFFF00;stroke:#FFFF00; stroke-width:0.1;stroke-linecap:round;stroke-linejoin:round;">
	<!ENTITY st15 "font-size:6px;font-family:'MS-PGothic';adobe-font-script:japanese;">
	<!ENTITY st16 "1.00 0.00 0.00 1.00">
	<!ENTITY st17 "0.00 -1.00 1.00 0.00">
	<!ENTITY st18 "font-size:6px;font-family:'Arial';">
	<!ENTITY st19 "font-size:9px;font-family:'Arial';">
	<!ENTITY st20 "font-size:6px;font-family:'MS-PGothic','MS PGothic';adobe-font-script:japanese;">
	<!ENTITY st21 "font-size:7px;font-family:'MS-PGothic','MS PGothic';adobe-font-script:japanese;">
	<!ATTLIST svg
		xmlns:ewd CDATA #FIXED "http://shcl.co.jp/ewd"
		xmlns:a CDATA #FIXED "http://ns.adobe.com/AdobeSVGViewerExtensions/3.0/"
		ewd:ver CDATA #IMPLIED
	>
	<!ATTLIST a
		ewd:lineID CDATA #IMPLIED
		ewd:groupID CDATA #IMPLIED
		ewd:figtype CDATA #IMPLIED
		ewd:code CDATA #IMPLIED
		ewd:figID CDATA #IMPLIED
		ewd:pinNo CDATA #IMPLIED
		ewd:comment CDATA #IMPLIED >
	<!ATTLIST g
		ewd:lineID CDATA #IMPLIED
		ewd:groupID CDATA #IMPLIED
		ewd:figtype CDATA #IMPLIED
		ewd:code CDATA #IMPLIED
		ewd:figID CDATA #IMPLIED
		ewd:pinNo CDATA #IMPLIED
		ewd:comment CDATA #IMPLIED >
	<!ATTLIST text
		ewd:textID CDATA #IMPLIED >
	<!ATTLIST title
		ewd:textID CDATA #IMPLIED >
]>
<!-- Generator: Shintec Hozumi YS   -->
<svg onload="call_execInitLoadProc_svg('system')" style="overflow:visible;  enable-background:new 0 0 4640.933 710.000" viewBox="0 0 4640.933 710.000" height="710.000" width="4640.933" xml:space="preserve" ewd:ver="2.1.2.5" xmlns="&ns_svg;" xmlns:a="http://ns.adobe.com/AdobeSVGViewerExtensions/3.0/" xmlns:ewd="http://shcl.co.jp/ewd" xmlns:xlink="&ns_xlink;">
<path style="stroke-width: 1.42 ;&st7;  " d=" M  1810.20,   214.25  L  1801.70,   214.25  " /><path style="stroke-width: 1.42 ;&st7;  " d=" M  1674.22,   214.25  L  1665.72,   214.25  " /><path style="stroke-width: 1.42 ;&st7;  " d=" M  1708.21,   214.25  L  1699.72,   214.25  " /><path style="stroke-width: 1.42 ;&st7;  " d=" M  1742.21,   214.25  L  1733.71,   214.25  " /><path style="stroke-width: 1.42 ;&st7;  " d=" M  1776.20,   214.25  L  1767.70,   214.25  " /><text style="&st18;" transform="matrix(&st16;  1730.3  66.08 )" ewd:textID="21">Multi-Media Module Receiver Assembly</text><text style="&st18;" transform="matrix(&st16;  1730.3  58.97 )">G67(Q),G141(J),G142(K),G143(R),G144(S),G150(T),G153(U)</text><text style="&st18;" transform="matrix(&st17;  1662.03  266.93 )">B</text><text style="&st18;" transform="matrix(&st17;  1662.03  164.95 )">B</text><text style="&st18;" transform="matrix(&st17;  1696.02  165.72 )">W</text><text style="&st18;" transform="matrix(&st17;  1696.02  267.71 )">W</text><text style="&st18;" transform="matrix(&st17;  1730.01  266.85 )">R</text><text style="&st18;" transform="matrix(&st17;  1730.01  164.87 )">R</text><text style="&st18;" transform="matrix(&st17;  1798.0  164.75 )">P</text><text style="&st18;" transform="matrix(&st17;  1798.0  266.74 )">P</text><g ewd:figtype="conn" ewd:figID="27" ewd:code="Q7"><text style="&st18;" transform="matrix(&st16;  1718.46  335.2 )" ewd:textID="20">Microphone</text><path style="stroke-width: 1.42 ;&st7;  " d=" M  1640.23,   307.73  L  1640.23,   350.23  L  1827.19,   350.23  L  1827.19,   307.73  L  1640.23,   307.73  " /><path style="stroke-width: 0.85 ;&st7;  " d=" M  1801.70,   307.73  L  1801.70,   324.73  " /><path style="stroke-width: 0.85 ;&st7;  " d=" M  1733.71,   307.73  L  1733.71,   324.73  " /><path style="stroke-width: 0.85 ;&st7;  " d=" M  1665.72,   307.73  L  1665.72,   324.73  " /><path style="stroke-width: 1.42 ;&st7;  " d=" M  1657.22,   324.73  L  1657.22,   341.73  L  1810.20,   341.73  L  1810.20,   324.73  L  1657.22,   324.73  " /><text style="&st18;" transform="matrix(&st16;  1668.31  315.93 )">MACC</text><text style="&st18;" transform="matrix(&st16;  1702.3  315.93 )">MCO+</text><text style="&st18;" transform="matrix(&st16;  1736.29  315.93 )">MCO-</text><path style="stroke-width: 0.85 ;&st7;  " d=" M  1699.72,   307.73  L  1699.72,   324.73  " /><text style="&st18;" transform="matrix(&st16;  1804.28  315.93 )">SNS2</text><text style="&st18;" transform="matrix(&st16;  1656.44  304.04 )">11</text><text style="&st18;" transform="matrix(&st16;  1690.43  304.04 )">10</text><text style="&st18;" transform="matrix(&st16;  1727.53  304.04 )">9</text><text style="&st18;" transform="matrix(&st16;  1792.41  304.04 )">12</text><g ewd:figtype="title"><text style="&st18;" transform="matrix(&st16;  1662.31  357.84 )">Q7</text><text style="&st18;" transform="matrix(&st16;  1662.32  364.94 )" ewd:textID="19">Map Light Assembly</text></g></g><g ewd:figtype="w2w" ewd:figID="48" ewd:code="GQ2"><path style="stroke-width: 1.42 ;&st7;  " d=" M  1669.97,   223.31  L  1665.72,   219.07  L  1661.47,   223.31  " /><path style="stroke-width: 1.42 ;&st7;  " d=" M  1669.97,   219.92  L  1665.72,   215.67  L  1661.47,   219.92  " /><text style="&st18;" transform="matrix(&st16;  1653.09  211.97 )">4</text></g><g ewd:figtype="w2w" ewd:figID="49" ewd:code="GQ2"><path style="stroke-width: 1.42 ;&st7;  " d=" M  1703.96,   223.31  L  1699.72,   219.07  L  1695.47,   223.31  " /><path style="stroke-width: 1.42 ;&st7;  " d=" M  1703.96,   219.92  L  1699.72,   215.67  L  1695.47,   219.92  " /><text style="&st18;" transform="matrix(&st16;  1687.08  211.97 )">2</text></g><g ewd:figtype="w2w" ewd:figID="50" ewd:code="GQ2"><path style="stroke-width: 1.42 ;&st7;  " d=" M  1737.96,   223.31  L  1733.71,   219.07  L  1729.46,   223.31  " /><path style="stroke-width: 1.42 ;&st7;  " d=" M  1737.96,   219.92  L  1733.71,   215.67  L  1729.46,   219.92  " /><text style="&st18;" transform="matrix(&st16;  1721.08  211.97 )">3</text></g><g ewd:figtype="w2w" ewd:figID="51" ewd:code="GQ2"><path style="stroke-width: 1.42 ;&st7;  " d=" M  1771.95,   223.31  L  1767.70,   219.07  L  1763.45,   223.31  " /><path style="stroke-width: 1.42 ;&st7;  " d=" M  1771.95,   219.92  L  1767.70,   215.67  L  1763.45,   219.92  " /><text style="&st18;" transform="matrix(&st16;  1755.07  211.97 )">1</text></g><g ewd:figtype="w2w" ewd:figID="52" ewd:code="GQ2"><path style="stroke-width: 1.42 ;&st7;  " d=" M  1805.95,   223.31  L  1801.70,   219.07  L  1797.45,   223.31  " /><path style="stroke-width: 1.42 ;&st7;  " d=" M  1805.95,   219.92  L  1801.70,   215.67  L  1797.45,   219.92  " /><text style="&st18;" transform="matrix(&st16;  1789.07  211.97 )">8</text></g><g ewd:code=" " ewd:figID="127" ewd:comment=" " ewd:figtype="sh"><path style="stroke-width: 0.85 ;&st7; stroke-dasharray:3, 1.5;" d=" M  1767.70,   180.26  L  1648.72,   180.26  L  1648.72,   146.26  L  1767.70,   146.26  L  1767.70,   180.26  " /><path style="stroke-width: 0.85 ;&st7;  " d=" M  1766.51,   179.25  L  1766.24,   179.72  L  1766.15,   180.26  L  1766.24,   180.79  L  1766.51,   181.26  L  1766.92,   181.60  L  1767.43,   181.79  L  1767.98,   181.79  L  1768.48,   181.60  L  1768.90,   181.26  L  1769.17,   180.79  L  1769.26,   180.26  L  1769.17,   179.72  L  1768.90,   179.25  L  1768.48,   178.91  L  1767.98,   178.72  L  1767.43,   178.72  L  1766.92,   178.91  L  1766.51,   179.25  L  1766.91,   179.96  L  1766.91,   180.55  L  1767.28,   180.99  L  1767.85,   181.09  L  1768.36,   180.80  L  1768.55,   180.26  L  1768.36,   179.71  L  1767.85,   179.42  L  1767.28,   179.52  L  1767.70,   180.26  " /><path style="stroke-width: 0.85 ;&st7;  " d=" M  1766.51,   145.26  L  1766.24,   145.73  L  1766.15,   146.26  L  1766.24,   146.79  L  1766.51,   147.26  L  1766.92,   147.61  L  1767.43,   147.80  L  1767.98,   147.80  L  1768.48,   147.61  L  1768.90,   147.26  L  1769.17,   146.79  L  1769.26,   146.26  L  1769.17,   145.73  L  1768.90,   145.26  L  1768.48,   144.91  L  1767.98,   144.73  L  1767.43,   144.73  L  1766.92,   144.91  L  1766.51,   145.26  L  1766.91,   145.97  L  1766.91,   146.55  L  1767.28,   147.00  L  1767.85,   147.10  L  1768.36,   146.81  L  1768.55,   146.26  L  1768.36,   145.71  L  1767.85,   145.43  L  1767.28,   145.52  L  1767.70,   146.26  " /><g ewd:code="" ewd:figID="135" ewd:comment=" " ewd:figtype="commref"><text style="&st18;" transform="matrix(&st17;  1645.03  175.49 )" ewd:textID="2">(Shielded)</text></g></g><g ewd:code=" " ewd:figID="122" ewd:comment=" " ewd:figtype="sh"><path style="stroke-width: 0.85 ;&st7; stroke-dasharray:3, 1.5;" d=" M  1767.70,   248.24  L  1648.72,   248.24  L  1648.72,   282.24  L  1767.70,   282.24  L  1767.70,   248.24  " /><path style="stroke-width: 0.85 ;&st7;  " d=" M  1766.51,   247.24  L  1766.24,   247.71  L  1766.15,   248.24  L  1766.24,   248.78  L  1766.51,   249.25  L  1766.92,   249.59  L  1767.43,   249.78  L  1767.98,   249.78  L  1768.48,   249.59  L  1768.90,   249.25  L  1769.17,   248.78  L  1769.26,   248.24  L  1769.17,   247.71  L  1768.90,   247.24  L  1768.48,   246.90  L  1767.98,   246.71  L  1767.43,   246.71  L  1766.92,   246.90  L  1766.51,   247.24  L  1766.91,   247.95  L  1766.91,   248.54  L  1767.28,   248.98  L  1767.85,   249.08  L  1768.36,   248.79  L  1768.55,   248.24  L  1768.36,   247.70  L  1767.85,   247.41  L  1767.28,   247.51  L  1767.70,   248.24  " /><g ewd:code="" ewd:figID="136" ewd:comment=" " ewd:figtype="commref"><text style="&st18;" transform="matrix(&st17;  1645.03  277.48 )" ewd:textID="2">(Shielded)</text></g></g><g ewd:figtype="annex" ewd:figID="31" ewd:code=" "><path style="stroke-width: 0.85 ;&st7;  " d=" M  1963.17,   112.27  L  1963.17,   197.25  L  2014.16,   197.25  L  2014.16,   171.76  " /><path style="stroke-width: 1.42 ;&st7;  " d=" M  2014.16,   146.26  L  2014.16,   171.76  " /><path style="stroke-width: 1.42 ;&st7;  " d=" M  1997.17,   146.26  L  2014.16,   171.76  L  2031.16,   146.26  L  1997.17,   146.26  " /><text style="&st18;" transform="matrix(&st16;  1973.06  193.56 )" ewd:textID="3">(w/ SDARS)</text><text style="&st18;" transform="matrix(&st16;  2003.25  136.63 )" ewd:textID="40">SDARS <tspan x="0 " dy="6.0">Antenna</tspan></text></g><g ewd:figtype="annex" ewd:figID="33" ewd:code=" "><path style="stroke-width: 1.42 ;&st7;  " d=" M  1912.18,   146.26  L  1912.18,   171.76  " /><path style="stroke-width: 0.85 ;&st7;  " d=" M  1861.19,   112.27  L  1861.19,   197.25  L  1912.18,   197.25  L  1912.18,   171.76  " /><path style="stroke-width: 1.42 ;&st7;  " d=" M  1895.18,   146.26  L  1912.18,   171.76  L  1929.18,   146.26  L  1895.18,   146.26  " /><text style="&st18;" transform="matrix(&st16;  1901.27  136.63 )" ewd:textID="35">Radio <tspan x="0 " dy="6.0">Antenna</tspan></text></g></svg>