﻿<?xml version="1.0" encoding="utf-8"?>
<!DOCTYPE svg PUBLIC "-//W3C//DTD SVG 1.0//EN" "http://www.w3.org/TR/2001/REC-SVG-20010904/DTD/svg10.dtd"[
	<!ENTITY ns_flows "http://ns.adobe.com/Flows/1.0/">
	<!ENTITY ns_svg "http://www.w3.org/2000/svg">
	<!ENTITY ns_xlink "http://www.w3.org/1999/xlink">
	<!ENTITY st0 "font-size:7px;font-family:'MS-PGothic';adobe-font-script:japanese;">
	<!ENTITY st1 "font-size:6px;font-family:'ArialMT';">
	<!-- White fill  -->
	<!ENTITY st2 "fill:#FFFFFF;stroke:#000000; stroke-width:1.41;stroke-linecap:round;stroke-linejoin:round;">
	<!-- Yellow fill  -->
	<!ENTITY st3 "fill:#FFFFCC;stroke:#FFFFCC; stroke-width:0.1;stroke-linecap:round;stroke-linejoin:round;">
	<!-- Gray fill  -->
	<!ENTITY st4 "fill:#CCCCCC;stroke:#CCCCCC; stroke-width:0.1;stroke-linecap:round;stroke-linejoin:round;">
	<!-- Light-blue fill -->
	<!ENTITY st5 "fill:#CCECF4;stroke:#000000; stroke-width:1.133;stroke-linecap:round;stroke-linejoin:round;">
	<!ENTITY st6 "fill:none;stroke-linecap:butt; stroke-linejoin:round;">
	<!ENTITY st7 "fill:none;stroke:#000000;stroke-linecap:round;stroke-linejoin:round;">
	<!ENTITY st8 "enable-background:new    ;">
	<!-- Black fill -->
	<!ENTITY st9 "fill:#000000;stroke:#000000; stroke-linecap:round;stroke-linejoin:round;">
	<!-- SRS note   -->
	<!ENTITY st10 "font-size:9px;font-family:'ArialMT';">
	<!ENTITY st11 "font-size:9px;font-family:'Svg Symbol';">
	<!ENTITY st12 "font-size:6px;font-family:'Svg Symbol';">
	<!ENTITY st13 "fill:none;stroke:#ff0000;stroke-linecap:round;stroke-linejoin:round;">
	<!-- Yellow fill  -->
	<!ENTITY st14 "fill:#FFFF00;stroke:#FFFF00; stroke-width:0.1;stroke-linecap:round;stroke-linejoin:round;">
	<!ENTITY st15 "font-size:6px;font-family:'MS-PGothic';adobe-font-script:japanese;">
	<!ENTITY st16 "1.00 0.00 0.00 1.00">
	<!ENTITY st17 "0.00 -1.00 1.00 0.00">
	<!ENTITY st18 "font-size:6px;font-family:'Arial';">
	<!ENTITY st19 "font-size:9px;font-family:'Arial';">
	<!ENTITY st20 "font-size:6px;font-family:'MS-PGothic','MS PGothic';adobe-font-script:japanese;">
	<!ENTITY st21 "font-size:7px;font-family:'MS-PGothic','MS PGothic';adobe-font-script:japanese;">
	<!ATTLIST svg
		xmlns:ewd CDATA #FIXED "http://shcl.co.jp/ewd"
		xmlns:a CDATA #FIXED "http://ns.adobe.com/AdobeSVGViewerExtensions/3.0/"
		ewd:ver CDATA #IMPLIED
	>
	<!ATTLIST a
		ewd:lineID CDATA #IMPLIED
		ewd:groupID CDATA #IMPLIED
		ewd:figtype CDATA #IMPLIED
		ewd:code CDATA #IMPLIED
		ewd:figID CDATA #IMPLIED
		ewd:pinNo CDATA #IMPLIED
		ewd:comment CDATA #IMPLIED >
	<!ATTLIST g
		ewd:lineID CDATA #IMPLIED
		ewd:groupID CDATA #IMPLIED
		ewd:figtype CDATA #IMPLIED
		ewd:code CDATA #IMPLIED
		ewd:figID CDATA #IMPLIED
		ewd:pinNo CDATA #IMPLIED
		ewd:comment CDATA #IMPLIED >
	<!ATTLIST text
		ewd:textID CDATA #IMPLIED >
	<!ATTLIST title
		ewd:textID CDATA #IMPLIED >
]>
<!-- Generator: Shintec Hozumi YS   -->
<svg onload="call_execInitLoadProc_svg('system')" style="overflow:visible;  enable-background:new 0 0 7237.082 710.000" viewBox="0 0 7237.082 710.000" height="710.000" width="7237.082" xml:space="preserve" ewd:ver="2.1.2.5" xmlns="&ns_svg;" xmlns:a="http://ns.adobe.com/AdobeSVGViewerExtensions/3.0/" xmlns:ewd="http://shcl.co.jp/ewd" xmlns:xlink="&ns_xlink;">
<path style="stroke-width: 1.42 ;&st7;  " d=" M  5124.64,   431.69  L  5119.67,   426.71  " /><path style="stroke-width: 1.42 ;&st7;  " d=" M  5107.65,   438.74  L  5112.62,   443.71  " /><path style="stroke-width: 1.42 ;&st7;  " d=" M  5119.67,   443.71  L  5124.64,   438.74  " /><path style="stroke-width: 1.42 ;&st7;  " d=" M  5112.62,   426.71  L  5107.65,   431.69  " /><path style="stroke-width: 1.42 ;&st7;  " d=" M  5124.64,   508.17  L  5119.67,   503.20  " /><path style="stroke-width: 1.42 ;&st7;  " d=" M  5107.65,   515.23  L  5112.62,   520.20  " /><path style="stroke-width: 1.42 ;&st7;  " d=" M  5119.67,   520.20  L  5124.64,   515.23  " /><path style="stroke-width: 1.42 ;&st7;  " d=" M  5112.62,   503.20  L  5107.65,   508.17  " /><text style="&st18;" transform="matrix(&st17;  5027.46  419.9 )">B</text><text style="&st18;" transform="matrix(&st16;  5077.91  397.52 )" ewd:textID="1">(Shielded)</text><text style="&st18;" transform="matrix(&st17;  5112.45  472.76 )">BR</text><text style="&st18;" transform="matrix(&st17;  5112.45  540.75 )">BR</text><path style="stroke-width: 1.42 ;&st7;  " d=" M  5014.16,   248.24  L  5022.66,   248.24  " /><path style="stroke-width: 1.42 ;&st7;  " d=" M  5031.16,   120.77  L  5022.66,   120.77  " /><text style="&st18;" transform="matrix(&st17;  5018.96  89.24 )">W</text><text style="&st18;" transform="matrix(&st17;  5018.96  225.21 )">W</text><text style="&st18;" transform="matrix(&st17;  5018.96  148.73 )">W</text><text style="&st18;" transform="matrix(&st17;  5018.96  284.7 )">W</text><text style="&st18;" transform="matrix(&st17;  5030.3  91.48 )">(*5)</text><text style="&st18;" transform="matrix(&st17;  5030.3  150.97 )">(*5)</text><text style="&st18;" transform="matrix(&st17;  5030.3  227.46 )">(*5)</text><text style="&st18;" transform="matrix(&st17;  5030.3  286.95 )">(*5)</text><text style="&st18;" transform="matrix(&st16;  5150.71  660.98 )">W(*5)</text><text style="&st18;" transform="matrix(&st16;  5070.24  330.93 )">A62(A),B77(B)</text><text style="&st18;" transform="matrix(&st16;  5070.25  338.03 )">ECM</text><text style="&st18;" transform="matrix(&st16;  5201.7  660.98 )">W(*5)</text><text style="&st18;" transform="matrix(&st16;  5151.49  609.99 )">Y(*5)</text><text style="&st18;" transform="matrix(&st16;  5202.48  609.99 )">Y(*5)</text><text style="&st18;" transform="matrix(&st16;  5207.44  592.99 )">Y</text><text style="&st18;" transform="matrix(&st16;  5156.45  592.99 )">Y</text><text style="&st18;" transform="matrix(&st16;  5202.48  626.98 )">Y(*4)</text><text style="&st18;" transform="matrix(&st16;  5151.49  626.98 )">Y(*4)</text><text style="&st18;" transform="matrix(&st16;  5201.7  643.98 )">W(*4)</text><text style="&st18;" transform="matrix(&st16;  5150.71  643.98 )">W(*4)</text><text style="&st18;" transform="matrix(&st16;  5207.52  575.99 )">R</text><text style="&st18;" transform="matrix(&st16;  5156.53  575.99 )">R</text><path style="stroke-width: 1.42 ;&st7;  " d=" M  5427.07,   265.24  L  5422.09,   270.21  " /><path style="stroke-width: 1.42 ;&st7;  " d=" M  5434.12,   282.24  L  5439.09,   277.27  " /><path style="stroke-width: 1.42 ;&st7;  " d=" M  5422.09,   277.27  L  5427.07,   282.24  " /><path style="stroke-width: 1.42 ;&st7;  " d=" M  5439.09,   270.21  L  5434.12,   265.24  " /><path style="stroke-width: 1.42 ;&st7;  " d=" M  5260.62,   248.24  L  5269.12,   248.24  " /><text style="&st18;" transform="matrix(&st17;  5494.89  266.93 )">B</text><text style="&st18;" transform="matrix(&st17;  5426.9  309.35 )">R</text><text style="&st18;" transform="matrix(&st17;  5426.9  241.36 )">R</text><text style="&st18;" transform="matrix(&st17;  5460.89  266.93 )">Y</text><text style="&st18;" transform="matrix(&st17;  5392.9  266.81 )">L</text><text style="&st18;" transform="matrix(&st17;  5358.91  267.2 )">G</text><text style="&st18;" transform="matrix(&st17;  5265.42  148.22 )">G</text><path style="stroke-width: 1.42 ;&st7;  " d=" M  5495.05,   545.69  L  5490.08,   550.67  " /><path style="stroke-width: 1.42 ;&st7;  " d=" M  5490.08,   557.72  L  5495.05,   562.69  " /><text style="&st18;" transform="matrix(&st17;  5494.89  419.79 )">L</text><text style="&st18;" transform="matrix(&st17;  5494.89  526.14 )">Y</text><text style="&st18;" transform="matrix(&st17;  5299.42  422.04 )">GR</text><text style="&st18;" transform="matrix(&st17;  5239.93  421.77 )">BR</text><g ewd:figtype="conn" ewd:figID="29" ewd:code="B28"><g ewd:lineID="97"><text style="&st18;" transform="matrix(&st16;  5024.98  491.01 )">2</text><text style="&st18;" transform="matrix(&st16;  5025.44  502.34 )">NE-</text></g></g><g ewd:figtype="conn" ewd:figID="32" ewd:code="B36"><path style="stroke-width: 0.85 ;&st7;   " d=" M  5364.02,   146.26  C  5364.02    145.48   5363.39    144.84   5362.60    144.84  " /><path style="stroke-width: 0.85 ;&st7;   " d=" M  5362.60,   144.84  C  5361.82    144.84   5361.19    145.48   5361.19    146.26  " /><path style="stroke-width: 0.85 ;&st7;   " d=" M  5361.19,   146.26  C  5361.19    147.04   5361.82    147.68   5362.60    147.68  " /><path style="stroke-width: 0.85 ;&st7;   " d=" M  5362.60,   147.68  C  5363.39    147.68   5364.02    147.04   5364.02    146.26  " /><path style="stroke-width: 0.85 ;&st7;   " d=" M  5364.02,   180.26  C  5364.02    179.47   5363.39    178.84   5362.60    178.84  " /><path style="stroke-width: 0.85 ;&st7;   " d=" M  5362.60,   178.84  C  5361.82    178.84   5361.19    179.47   5361.19    180.26  " /><path style="stroke-width: 0.85 ;&st7;   " d=" M  5361.19,   180.26  C  5361.19    181.04   5361.82    181.67   5362.60    181.67  " /><path style="stroke-width: 0.85 ;&st7;   " d=" M  5362.60,   181.67  C  5363.39    181.67   5364.02    181.04   5364.02    180.26  " /><path style="stroke-width: 0.85 ;&st7;   " d=" M  5466.00,   180.26  C  5466.00    179.47   5465.37    178.84   5464.59    178.84  " /><path style="stroke-width: 0.85 ;&st7;   " d=" M  5464.59,   178.84  C  5463.80    178.84   5463.17    179.47   5463.17    180.26  " /><path style="stroke-width: 0.85 ;&st7;   " d=" M  5463.17,   180.26  C  5463.17    181.04   5463.80    181.67   5464.59    181.67  " /><path style="stroke-width: 0.85 ;&st7;   " d=" M  5464.59,   181.67  C  5465.37    181.67   5466.00    181.04   5466.00    180.26  " /><path style="stroke-width: 0.85 ;&st7;   " d=" M  5364.02,   197.25  C  5364.02    196.47   5363.39    195.84   5362.60    195.84  " /><path style="stroke-width: 0.85 ;&st7;   " d=" M  5362.60,   195.84  C  5361.82    195.84   5361.19    196.47   5361.19    197.25  " /><path style="stroke-width: 0.85 ;&st7;   " d=" M  5361.19,   197.25  C  5361.19    198.03   5361.82    198.67   5362.60    198.67  " /><path style="stroke-width: 0.85 ;&st7;   " d=" M  5362.60,   198.67  C  5363.39    198.67   5364.02    198.03   5364.02    197.25  " /><path style="stroke-width: 0.85 ;&st7;   " d=" M  5500.00,   197.25  C  5500.00    196.47   5499.36    195.84   5498.58    195.84  " /><path style="stroke-width: 0.85 ;&st7;   " d=" M  5498.58,   195.84  C  5497.80    195.84   5497.16    196.47   5497.16    197.25  " /><path style="stroke-width: 0.85 ;&st7;   " d=" M  5497.16,   197.25  C  5497.16    198.03   5497.80    198.67   5498.58    198.67  " /><path style="stroke-width: 0.85 ;&st7;   " d=" M  5498.58,   198.67  C  5499.36    198.67   5500.00    198.03   5500.00    197.25  " /><path style="stroke-width: 0.85 ;&st7;   " d=" M  5398.01,   146.26  C  5398.01    145.48   5397.38    144.84   5396.60    144.84  " /><path style="stroke-width: 0.85 ;&st7;   " d=" M  5396.60,   144.84  C  5395.82    144.84   5395.18    145.48   5395.18    146.26  " /><path style="stroke-width: 0.85 ;&st7;   " d=" M  5395.18,   146.26  C  5395.18    147.04   5395.82    147.68   5396.60    147.68  " /><path style="stroke-width: 0.85 ;&st7;   " d=" M  5396.60,   147.68  C  5397.38    147.68   5398.01    147.04   5398.01    146.26  " /><path style="stroke-width: 0.85 ;&st7;   " d=" M  5432.01,   163.26  C  5432.01    162.48   5431.37    161.84   5430.59    161.84  " /><path style="stroke-width: 0.85 ;&st7;   " d=" M  5430.59,   161.84  C  5429.81    161.84   5429.18    162.48   5429.18    163.26  " /><path style="stroke-width: 0.85 ;&st7;   " d=" M  5429.18,   163.26  C  5429.18    164.04   5429.81    164.67   5430.59    164.67  " /><path style="stroke-width: 0.85 ;&st7;   " d=" M  5430.59,   164.67  C  5431.37    164.67   5432.01    164.04   5432.01    163.26  " /><path style="stroke-width: 0.85 ;&st7;   " d=" M  5364.02,   163.26  C  5364.02    162.48   5363.39    161.84   5362.60    161.84  " /><path style="stroke-width: 0.85 ;&st7;   " d=" M  5362.60,   161.84  C  5361.82    161.84   5361.19    162.48   5361.19    163.26  " /><path style="stroke-width: 0.85 ;&st7;   " d=" M  5361.19,   163.26  C  5361.19    164.04   5361.82    164.67   5362.60    164.67  " /><path style="stroke-width: 0.85 ;&st7;   " d=" M  5362.60,   164.67  C  5363.39    164.67   5364.02    164.04   5364.02    163.26  " /><path style="stroke-width: 1.42 ;&st7;  " d=" M  5328.61,   120.77  L  5515.58,   120.77  L  5515.58,   205.75  L  5328.61,   205.75  L  5328.61,   120.77  " /><path style="stroke-width: 0.85 ;&st7;  " d=" M  5328.61,   154.76  L  5515.58,   154.76  " /><path style="stroke-width: 0.85 ;&st7;  " d=" M  5345.60,   120.77  L  5345.60,   205.75  " /><path style="stroke-width: 0.85 ;&st7;  " d=" M  5413.59,   120.77  L  5413.59,   205.75  " /><path style="stroke-width: 0.85 ;&st7;  " d=" M  5395.18,   146.26  L  5364.02,   146.26  " /><path style="stroke-width: 0.85 ;&st7;  " d=" M  5364.02,   163.26  L  5429.17,   163.26  " /><path style="stroke-width: 0.85 ;&st7;  " d=" M  5328.61,   137.76  L  5515.58,   137.76  " /><path style="stroke-width: 0.85 ;&st7;  " d=" M  5379.60,   120.77  L  5379.60,   205.75  " /><path style="stroke-width: 0.85 ;&st7;  " d=" M  5447.59,   120.77  L  5447.59,   205.75  " /><path style="stroke-width: 0.85 ;&st7;  " d=" M  5328.61,   171.76  L  5515.58,   171.76  " /><path style="stroke-width: 0.85 ;&st7;  " d=" M  5328.61,   188.75  L  5515.58,   188.75  " /><path style="stroke-width: 0.85 ;&st7;  " d=" M  5364.02,   180.26  L  5463.17,   180.26  " /><path style="stroke-width: 0.85 ;&st7;  " d=" M  5364.02,   197.25  L  5497.16,   197.25  " /><path style="stroke-width: 0.85 ;&st7;  " d=" M  5481.58,   120.77  L  5481.58,   205.75  " /><text style="&st18;" transform="matrix(&st16;  5335.11  148.23 )">P</text><text style="&st18;" transform="matrix(&st16;  5335.0  165.23 )">R</text><text style="&st18;" transform="matrix(&st16;  5392.78  131.23 )">PL</text><text style="&st18;" transform="matrix(&st16;  5426.66  131.23 )">RL</text><text style="&st18;" transform="matrix(&st16;  5494.38  131.23 )">DL</text><text style="&st18;" transform="matrix(&st16;  5358.55  131.23 )">RB</text><text style="&st18;" transform="matrix(&st16;  5334.8  182.22 )">N</text><text style="&st18;" transform="matrix(&st16;  5334.73  199.22 )">D</text><text style="&st18;" transform="matrix(&st16;  5460.46  131.23 )">NL</text><text style="&st18;" transform="matrix(&st16;  5356.42  213.94 )">1</text><text style="&st18;" transform="matrix(&st16;  5390.41  213.94 )">3</text><text style="&st18;" transform="matrix(&st16;  5424.41  213.94 )">2</text><text style="&st18;" transform="matrix(&st16;  5458.4  213.94 )">8</text><text style="&st18;" transform="matrix(&st16;  5492.4  213.94 )">7</text><g ewd:figtype="title"><text style="&st18;" transform="matrix(&st17;  5523.19  208.65 )">B36</text><text style="&st18;" transform="matrix(&st17;  5530.3  208.66 )" ewd:textID="69">Park/Neutral Position <tspan x="0 " dy="6.0">Switch Assembly</tspan></text></g></g><g ewd:figtype="conn" ewd:figID="37" ewd:code="B19"><path style="stroke-width: 0.85 ;&st7;  " d=" M  5498.58,   460.71  L  5498.58,   469.21  " /><path style="stroke-width: 0.85 ;&st7;  " d=" M  5498.58,   486.20  L  5498.58,   494.70  " /><path style="stroke-width: 0.85 ;&st7;   " d=" M  5496.05,   475.23  C  5497.42    476.62   5499.66    476.65   5501.06    475.28  " /><path style="stroke-width: 0.85 ;&st7;   " d=" M  5501.06,   475.28  C  5502.46    473.91   5502.48    471.67   5501.11    470.27  " /><path style="stroke-width: 0.85 ;&st7;   " d=" M  5501.11,   470.27  C  5500.42    469.56   5499.57    469.21   5498.58    469.21  " /><path style="stroke-width: 0.85 ;&st7;   " d=" M  5496.05,   480.18  C  5497.42    481.58   5499.66    481.60   5501.06    480.24  " /><path style="stroke-width: 0.85 ;&st7;   " d=" M  5501.06,   480.24  C  5502.46    478.87   5502.48    476.62   5501.11    475.23  " /><path style="stroke-width: 0.85 ;&st7;   " d=" M  5501.11,   475.23  C  5499.74    473.83   5497.50    473.81   5496.10    475.18  " /><path style="stroke-width: 0.85 ;&st7;   " d=" M  5496.10,   475.18  C  5496.08    475.19   5496.07    475.21   5496.05    475.23  " /><path style="stroke-width: 0.85 ;&st7;   " d=" M  5498.58,   486.20  C  5500.54    486.20   5502.12    484.62   5502.12    482.66  " /><path style="stroke-width: 0.85 ;&st7;   " d=" M  5502.12,   482.66  C  5502.12    480.71   5500.54    479.12   5498.58    479.12  " /><path style="stroke-width: 0.85 ;&st7;   " d=" M  5498.58,   479.12  C  5497.59    479.12   5496.75    479.48   5496.05    480.18  " /><path style="stroke-width: 1.42 ;&st7;  " d=" M  5507.08,   494.70  L  5507.08,   460.71  L  5490.08,   460.71  L  5490.08,   494.70  L  5507.08,   494.70  " /><text style="&st18;" transform="matrix(&st16;  5492.4  502.9 )">1</text><text style="&st18;" transform="matrix(&st16;  5492.4  457.02 )">2</text><g ewd:figtype="title"><text style="&st18;" transform="matrix(&st17;  5514.69  497.6 )">B19</text><text style="&st18;" transform="matrix(&st17;  5521.8  497.61 )" ewd:textID="39">Fuel Injector Assembly No. 1</text></g></g><g ewd:figtype="conn" ewd:figID="38" ewd:code="B4"><path style="stroke-width: 0.85 ;&st7;  " d=" M  5252.12,   481.95  L  5252.12,   498.95  " /><path style="stroke-width: 0.85 ;&st7;  " d=" M  5235.13,   481.95  L  5235.13,   498.95  " /><path style="stroke-width: 0.85 ;&st7;  " d=" M  5243.62,   481.95  L  5243.62,   460.71  " /><path style="stroke-width: 0.85 ;&st7;  " d=" M  5240.79,   497.54  L  5243.62,   498.95  " /><path style="stroke-width: 0.85 ;&st7;  " d=" M  5243.62,   481.95  L  5246.46,   483.37  " /><path style="stroke-width: 0.85 ;&st7;  " d=" M  5246.46,   483.37  L  5240.79,   486.20  " /><path style="stroke-width: 0.85 ;&st7;  " d=" M  5240.79,   486.20  L  5246.46,   489.04  " /><path style="stroke-width: 0.85 ;&st7;  " d=" M  5246.46,   489.04  L  5240.79,   491.87  " /><path style="stroke-width: 0.85 ;&st7;  " d=" M  5240.79,   491.87  L  5246.46,   494.70  " /><path style="stroke-width: 0.85 ;&st7;  " d=" M  5246.46,   494.70  L  5240.79,   497.54  " /><path style="stroke-width: 0.85 ;&st7;  " d=" M  5243.62,   520.20  L  5243.62,   498.95  " /><path style="stroke-width: 0.85 ;&st7;   " d=" M  5235.13,   498.95  C  5235.13    503.65   5238.93    507.45   5243.62    507.45  " /><path style="stroke-width: 0.85 ;&st7;   " d=" M  5243.62,   507.45  C  5248.32    507.45   5252.12    503.65   5252.12    498.95  " /><path style="stroke-width: 0.85 ;&st7;   " d=" M  5252.12,   481.95  C  5252.12    477.26   5248.32    473.46   5243.62    473.46  " /><path style="stroke-width: 0.85 ;&st7;   " d=" M  5243.62,   473.46  C  5238.93    473.46   5235.13    477.26   5235.13    481.95  " /><path style="stroke-width: 1.42 ;&st7;  " d=" M  5222.38,   520.20  L  5222.38,   460.71  L  5264.87,   460.71  L  5264.87,   520.20  L  5222.38,   520.20  " /><text style="&st18;" transform="matrix(&st16;  5246.21  516.51 )">THW</text><text style="&st18;" transform="matrix(&st16;  5246.21  468.9 )">E2</text><text style="&st18;" transform="matrix(&st16;  5237.44  457.02 )">1</text><text style="&st18;" transform="matrix(&st16;  5237.44  528.39 )">2</text><g ewd:figtype="title"><text style="&st18;" transform="matrix(&st17;  5272.48  523.1 )">B4</text><text style="&st18;" transform="matrix(&st17;  5279.59  523.1 )" ewd:textID="32">E.F.I. Engine Coolant <tspan x="0 " dy="6.0">Temperature Sensor</tspan></text></g></g><g ewd:figtype="conn" ewd:figID="40" ewd:code="A62,B77"><g ewd:lineID="100"><text style="&st18;" transform="matrix(&st16;  5231.83  382.22 )">96</text><text style="&st18;" transform="matrix(&st16;  5241.44  382.22 )">B</text><path style="stroke-width: 1.42 ;&st7;   " d=" M  5248.16,   380.26  C  5248.16    377.75   5246.13    375.72   5243.62    375.72  " /><path style="stroke-width: 1.42 ;&st7;   " d=" M  5243.62,   375.72  C  5241.12    375.72   5239.09    377.75   5239.09    380.26  " /><path style="stroke-width: 1.42 ;&st7;   " d=" M  5239.09,   380.26  C  5239.09    382.76   5241.12    384.79   5243.62    384.79  " /><path style="stroke-width: 1.42 ;&st7;   " d=" M  5243.62,   384.79  C  5246.13    384.79   5248.16    382.76   5248.16    380.26  " /><text style="&st18;" transform="matrix(&st16;  5234.61  372.03 )">ETHW</text></g><g ewd:lineID="102"><text style="&st18;" transform="matrix(&st16;  5291.32  382.22 )">95</text><path style="stroke-width: 1.42 ;&st7;   " d=" M  5307.65,   380.26  C  5307.65    377.75   5305.62    375.72   5303.11    375.72  " /><path style="stroke-width: 1.42 ;&st7;   " d=" M  5303.11,   375.72  C  5300.61    375.72   5298.58    377.75   5298.58    380.26  " /><path style="stroke-width: 1.42 ;&st7;   " d=" M  5298.58,   380.26  C  5298.58    382.76   5300.61    384.79   5303.11    384.79  " /><path style="stroke-width: 1.42 ;&st7;   " d=" M  5303.11,   384.79  C  5305.62    384.79   5307.65    382.76   5307.65    380.26  " /><text style="&st18;" transform="matrix(&st16;  5300.93  382.22 )">B</text><text style="&st18;" transform="matrix(&st16;  5295.96  372.03 )">THW</text></g><g ewd:lineID="104"><text style="&st18;" transform="matrix(&st16;  5384.8  339.16 )">70</text><text style="&st18;" transform="matrix(&st16;  5394.41  339.16 )">B</text><path style="stroke-width: 1.42 ;&st7;   " d=" M  5401.13,   337.20  C  5401.13    334.69   5399.10    332.66   5396.60    332.66  " /><path style="stroke-width: 1.42 ;&st7;   " d=" M  5396.60,   332.66  C  5394.10    332.66   5392.07    334.69   5392.07    337.20  " /><path style="stroke-width: 1.42 ;&st7;   " d=" M  5392.07,   337.20  C  5392.07    339.70   5394.10    341.73   5396.60    341.73  " /><path style="stroke-width: 1.42 ;&st7;   " d=" M  5396.60,   341.73  C  5399.10    341.73   5401.13    339.70   5401.13    337.20  " /><text style="&st18;" transform="matrix(&st16;  5394.6  349.36 )">P</text></g><g ewd:lineID="105"><text style="&st18;" transform="matrix(&st16;  5418.8  339.16 )">66</text><text style="&st18;" transform="matrix(&st16;  5428.4  339.16 )">B</text><path style="stroke-width: 1.42 ;&st7;   " d=" M  5435.13,   337.20  C  5435.13    334.69   5433.10    332.66   5430.59    332.66  " /><path style="stroke-width: 1.42 ;&st7;   " d=" M  5430.59,   332.66  C  5428.09    332.66   5426.06    334.69   5426.06    337.20  " /><path style="stroke-width: 1.42 ;&st7;   " d=" M  5426.06,   337.20  C  5426.06    339.70   5428.09    341.73   5430.59    341.73  " /><path style="stroke-width: 1.42 ;&st7;   " d=" M  5430.59,   341.73  C  5433.10    341.73   5435.13    339.70   5435.13    337.20  " /><text style="&st18;" transform="matrix(&st16;  5428.48  349.36 )">R</text></g><g ewd:lineID="107"><text style="&st18;" transform="matrix(&st16;  5452.79  339.16 )">71</text><path style="stroke-width: 1.42 ;&st7;   " d=" M  5469.12,   337.20  C  5469.12    334.69   5467.09    332.66   5464.59    332.66  " /><path style="stroke-width: 1.42 ;&st7;   " d=" M  5464.59,   332.66  C  5462.08    332.66   5460.05    334.69   5460.05    337.20  " /><path style="stroke-width: 1.42 ;&st7;   " d=" M  5460.05,   337.20  C  5460.05    339.70   5462.08    341.73   5464.59    341.73  " /><path style="stroke-width: 1.42 ;&st7;   " d=" M  5464.59,   341.73  C  5467.09    341.73   5469.12    339.70   5469.12    337.20  " /><text style="&st18;" transform="matrix(&st16;  5462.4  339.16 )">B</text><text style="&st18;" transform="matrix(&st16;  5462.28  349.36 )">N</text></g><g ewd:lineID="109"><text style="&st18;" transform="matrix(&st16;  5486.79  382.22 )">20</text><path style="stroke-width: 1.42 ;&st7;   " d=" M  5498.58,   375.72  C  5496.08    375.72   5494.05    377.75   5494.05    380.26  " /><path style="stroke-width: 1.42 ;&st7;   " d=" M  5494.05,   380.26  C  5494.05    382.76   5496.08    384.79   5498.58    384.79  " /><path style="stroke-width: 1.42 ;&st7;   " d=" M  5498.58,   384.79  C  5501.08    384.79   5503.11    382.76   5503.11    380.26  " /><text style="&st18;" transform="matrix(&st16;  5496.39  382.22 )">B</text><text style="&st18;" transform="matrix(&st16;  5493.68  372.03 )">#10</text></g><g ewd:lineID="110"><text style="&st18;" transform="matrix(&st16;  5486.79  339.16 )">67</text><text style="&st18;" transform="matrix(&st16;  5496.39  339.16 )">B</text><path style="stroke-width: 1.42 ;&st7;   " d=" M  5498.58,   332.66  C  5496.08    332.66   5494.05    334.69   5494.05    337.20  " /><path style="stroke-width: 1.42 ;&st7;   " d=" M  5494.05,   337.20  C  5494.05    339.70   5496.08    341.73   5498.58    341.73  " /><path style="stroke-width: 1.42 ;&st7;   " d=" M  5498.58,   341.73  C  5501.08    341.73   5503.11    339.70   5503.11    337.20  " /><text style="&st18;" transform="matrix(&st16;  5496.2  349.36 )">D</text></g><g ewd:lineID="80,94"><text style="&st18;" transform="matrix(&st16;  5010.86  339.16 )">26</text><text style="&st18;" transform="matrix(&st16;  5020.36  339.16 )">A</text><path style="stroke-width: 1.42 ;&st7;   " d=" M  5027.19,   337.20  C  5027.19    334.69   5025.16    332.66   5022.66    332.66  " /><path style="stroke-width: 1.42 ;&st7;   " d=" M  5022.66,   332.66  C  5020.16    332.66   5018.13    334.69   5018.13    337.20  " /><path style="stroke-width: 1.42 ;&st7;   " d=" M  5018.13,   337.20  C  5018.13    339.70   5020.16    341.73   5022.66    341.73  " /><path style="stroke-width: 1.42 ;&st7;   " d=" M  5022.66,   341.73  C  5025.16    341.73   5027.19    339.70   5027.19    337.20  " /><text style="&st18;" transform="matrix(&st16;  5014.31  349.36 )">CANL</text></g><g ewd:lineID="97"><text style="&st18;" transform="matrix(&st16;  5016.26  382.22 )">109</text><path style="stroke-width: 1.42 ;&st7;   " d=" M  5035.69,   380.26  C  5035.69    377.75   5033.66    375.72   5031.16    375.72  " /><path style="stroke-width: 1.42 ;&st7;   " d=" M  5031.16,   375.72  C  5028.66    375.72   5026.63    377.75   5026.63    380.26  " /><path style="stroke-width: 1.42 ;&st7;   " d=" M  5026.63,   380.26  C  5026.63    382.76   5028.66    384.79   5031.16    384.79  " /><path style="stroke-width: 1.42 ;&st7;   " d=" M  5031.16,   384.79  C  5033.66    384.79   5035.69    382.76   5035.69    380.26  " /><text style="&st18;" transform="matrix(&st16;  5028.97  382.22 )">B</text><text style="&st18;" transform="matrix(&st16;  5025.44  372.03 )">NE-</text></g><g ewd:figtype="title"><text style="&st18;" transform="matrix(&st16;  5223.22  338.03 )">ECM</text><text style="&st18;" transform="matrix(&st16;  5223.21  330.93 )">A62(A),B77(B)</text></g></g><g ewd:figtype="jb" ewd:figID="71" ewd:code="3"><path style="stroke-width: 0.85 ;&st7;  " d=" M  5269.12,    78.27  L  5269.12,    95.27  " /><path style="stroke-width: 1.42 ;&st7;  " d=" M  5271.24,   103.77  L  5266.99,   103.77  " /><path style="stroke-width: 1.42 ;&st7;  " d=" M  5271.24,    95.27  L  5266.99,    95.27  " /><path style="stroke-width: 0.85 ;&st7;  " d=" M  5269.12,    69.77  L  5269.12,    78.27  " /><path style="stroke-width: 1.42 ;&st7;   " d=" M  5275.49,    99.52  C  5275.49     97.17   5273.59     95.27   5271.24     95.27  " /><path style="stroke-width: 1.42 ;&st7;   " d=" M  5271.24,   103.77  C  5273.59    103.77   5275.49    101.87   5275.49     99.52  " /><path style="stroke-width: 1.42 ;&st7;   " d=" M  5262.75,    99.52  C  5262.75    101.87   5264.65    103.77   5266.99    103.77  " /><path style="stroke-width: 1.42 ;&st7;   " d=" M  5266.99,    95.27  C  5264.65     95.27   5262.75     97.17   5262.75     99.52  " /><path style="stroke-width: 0.85 ;&st7;   " d=" M  5270.54,    68.36  C  5270.54     67.57   5269.90     66.94   5269.12     66.94  " /><path style="stroke-width: 0.85 ;&st7;   " d=" M  5269.12,    66.94  C  5268.34     66.94   5267.70     67.57   5267.70     68.36  " /><path style="stroke-width: 0.85 ;&st7;   " d=" M  5267.70,    68.36  C  5267.70     69.14   5268.34     69.77   5269.12     69.77  " /><path style="stroke-width: 0.85 ;&st7;   " d=" M  5269.12,    69.77  C  5269.90     69.77   5270.54     69.14   5270.54     68.36  " /><path style="stroke-width: 0.85 ;&st7;   " d=" M  5270.54,    45.69  C  5270.54     44.91   5269.90     44.28   5269.12     44.28  " /><path style="stroke-width: 0.85 ;&st7;   " d=" M  5269.12,    44.28  C  5268.34     44.28   5267.70     44.91   5267.70     45.69  " /><path style="stroke-width: 0.85 ;&st7;   " d=" M  5267.70,    45.69  C  5267.70     46.48   5268.34     47.11   5269.12     47.11  " /><path style="stroke-width: 0.85 ;&st7;   " d=" M  5269.12,    47.11  C  5269.90     47.11   5270.54     46.48   5270.54     45.69  " /><path style="stroke-width: 1.42 ;&st7;   " d=" M  5269.12,    66.94  C  5271.86     65.33   5272.77     61.80   5271.16     59.06  " /><path style="stroke-width: 1.42 ;&st7;   " d=" M  5271.16,    59.06  C  5270.64     58.18   5270.00     57.55   5269.12     57.03  " /><path style="stroke-width: 1.42 ;&st7;   " d=" M  5269.12,    47.11  C  5266.38     48.72   5265.47     52.25   5267.08     54.99  " /><path style="stroke-width: 1.42 ;&st7;   " d=" M  5267.08,    54.99  C  5267.60     55.87   5268.24     56.51   5269.12     57.03  " /><path style="stroke-width: 1.42 ;&st7;  " d=" M  5256.37,    35.78  L  5256.37,    78.27  L  5281.87,    78.27  L  5281.87,    35.78  L  5256.37,    35.78  " /><path style="stroke-width: 0.28 ;&st9;  " d=" M  5269.12,    90.37  L  5266.28,    87.54  L  5266.28,    91.79  L  5269.12,    94.62  L  5271.95,    91.79  L  5271.95,    87.54  L  5269.12,    90.37  " /><text style="&st18;" transform="matrix(&st16;  5263.91  32.08 )">(IG)</text><text style="&st18;" transform="matrix(&st16;  5262.94  86.47 )">2</text><text style="&st18;" transform="matrix(&st16;  5255.51  101.49 )">34</text><text style="&st18;" transform="matrix(&st16;  5265.38  101.49 )">3B</text><text style="&st18;" transform="matrix(&st16;  5285.54  56.17 )">7.5A <tspan x="0 " dy="6.0">GAUGE</tspan></text></g><g ewd:figtype="w2w" ewd:figID="93" ewd:code="AN2"><path style="stroke-width: 1.42 ;&st7;  " d=" M  5018.41,   239.18  L  5022.66,   243.43  L  5026.91,   239.18  " /><path style="stroke-width: 1.42 ;&st7;  " d=" M  5026.91,   242.58  L  5022.66,   246.83  L  5018.41,   242.58  " /><text style="&st18;" transform="matrix(&st16;  5010.03  254.46 )">4</text></g><g ewd:figtype="w2w" ewd:figID="94" ewd:code="GN3"><path style="stroke-width: 1.42 ;&st7;  " d=" M  5026.91,   129.83  L  5022.66,   125.58  L  5018.41,   129.83  " /><path style="stroke-width: 1.42 ;&st7;  " d=" M  5026.91,   126.43  L  5022.66,   122.18  L  5018.41,   126.43  " /><text style="&st18;" transform="matrix(&st16;  5006.93  118.49 )">12</text></g><g ewd:figtype="w2w" ewd:figID="95" ewd:code="BA1"><path style="stroke-width: 1.42 ;&st7;  " d=" M  5273.37,   242.58  L  5269.12,   246.83  L  5264.87,   242.58  " /><path style="stroke-width: 1.42 ;&st7;  " d=" M  5264.87,   239.18  L  5269.12,   243.43  L  5273.37,   239.18  " /><text style="&st18;" transform="matrix(&st16;  5256.49  254.46 )">8</text></g><g ewd:figtype="gp" ewd:figID="110" ewd:code="BD"><path style="stroke-width: 0.85 ;&st7;  " d=" M  5114.73,   710.00  L  5117.56,   710.00  " /><path style="stroke-width: 0.85 ;&st7;  " d=" M  5113.31,   707.17  L  5118.98,   707.17  " /><path style="stroke-width: 0.85 ;&st7;  " d=" M  5111.89,   704.33  L  5120.39,   704.33  " /><path style="stroke-width: 0.85 ;&st7;  " d=" M  5107.64,   701.50  L  5124.64,   701.50  " /><path style="stroke-width: 0.85 ;&st7;  " d=" M  5116.14,   697.25  L  5116.14,   701.50  " /></g></svg>