﻿<?xml version="1.0" encoding="utf-8"?>
<!DOCTYPE svg PUBLIC "-//W3C//DTD SVG 1.0//EN" "http://www.w3.org/TR/2001/REC-SVG-20010904/DTD/svg10.dtd"[
	<!ENTITY ns_flows "http://ns.adobe.com/Flows/1.0/">
	<!ENTITY ns_svg "http://www.w3.org/2000/svg">
	<!ENTITY ns_xlink "http://www.w3.org/1999/xlink">
	<!ENTITY st0 "font-size:7px;font-family:'MS-PGothic';adobe-font-script:japanese;">
	<!ENTITY st1 "font-size:6px;font-family:'ArialMT';">
	<!-- White fill  -->
	<!ENTITY st2 "fill:#FFFFFF;stroke:#000000; stroke-width:1.41;stroke-linecap:round;stroke-linejoin:round;">
	<!-- Yellow fill  -->
	<!ENTITY st3 "fill:#FFFFCC;stroke:#FFFFCC; stroke-width:0.1;stroke-linecap:round;stroke-linejoin:round;">
	<!-- Gray fill  -->
	<!ENTITY st4 "fill:#CCCCCC;stroke:#CCCCCC; stroke-width:0.1;stroke-linecap:round;stroke-linejoin:round;">
	<!-- Light-blue fill -->
	<!ENTITY st5 "fill:#CCECF4;stroke:#000000; stroke-width:1.133;stroke-linecap:round;stroke-linejoin:round;">
	<!ENTITY st6 "fill:none;stroke-linecap:butt; stroke-linejoin:round;">
	<!ENTITY st7 "fill:none;stroke:#000000;stroke-linecap:round;stroke-linejoin:round;">
	<!ENTITY st8 "enable-background:new    ;">
	<!-- Black fill -->
	<!ENTITY st9 "fill:#000000;stroke:#000000; stroke-linecap:round;stroke-linejoin:round;">
	<!-- SRS note   -->
	<!ENTITY st10 "font-size:9px;font-family:'ArialMT';">
	<!ENTITY st11 "font-size:9px;font-family:'Svg Symbol';">
	<!ENTITY st12 "font-size:6px;font-family:'Svg Symbol';">
	<!ENTITY st13 "fill:none;stroke:#ff0000;stroke-linecap:round;stroke-linejoin:round;">
	<!-- Yellow fill  -->
	<!ENTITY st14 "fill:#FFFF00;stroke:#FFFF00; stroke-width:0.1;stroke-linecap:round;stroke-linejoin:round;">
	<!ENTITY st15 "font-size:6px;font-family:'MS-PGothic';adobe-font-script:japanese;">
	<!ENTITY st16 "1.00 0.00 0.00 1.00">
	<!ENTITY st17 "0.00 -1.00 1.00 0.00">
	<!ENTITY st18 "font-size:6px;font-family:'Arial';">
	<!ENTITY st19 "font-size:9px;font-family:'Arial';">
	<!ENTITY st20 "font-size:6px;font-family:'MS-PGothic','MS PGothic';adobe-font-script:japanese;">
	<!ENTITY st21 "font-size:7px;font-family:'MS-PGothic','MS PGothic';adobe-font-script:japanese;">
	<!ATTLIST svg
		xmlns:ewd CDATA #FIXED "http://shcl.co.jp/ewd"
		xmlns:a CDATA #FIXED "http://ns.adobe.com/AdobeSVGViewerExtensions/3.0/"
		ewd:ver CDATA #IMPLIED
	>
	<!ATTLIST a
		ewd:lineID CDATA #IMPLIED
		ewd:groupID CDATA #IMPLIED
		ewd:figtype CDATA #IMPLIED
		ewd:code CDATA #IMPLIED
		ewd:figID CDATA #IMPLIED
		ewd:pinNo CDATA #IMPLIED
		ewd:comment CDATA #IMPLIED >
	<!ATTLIST g
		ewd:lineID CDATA #IMPLIED
		ewd:groupID CDATA #IMPLIED
		ewd:figtype CDATA #IMPLIED
		ewd:code CDATA #IMPLIED
		ewd:figID CDATA #IMPLIED
		ewd:pinNo CDATA #IMPLIED
		ewd:comment CDATA #IMPLIED >
	<!ATTLIST text
		ewd:textID CDATA #IMPLIED >
	<!ATTLIST title
		ewd:textID CDATA #IMPLIED >
]>
<!-- Generator: Shintec Hozumi YS   -->
<svg onload="call_execInitLoadProc_svg('system')" style="overflow:visible;  enable-background:new 0 0 2043.031 710.000" viewBox="0 0 2043.031 710.000" height="710.000" width="2043.031" xml:space="preserve" ewd:ver="2.1.2.5" xmlns="&ns_svg;" xmlns:a="http://ns.adobe.com/AdobeSVGViewerExtensions/3.0/" xmlns:ewd="http://shcl.co.jp/ewd" xmlns:xlink="&ns_xlink;">
<text style="&st18;" transform="matrix(&st17;  1135.11  250.71 )">W</text><text style="&st18;" transform="matrix(&st17;  1146.45  252.96 )">(*2)</text><text style="&st18;" transform="matrix(&st17;  1186.11  249.93 )">B</text><text style="&st18;" transform="matrix(&st17;  1197.44  252.96 )">(*2)</text><text style="&st18;" transform="matrix(&st17;  1350.41  312.45 )">(*3)</text><text style="&st18;" transform="matrix(&st17;  1307.92  312.45 )">(*3)</text><text style="&st18;" transform="matrix(&st17;  1350.41  261.46 )">(*3)</text><text style="&st18;" transform="matrix(&st17;  1307.92  261.46 )">(*3)</text><text style="&st18;" transform="matrix(&st17;  1296.59  258.43 )">Y</text><text style="&st18;" transform="matrix(&st17;  1339.08  259.21 )">W</text><path style="stroke-width: 1.42 ;&st7;  " d=" M  1308.78,   282.24  L  1300.28,   282.24  " /><path style="stroke-width: 1.42 ;&st7;  " d=" M  1351.27,   282.24  L  1342.78,   282.24  " /><path style="stroke-width: 1.42 ;&st7;  " d=" M  1291.78,   401.22  L  1300.28,   401.22  " /><path style="stroke-width: 1.42 ;&st7;  " d=" M  1334.28,   401.22  L  1342.78,   401.22  " /><text style="&st18;" transform="matrix(&st17;  1296.59  309.42 )">Y</text><text style="&st18;" transform="matrix(&st17;  1339.08  310.2 )">W</text><text style="&st18;" transform="matrix(&st17;  1296.59  377.3 )">L</text><text style="&st18;" transform="matrix(&st17;  1339.08  378.19 )">W</text><text style="&st18;" transform="matrix(&st17;  1296.59  436.79 )">L</text><text style="&st18;" transform="matrix(&st17;  1339.08  437.68 )">W</text><text style="&st18;" transform="matrix(&st17;  1296.59  522.0 )">V</text><text style="&st18;" transform="matrix(&st17;  1339.08  522.66 )">W</text><text style="&st18;" transform="matrix(&st17;  1296.59  607.14 )">G</text><text style="&st18;" transform="matrix(&st17;  1339.08  607.65 )">W</text><text style="&st18;" transform="matrix(&st16;  1009.14  117.07 )">B</text><text style="&st18;" transform="matrix(&st16;  1006.12  128.4 )">(*1)</text><text style="&st18;" transform="matrix(&st16;  1060.13  117.07 )">B</text><text style="&st18;" transform="matrix(&st16;  1057.11  128.4 )">(*1)</text><text style="&st18;" transform="matrix(&st16;  1008.37  660.98 )">W</text><text style="&st18;" transform="matrix(&st16;  1006.12  672.31 )">(*2)</text><text style="&st18;" transform="matrix(&st16;  1009.14  686.47 )">B</text><text style="&st18;" transform="matrix(&st16;  1006.12  697.8 )">(*2)</text><text style="&st18;" transform="matrix(&st16;  1060.13  686.47 )">B</text><text style="&st18;" transform="matrix(&st16;  1057.11  697.8 )">(*2)</text><text style="&st18;" transform="matrix(&st16;  1059.36  660.98 )">W</text><text style="&st18;" transform="matrix(&st16;  1057.11  672.31 )">(*2)</text><text style="&st18;" transform="matrix(&st17;  1307.92  380.44 )">(*3)</text><text style="&st18;" transform="matrix(&st17;  1350.41  380.44 )">(*3)</text><text style="&st18;" transform="matrix(&st17;  1350.41  439.93 )">(*3)</text><text style="&st18;" transform="matrix(&st17;  1307.92  439.93 )">(*3)</text><text style="&st18;" transform="matrix(&st17;  1307.92  524.91 )">(*3)</text><text style="&st18;" transform="matrix(&st17;  1350.41  524.91 )">(*3)</text><text style="&st18;" transform="matrix(&st17;  1307.92  609.9 )">(*3)</text><text style="&st18;" transform="matrix(&st17;  1350.41  609.9 )">(*3)</text><text style="&st18;" transform="matrix(&st16;  1060.25  15.09 )">L</text><text style="&st18;" transform="matrix(&st16;  1057.11  26.42 )">(*1)</text><text style="&st18;" transform="matrix(&st16;  1009.26  15.09 )">L</text><text style="&st18;" transform="matrix(&st16;  1006.12  26.42 )">(*1)</text><path style="stroke-width: 1.42 ;&st7;  " d=" M  1453.26,   409.72  L  1444.76,   409.72  " /><path style="stroke-width: 1.42 ;&st7;  " d=" M  1495.75,   409.72  L  1487.25,   409.72  " /><text style="&st18;" transform="matrix(&st17;  1483.56  480.17 )">W</text><text style="&st18;" transform="matrix(&st17;  1441.06  479.32 )">R</text><text style="&st18;" transform="matrix(&st17;  1441.06  573.15 )">G</text><text style="&st18;" transform="matrix(&st17;  1483.56  573.65 )">W</text><text style="&st18;" transform="matrix(&st17;  1452.39  482.42 )">(*4)</text><text style="&st18;" transform="matrix(&st17;  1494.89  482.42 )">(*4)</text><text style="&st18;" transform="matrix(&st17;  1452.39  575.9 )">(*4)</text><text style="&st18;" transform="matrix(&st17;  1494.89  575.9 )">(*4)</text><text style="&st18;" transform="matrix(&st17;  1441.06  300.92 )">Y</text><text style="&st18;" transform="matrix(&st17;  1483.56  301.7 )">W</text><text style="&st18;" transform="matrix(&st17;  1452.39  303.95 )">(*4)</text><text style="&st18;" transform="matrix(&st17;  1494.89  303.95 )">(*4)</text><text style="&st18;" transform="matrix(&st17;  1441.06  385.83 )">R</text><text style="&st18;" transform="matrix(&st17;  1452.39  388.93 )">(*4)</text><text style="&st18;" transform="matrix(&st17;  1483.56  386.69 )">W</text><text style="&st18;" transform="matrix(&st17;  1494.89  388.93 )">(*4)</text><g ewd:figtype="conn" ewd:figID="2" ewd:code="G128,G129"><path style="stroke-width: 1.42 ;&st7;  " d=" M  1291.78,   554.19  L  1291.78,   571.19  L  1351.27,   571.19  L  1351.27,   554.19  L  1291.78,   554.19  " /><path style="stroke-width: 0.85 ;&st7;  " d=" M  1300.28,   554.19  L  1300.28,   571.19  " /><path style="stroke-width: 0.85 ;&st7;  " d=" M  1342.78,   554.19  L  1342.78,   571.19  " /><text style="&st18;" transform="matrix(&st16;  1291.59  577.69 )">1</text><path style="stroke-width: 1.42 ;&st7;   " d=" M  1304.82,   575.72  C  1304.82    573.22   1302.79    571.19   1300.28    571.19  " /><path style="stroke-width: 1.42 ;&st7;   " d=" M  1300.28,   571.19  C  1297.78    571.19   1295.75    573.22   1295.75    575.72  " /><path style="stroke-width: 1.42 ;&st7;   " d=" M  1295.75,   575.72  C  1295.75    578.23   1297.78    580.26   1300.28    580.26  " /><path style="stroke-width: 1.42 ;&st7;   " d=" M  1300.28,   580.26  C  1302.79    580.26   1304.82    578.23   1304.82    575.72  " /><text style="&st18;" transform="matrix(&st16;  1298.09  577.69 )">B</text><text style="&st18;" transform="matrix(&st16;  1291.59  551.63 )">1</text><text style="&st18;" transform="matrix(&st16;  1297.86  551.63 )">C</text><path style="stroke-width: 1.42 ;&st7;   " d=" M  1304.82,   549.66  C  1304.82    547.16   1302.79    545.13   1300.28    545.13  " /><path style="stroke-width: 1.42 ;&st7;   " d=" M  1300.28,   545.13  C  1297.78    545.13   1295.75    547.16   1295.75    549.66  " /><path style="stroke-width: 1.42 ;&st7;   " d=" M  1295.75,   549.66  C  1295.75    552.16   1297.78    554.19   1300.28    554.19  " /><path style="stroke-width: 1.42 ;&st7;   " d=" M  1300.28,   554.19  C  1302.79    554.19   1304.82    552.16   1304.82    549.66  " /><text style="&st18;" transform="matrix(&st16;  1334.08  577.69 )">2</text><text style="&st18;" transform="matrix(&st16;  1340.59  577.69 )">B</text><path style="stroke-width: 1.42 ;&st7;   " d=" M  1347.31,   575.72  C  1347.31    573.22   1345.28    571.19   1342.78    571.19  " /><path style="stroke-width: 1.42 ;&st7;   " d=" M  1342.78,   571.19  C  1340.27    571.19   1338.24    573.22   1338.24    575.72  " /><path style="stroke-width: 1.42 ;&st7;   " d=" M  1338.24,   575.72  C  1338.24    578.23   1340.27    580.26   1342.78    580.26  " /><path style="stroke-width: 1.42 ;&st7;   " d=" M  1342.78,   580.26  C  1345.28    580.26   1347.31    578.23   1347.31    575.72  " /><text style="&st18;" transform="matrix(&st16;  1334.08  551.63 )">2</text><path style="stroke-width: 1.42 ;&st7;   " d=" M  1347.31,   549.66  C  1347.31    547.16   1345.28    545.13   1342.78    545.13  " /><path style="stroke-width: 1.42 ;&st7;   " d=" M  1342.78,   545.13  C  1340.27    545.13   1338.24    547.16   1338.24    549.66  " /><path style="stroke-width: 1.42 ;&st7;   " d=" M  1338.24,   549.66  C  1338.24    552.16   1340.27    554.19   1342.78    554.19  " /><path style="stroke-width: 1.42 ;&st7;   " d=" M  1342.78,   554.19  C  1345.28    554.19   1347.31    552.16   1347.31    549.66  " /><text style="&st18;" transform="matrix(&st16;  1340.35  551.63 )">C</text><g ewd:figtype="title"><text style="&st18;" transform="matrix(&st17;  1365.99  574.1 )" ewd:textID="12">No. 2 CAN <tspan x="0 " dy="6.0">Junction Connector</tspan></text><text style="&st18;" transform="matrix(&st17;  1358.89  574.09 )">G128(B),G129(C)</text></g></g><g ewd:figtype="conn" ewd:figID="4" ewd:code="A62,B77"><path style="stroke-width: 1.42 ;&st7;  " d=" M  1121.81,   146.26  L  1121.81,   188.75  L  1359.77,   188.75  L  1359.77,   146.26  L  1121.81,   146.26  " /><g ewd:lineID="14"><text style="&st18;" transform="matrix(&st16;  1178.01  195.26 )">12</text><path style="stroke-width: 1.42 ;&st7;   " d=" M  1194.33,   193.29  C  1194.33    190.78   1192.30    188.75   1189.80    188.75  " /><path style="stroke-width: 1.42 ;&st7;   " d=" M  1189.80,   188.75  C  1187.30    188.75   1185.27    190.78   1185.27    193.29  " /><path style="stroke-width: 1.42 ;&st7;   " d=" M  1185.27,   193.29  C  1185.27    195.79   1187.30    197.82   1189.80    197.82  " /><path style="stroke-width: 1.42 ;&st7;   " d=" M  1189.80,   197.82  C  1192.30    197.82   1194.33    195.79   1194.33    193.29  " /><text style="&st18;" transform="matrix(&st16;  1187.5  195.26 )">A</text><text style="&st18;" transform="matrix(&st16;  1181.53  185.06 )">CANP</text></g><g ewd:lineID="16"><text style="&st18;" transform="matrix(&st16;  1127.01  195.26 )">25</text><text style="&st18;" transform="matrix(&st16;  1136.51  195.26 )">A</text><path style="stroke-width: 1.42 ;&st7;   " d=" M  1143.34,   193.29  C  1143.34    190.78   1141.31    188.75   1138.81    188.75  " /><path style="stroke-width: 1.42 ;&st7;   " d=" M  1138.81,   188.75  C  1136.31    188.75   1134.28    190.78   1134.28    193.29  " /><path style="stroke-width: 1.42 ;&st7;   " d=" M  1134.28,   193.29  C  1134.28    195.79   1136.31    197.82   1138.81    197.82  " /><path style="stroke-width: 1.42 ;&st7;   " d=" M  1138.81,   197.82  C  1141.31    197.82   1143.34    195.79   1143.34    193.29  " /><text style="&st18;" transform="matrix(&st16;  1130.22  185.06 )">CANN</text></g><g ewd:lineID="23,24"><text style="&st18;" transform="matrix(&st16;  1288.49  195.26 )">13</text><text style="&st18;" transform="matrix(&st16;  1297.98  195.26 )">A</text><path style="stroke-width: 1.42 ;&st7;   " d=" M  1304.82,   193.29  C  1304.82    190.78   1302.79    188.75   1300.28    188.75  " /><path style="stroke-width: 1.42 ;&st7;   " d=" M  1300.28,   188.75  C  1297.78    188.75   1295.75    190.78   1295.75    193.29  " /><path style="stroke-width: 1.42 ;&st7;   " d=" M  1295.75,   193.29  C  1295.75    195.79   1297.78    197.82   1300.28    197.82  " /><path style="stroke-width: 1.42 ;&st7;   " d=" M  1300.28,   197.82  C  1302.79    197.82   1304.82    195.79   1304.82    193.29  " /><text style="&st18;" transform="matrix(&st16;  1291.5  185.06 )">CANH</text></g><g ewd:lineID="30,31"><text style="&st18;" transform="matrix(&st16;  1330.98  195.26 )">26</text><path style="stroke-width: 1.42 ;&st7;   " d=" M  1347.31,   193.29  C  1347.31    190.78   1345.28    188.75   1342.78    188.75  " /><path style="stroke-width: 1.42 ;&st7;   " d=" M  1342.78,   188.75  C  1340.27    188.75   1338.24    190.78   1338.24    193.29  " /><path style="stroke-width: 1.42 ;&st7;   " d=" M  1338.24,   193.29  C  1338.24    195.79   1340.27    197.82   1342.78    197.82  " /><path style="stroke-width: 1.42 ;&st7;   " d=" M  1342.78,   197.82  C  1345.28    197.82   1347.31    195.79   1347.31    193.29  " /><text style="&st18;" transform="matrix(&st16;  1340.47  195.26 )">A</text><text style="&st18;" transform="matrix(&st16;  1334.42  185.06 )">CANL</text></g><g ewd:lineID="9"><text style="&st18;" transform="matrix(&st16;  1127.01  143.7 )">73</text><path style="stroke-width: 1.42 ;&st7;   " d=" M  1143.34,   141.73  C  1143.34    139.23   1141.31    137.20   1138.81    137.20  " /><path style="stroke-width: 1.42 ;&st7;   " d=" M  1138.81,   137.20  C  1136.31    137.20   1134.28    139.23   1134.28    141.73  " /><path style="stroke-width: 1.42 ;&st7;   " d=" M  1134.28,   141.73  C  1134.28    144.23   1136.31    146.26   1138.81    146.26  " /><path style="stroke-width: 1.42 ;&st7;   " d=" M  1138.81,   146.26  C  1141.31    146.26   1143.34    144.23   1143.34    141.73  " /><text style="&st18;" transform="matrix(&st16;  1136.62  143.7 )">B</text><text style="&st18;" transform="matrix(&st16;  1132.74  153.9 )">ALT</text></g><g ewd:figtype="title"><text style="&st18;" transform="matrix(&st16;  1228.89  142.56 )">ECM</text><text style="&st18;" transform="matrix(&st16;  1228.88  135.46 )">A62(A),B77(B)</text></g></g><g ewd:figtype="conn" ewd:figID="5" ewd:code="N27,N28"><path style="stroke-width: 1.42 ;&st7;  " d=" M  1291.78,   333.23  L  1291.78,   350.23  L  1351.27,   350.23  L  1351.27,   333.23  L  1291.78,   333.23  " /><path style="stroke-width: 0.85 ;&st7;  " d=" M  1300.28,   333.23  L  1300.28,   350.23  " /><path style="stroke-width: 0.85 ;&st7;  " d=" M  1342.78,   333.23  L  1342.78,   350.23  " /><text style="&st18;" transform="matrix(&st16;  1291.59  356.73 )">1</text><path style="stroke-width: 1.42 ;&st7;   " d=" M  1304.82,   354.76  C  1304.82    352.26   1302.79    350.23   1300.28    350.23  " /><path style="stroke-width: 1.42 ;&st7;   " d=" M  1300.28,   350.23  C  1297.78    350.23   1295.75    352.26   1295.75    354.76  " /><path style="stroke-width: 1.42 ;&st7;   " d=" M  1295.75,   354.76  C  1295.75    357.26   1297.78    359.29   1300.28    359.29  " /><path style="stroke-width: 1.42 ;&st7;   " d=" M  1300.28,   359.29  C  1302.79    359.29   1304.82    357.26   1304.82    354.76  " /><text style="&st18;" transform="matrix(&st16;  1298.09  356.73 )">B</text><text style="&st18;" transform="matrix(&st16;  1291.59  330.67 )">1</text><text style="&st18;" transform="matrix(&st16;  1297.98  330.67 )">A</text><path style="stroke-width: 1.42 ;&st7;   " d=" M  1304.82,   328.70  C  1304.82    326.19   1302.79    324.16   1300.28    324.16  " /><path style="stroke-width: 1.42 ;&st7;   " d=" M  1300.28,   324.16  C  1297.78    324.16   1295.75    326.19   1295.75    328.70  " /><path style="stroke-width: 1.42 ;&st7;   " d=" M  1295.75,   328.70  C  1295.75    331.20   1297.78    333.23   1300.28    333.23  " /><path style="stroke-width: 1.42 ;&st7;   " d=" M  1300.28,   333.23  C  1302.79    333.23   1304.82    331.20   1304.82    328.70  " /><text style="&st18;" transform="matrix(&st16;  1334.08  356.73 )">2</text><text style="&st18;" transform="matrix(&st16;  1340.59  356.73 )">B</text><path style="stroke-width: 1.42 ;&st7;   " d=" M  1347.31,   354.76  C  1347.31    352.26   1345.28    350.23   1342.78    350.23  " /><path style="stroke-width: 1.42 ;&st7;   " d=" M  1342.78,   350.23  C  1340.27    350.23   1338.24    352.26   1338.24    354.76  " /><path style="stroke-width: 1.42 ;&st7;   " d=" M  1338.24,   354.76  C  1338.24    357.26   1340.27    359.29   1342.78    359.29  " /><path style="stroke-width: 1.42 ;&st7;   " d=" M  1342.78,   359.29  C  1345.28    359.29   1347.31    357.26   1347.31    354.76  " /><text style="&st18;" transform="matrix(&st16;  1334.08  330.67 )">2</text><path style="stroke-width: 1.42 ;&st7;   " d=" M  1347.31,   328.70  C  1347.31    326.19   1345.28    324.16   1342.78    324.16  " /><path style="stroke-width: 1.42 ;&st7;   " d=" M  1342.78,   324.16  C  1340.27    324.16   1338.24    326.19   1338.24    328.70  " /><path style="stroke-width: 1.42 ;&st7;   " d=" M  1338.24,   328.70  C  1338.24    331.20   1340.27    333.23   1342.78    333.23  " /><path style="stroke-width: 1.42 ;&st7;   " d=" M  1342.78,   333.23  C  1345.28    333.23   1347.31    331.20   1347.31    328.70  " /><text style="&st18;" transform="matrix(&st16;  1340.47  330.67 )">A</text><g ewd:figtype="title"><text style="&st18;" transform="matrix(&st17;  1358.89  353.13 )">N27(A),N28(B)</text><text style="&st18;" transform="matrix(&st17;  1365.99  353.13 )" ewd:textID="13">No. 3 CAN <tspan x="0 " dy="6.0">Junction Connector</tspan></text></g></g><g ewd:figtype="conn" ewd:figID="6" ewd:code="G118,G119"><path style="stroke-width: 1.42 ;&st7;  " d=" M  1291.78,   469.21  L  1291.78,   486.20  L  1351.27,   486.20  L  1351.27,   469.21  L  1291.78,   469.21  " /><path style="stroke-width: 0.85 ;&st7;  " d=" M  1300.28,   469.21  L  1300.28,   486.20  " /><path style="stroke-width: 0.85 ;&st7;  " d=" M  1342.78,   469.21  L  1342.78,   486.20  " /><text style="&st18;" transform="matrix(&st16;  1291.59  492.71 )">1</text><path style="stroke-width: 1.42 ;&st7;   " d=" M  1304.82,   490.74  C  1304.82    488.23   1302.79    486.20   1300.28    486.20  " /><path style="stroke-width: 1.42 ;&st7;   " d=" M  1300.28,   486.20  C  1297.78    486.20   1295.75    488.23   1295.75    490.74  " /><path style="stroke-width: 1.42 ;&st7;   " d=" M  1295.75,   490.74  C  1295.75    493.24   1297.78    495.27   1300.28    495.27  " /><path style="stroke-width: 1.42 ;&st7;   " d=" M  1300.28,   495.27  C  1302.79    495.27   1304.82    493.24   1304.82    490.74  " /><text style="&st18;" transform="matrix(&st16;  1298.09  492.71 )">B</text><text style="&st18;" transform="matrix(&st16;  1291.59  466.64 )">1</text><text style="&st18;" transform="matrix(&st16;  1297.98  466.64 )">A</text><path style="stroke-width: 1.42 ;&st7;   " d=" M  1304.82,   464.67  C  1304.82    462.17   1302.79    460.14   1300.28    460.14  " /><path style="stroke-width: 1.42 ;&st7;   " d=" M  1300.28,   460.14  C  1297.78    460.14   1295.75    462.17   1295.75    464.67  " /><path style="stroke-width: 1.42 ;&st7;   " d=" M  1295.75,   464.67  C  1295.75    467.18   1297.78    469.21   1300.28    469.21  " /><path style="stroke-width: 1.42 ;&st7;   " d=" M  1300.28,   469.21  C  1302.79    469.21   1304.82    467.18   1304.82    464.67  " /><text style="&st18;" transform="matrix(&st16;  1334.08  492.71 )">2</text><text style="&st18;" transform="matrix(&st16;  1340.59  492.71 )">B</text><path style="stroke-width: 1.42 ;&st7;   " d=" M  1347.31,   490.74  C  1347.31    488.23   1345.28    486.20   1342.78    486.20  " /><path style="stroke-width: 1.42 ;&st7;   " d=" M  1342.78,   486.20  C  1340.27    486.20   1338.24    488.23   1338.24    490.74  " /><path style="stroke-width: 1.42 ;&st7;   " d=" M  1338.24,   490.74  C  1338.24    493.24   1340.27    495.27   1342.78    495.27  " /><path style="stroke-width: 1.42 ;&st7;   " d=" M  1342.78,   495.27  C  1345.28    495.27   1347.31    493.24   1347.31    490.74  " /><text style="&st18;" transform="matrix(&st16;  1334.08  466.64 )">2</text><path style="stroke-width: 1.42 ;&st7;   " d=" M  1347.31,   464.67  C  1347.31    462.17   1345.28    460.14   1342.78    460.14  " /><path style="stroke-width: 1.42 ;&st7;   " d=" M  1342.78,   460.14  C  1340.27    460.14   1338.24    462.17   1338.24    464.67  " /><path style="stroke-width: 1.42 ;&st7;   " d=" M  1338.24,   464.67  C  1338.24    467.18   1340.27    469.21   1342.78    469.21  " /><path style="stroke-width: 1.42 ;&st7;   " d=" M  1342.78,   469.21  C  1345.28    469.21   1347.31    467.18   1347.31    464.67  " /><text style="&st18;" transform="matrix(&st16;  1340.47  466.64 )">A</text><g ewd:figtype="title"><text style="&st18;" transform="matrix(&st17;  1365.99  489.11 )" ewd:textID="10">No. 1 CAN <tspan x="0 " dy="6.0">Junction Connector</tspan></text><text style="&st18;" transform="matrix(&st17;  1358.89  489.1 )">G118(A),G119(B)</text></g></g><g ewd:figtype="conn" ewd:figID="13" ewd:code="A72"><path style="stroke-width: 0.85 ;&st7;  " d=" M  1444.76,   333.23  L  1444.76,   358.73  " /><path style="stroke-width: 0.85 ;&st7;  " d=" M  1487.25,   333.23  L  1487.25,   358.73  " /><path style="stroke-width: 1.42 ;&st7;  " d=" M  1436.26,   333.23  L  1436.26,   358.73  L  1495.75,   358.73  L  1495.75,   333.23  L  1436.26,   333.23  " /><text style="&st18;" transform="matrix(&st16;  1438.57  329.54 )">2</text><text style="&st18;" transform="matrix(&st16;  1477.97  329.54 )">13</text><text style="&st18;" transform="matrix(&st16;  1438.57  366.92 )">3</text><text style="&st18;" transform="matrix(&st16;  1477.97  366.92 )">14</text><g ewd:figtype="title"><text style="&st18;" transform="matrix(&st17;  1510.47  361.63 )" ewd:textID="16">No. 21 <tspan x="0 " dy="6.0">Junction </tspan><tspan x="0 " dy="6.0">Connector</tspan></text><text style="&st18;" transform="matrix(&st17;  1503.36  361.62 )">A72</text></g></g><g ewd:figtype="conn" ewd:figID="14" ewd:code="G134"><path style="stroke-width: 1.42 ;&st7;  " d=" M  1436.26,   537.20  L  1495.75,   537.20  L  1495.75,   511.70  L  1436.26,   511.70  L  1436.26,   537.20  " /><path style="stroke-width: 0.85 ;&st7;  " d=" M  1444.76,   537.20  L  1444.76,   511.70  " /><path style="stroke-width: 0.85 ;&st7;  " d=" M  1487.25,   511.70  L  1487.25,   537.20  " /><text style="&st18;" transform="matrix(&st16;  1435.47  508.01 )">11</text><text style="&st18;" transform="matrix(&st16;  1477.97  508.01 )">22</text><text style="&st18;" transform="matrix(&st16;  1477.97  545.39 )">20</text><text style="&st18;" transform="matrix(&st16;  1438.57  545.39 )">9</text><g ewd:figtype="title"><text style="&st18;" transform="matrix(&st17;  1503.36  540.09 )">G134</text><text style="&st18;" transform="matrix(&st17;  1510.47  540.1 )" ewd:textID="14">No. 4 CAN <tspan x="0 " dy="6.0">Junction </tspan><tspan x="0 " dy="6.0">Connector</tspan></text></g></g><g ewd:figtype="w2w" ewd:figID="29" ewd:code="GN3"><path style="stroke-width: 1.42 ;&st7;  " d=" M  1296.03,   392.15  L  1300.28,   396.40  L  1304.53,   392.15  " /><path style="stroke-width: 1.42 ;&st7;  " d=" M  1304.53,   395.55  L  1300.28,   399.80  L  1296.03,   395.55  " /><text style="&st18;" transform="matrix(&st16;  1284.55  407.44 )">11</text></g><g ewd:figtype="w2w" ewd:figID="30" ewd:code="AN2"><path style="stroke-width: 1.42 ;&st7;  " d=" M  1304.53,   291.30  L  1300.28,   287.05  L  1296.03,   291.30  " /><path style="stroke-width: 1.42 ;&st7;  " d=" M  1304.53,   287.90  L  1300.28,   283.65  L  1296.03,   287.90  " /><text style="&st18;" transform="matrix(&st16;  1287.65  279.96 )">3</text></g><g ewd:figtype="w2w" ewd:figID="31" ewd:code="GN3"><path style="stroke-width: 1.42 ;&st7;  " d=" M  1338.53,   392.15  L  1342.78,   396.40  L  1347.02,   392.15  " /><path style="stroke-width: 1.42 ;&st7;  " d=" M  1347.02,   395.55  L  1342.78,   399.80  L  1338.53,   395.55  " /><text style="&st18;" transform="matrix(&st16;  1327.04  407.44 )">12</text></g><g ewd:figtype="w2w" ewd:figID="32" ewd:code="AN2"><path style="stroke-width: 1.42 ;&st7;  " d=" M  1347.02,   291.30  L  1342.78,   287.05  L  1338.53,   291.30  " /><path style="stroke-width: 1.42 ;&st7;  " d=" M  1347.02,   287.90  L  1342.78,   283.65  L  1338.53,   287.90  " /><text style="&st18;" transform="matrix(&st16;  1330.14  279.96 )">4</text></g><g ewd:figtype="w2w" ewd:figID="33" ewd:code="AG1"><path style="stroke-width: 1.42 ;&st7;  " d=" M  1449.01,   418.78  L  1444.76,   414.53  L  1440.51,   418.78  " /><path style="stroke-width: 1.42 ;&st7;  " d=" M  1449.01,   415.38  L  1444.76,   411.13  L  1440.51,   415.38  " /><text style="&st18;" transform="matrix(&st16;  1432.13  407.44 )">5</text></g><g ewd:figtype="w2w" ewd:figID="34" ewd:code="AG1"><path style="stroke-width: 1.42 ;&st7;  " d=" M  1491.50,   418.78  L  1487.25,   414.53  L  1483.00,   418.78  " /><path style="stroke-width: 1.42 ;&st7;  " d=" M  1491.50,   415.38  L  1487.25,   411.13  L  1483.00,   415.38  " /><text style="&st18;" transform="matrix(&st16;  1474.62  407.44 )">4</text></g><g ewd:code="2" ewd:figID="50" ewd:comment="" ewd:figtype="comment"><text style="&st18;" transform="matrix(&st16;  1288.38  63.24 )">* 2 :2WD</text></g><g ewd:code="4" ewd:figID="52" ewd:comment="" ewd:figtype="comment"><text style="&st18;" transform="matrix(&st16;  1288.38  80.24 )" ewd:textID="2">* 4 :USA 4WD Manual Air Conditioning 4 Speaker <tspan x="14.16" dy="8.5">w/o Parking Assist (Intuitive Parking Assist)</tspan></text></g><g ewd:code="3" ewd:figID="49" ewd:comment="4" ewd:figtype="comment"><text style="&st18;" transform="matrix(&st16;  1288.38  71.74 )" ewd:textID="1">* 3 :Except *4</text></g><g ewd:code="1" ewd:figID="51" ewd:comment="" ewd:figtype="comment"><text style="&st18;" transform="matrix(&st16;  1288.38  54.75 )">* 1 :4WD</text></g></svg>