﻿<?xml version="1.0" encoding="UTF-8"?>
<!DOCTYPE svg PUBLIC "-//W3C//DTD SVG 1.0//EN" "http://www.w3.org/TR/2001/REC-SVG-20010904/DTD/svg10.dtd"[
	<!ENTITY ns_flows "http://ns.adobe.com/Flows/1.0/">
	<!ENTITY ns_svg "http://www.w3.org/2000/svg">
	<!ENTITY ns_xlink "http://www.w3.org/1999/xlink">
	<!ENTITY st0 "font-size:7px;font-family:'MS-PGothic';adobe-font-script:japanese;">
	<!ENTITY st1 "font-size:6px;font-family:'ArialMT';">
	<!-- White fill  -->
	<!ENTITY st2 "fill:#FFFFFF;stroke:#000000; stroke-width:1.41;stroke-linecap:round;stroke-linejoin:round;">
	<!-- Yellow fill  -->
	<!ENTITY st3 "fill:#FFFFCC;stroke:#FFFFCC; stroke-width:0.1;stroke-linecap:round;stroke-linejoin:round;">
	<!-- Gray fill  -->
	<!ENTITY st4 "fill:#CCCCCC;stroke:#CCCCCC; stroke-width:0.1;stroke-linecap:round;stroke-linejoin:round;">
	<!-- Light-blue fill -->
	<!ENTITY st5 "fill:#CCECF4;stroke:#000000; stroke-width:1.133;stroke-linecap:round;stroke-linejoin:round;">
	<!ENTITY st6 "fill:none;stroke-linecap:butt; stroke-linejoin:round;">
	<!ENTITY st7 "fill:none;stroke:#000000;stroke-linecap:round;stroke-linejoin:round;">
	<!ENTITY st8 "enable-background:new    ;">
	<!-- Black fill -->
	<!ENTITY st9 "fill:#000000;stroke:#000000; stroke-linecap:round;stroke-linejoin:round;">
	<!-- SRS note   -->
	<!ENTITY st10 "font-size:9px;font-family:'ArialMT';">
	<!ENTITY st11 "font-size:9px;font-family:'Svg Symbol';">
	<!ENTITY st12 "font-size:6px;font-family:'Svg Symbol';">
	<!ENTITY st13 "fill:none;stroke:#ff0000;stroke-linecap:round;stroke-linejoin:round;">
	<!-- Yellow fill  -->
	<!ENTITY st14 "fill:#FFFF00;stroke:#FFFF00; stroke-width:0.1;stroke-linecap:round;stroke-linejoin:round;">
	<!ENTITY st15 "font-size:6px;font-family:'MS-PGothic';adobe-font-script:japanese;">
	<!ENTITY st16 "1.00 0.00 0.00 1.00">
	<!ENTITY st17 "0.00 -1.00 1.00 0.00">
	<!ENTITY st18 "font-size:6px;font-family:'Arial';">
	<!ENTITY st19 "font-size:9px;font-family:'Arial';">
	<!ENTITY st20 "font-size:6px;font-family:'MS-PGothic','MS PGothic';adobe-font-script:japanese;">
	<!ENTITY st21 "font-size:7px;font-family:'MS-PGothic','MS PGothic';adobe-font-script:japanese;">
	<!ATTLIST svg
		xmlns:ewd CDATA #FIXED "http://shcl.co.jp/ewd"
		xmlns:a CDATA #FIXED "http://ns.adobe.com/AdobeSVGViewerExtensions/3.0/"
		ewd:ver CDATA #IMPLIED
	>
	<!ATTLIST a
		ewd:lineID CDATA #IMPLIED
		ewd:groupID CDATA #IMPLIED
		ewd:figtype CDATA #IMPLIED
		ewd:code CDATA #IMPLIED
		ewd:figID CDATA #IMPLIED
		ewd:pinNo CDATA #IMPLIED
		ewd:comment CDATA #IMPLIED >
	<!ATTLIST g
		ewd:lineID CDATA #IMPLIED
		ewd:groupID CDATA #IMPLIED
		ewd:figtype CDATA #IMPLIED
		ewd:code CDATA #IMPLIED
		ewd:figID CDATA #IMPLIED
		ewd:pinNo CDATA #IMPLIED
		ewd:comment CDATA #IMPLIED >
	<!ATTLIST text
		ewd:textID CDATA #IMPLIED >
	<!ATTLIST title
		ewd:textID CDATA #IMPLIED >
]>
<!-- Generator: Shintec Hozumi YS   -->
<svg onload="call_execInitLoadProc_svg('system')" style="overflow:visible;  enable-background:new 0 0 1025.348 710.000" viewBox="0 0 1025.348 710.000" height="710.000" width="1025.348" xml:space="preserve" ewd:ver="2.1.2.5" xmlns="&ns_svg;" xmlns:a="http://ns.adobe.com/AdobeSVGViewerExtensions/3.0/" xmlns:ewd="http://shcl.co.jp/ewd" xmlns:xlink="&ns_xlink;">
	<script type="text/javascript" xlink:href="../../../../../system/js/ewd/fig/svgfig.js"/>
<g id="ewd_top">
	<a ewd:figtype="conn" style="cursor:pointer;" ewd:code="G95" ewd:figID="1">
		<path style="fill:#CCECF4;stroke:#000000; stroke-width:1.33; stroke-linecap:round;stroke-linejoin:round; " d=" M   416.43,   205.75  L   433.43,   205.75  L   433.43,   222.75  L   416.43,   222.75  L   416.43,   205.75 "/>
		<title ewd:textID="9">No. 3 Junction Connector</title>
	</a>
	<a ewd:figtype="conn" style="cursor:pointer;" ewd:code="h1" ewd:figID="2">
		<path style="fill:#CCECF4;stroke:#000000; stroke-width:1.33; stroke-linecap:round;stroke-linejoin:round; " d=" M   118.98,   282.24  L   152.97,   282.24  L   152.97,   316.23  L   118.98,   316.23  L   118.98,   282.24 "/>
		<title ewd:textID="14">Power Steering ECU Assembly</title>
	</a>
	<a ewd:figtype="conn" style="cursor:pointer;" ewd:code="G88" ewd:figID="3">
		<path style="fill:#CCECF4;stroke:#000000; stroke-width:1.33; stroke-linecap:round;stroke-linejoin:round; " d=" M   747.88,   418.22  L   781.87,   418.22  L   781.87,   452.21  L   747.88,   452.21  L   747.88,   418.22 "/>
		<title ewd:textID="15">Transponder Key ECU Assembly</title>
	</a>
	<a ewd:figtype="conn" style="cursor:pointer;" ewd:code="G93" ewd:figID="4">
		<path style="fill:#CCECF4;stroke:#000000; stroke-width:1.33; stroke-linecap:round;stroke-linejoin:round; " d=" M   467.42,   205.75  L   484.42,   205.75  L   484.42,   222.75  L   467.42,   222.75  L   467.42,   205.75 "/>
		<title ewd:textID="8">No. 1 Junction Connector</title>
	</a>
	<a ewd:figtype="conn" style="cursor:pointer;" ewd:code="G98" ewd:figID="5">
		<path style="fill:#CCECF4;stroke:#000000; stroke-width:1.33; stroke-linecap:round;stroke-linejoin:round; " d=" M   416.43,   333.23  L   433.43,   333.23  L   433.43,   350.23  L   416.43,   350.23  L   416.43,   333.23 "/>
		<title ewd:textID="11">No. 5 Junction Connector</title>
	</a>
	<a ewd:figtype="conn" style="cursor:pointer;" ewd:code="A62" ewd:figID="6">
		<path style="fill:#CCECF4;stroke:#000000; stroke-width:1.33; stroke-linecap:round;stroke-linejoin:round; " d=" M   169.97,   282.24  L   246.46,   282.24  L   246.46,   316.23  L   169.97,   316.23  L   169.97,   282.24 "/>
		<title>ECM</title>
	</a>
	<a ewd:figtype="conn" style="cursor:pointer;" ewd:code="d16" ewd:figID="7">
		<path style="fill:#CCECF4;stroke:#000000; stroke-width:1.33; stroke-linecap:round;stroke-linejoin:round; " d=" M   934.84,    44.28  L   934.84,    78.27  L   968.84,    78.27  L   968.84,    44.28  L   934.84,    44.28 "/>
		<title ewd:textID="13">Occupant Detection ECU</title>
	</a>
	<a ewd:figtype="conn" style="cursor:pointer;" ewd:code="G96" ewd:figID="8">
		<path style="fill:#CCECF4;stroke:#000000; stroke-width:1.33; stroke-linecap:round;stroke-linejoin:round; " d=" M   722.38,   205.75  L   722.38,   222.75  L   883.85,   222.75  L   883.85,   205.75  L   722.38,   205.75 "/>
		<title ewd:textID="10">No. 4 Junction Connector</title>
	</a>
	<a ewd:figtype="conn" style="cursor:pointer;" ewd:code="G14" ewd:figID="9">
		<path style="fill:#CCECF4;stroke:#000000; stroke-width:1.33; stroke-linecap:round;stroke-linejoin:round; " d=" M    84.99,    78.27  L   832.86,    78.27  L   832.86,    35.78  L    84.99,    35.78  L    84.99,    78.27 "/>
		<title ewd:textID="4">Data Link Connector 3</title>
	</a>
	<a ewd:figtype="conn" style="cursor:pointer;" ewd:code="M26" ewd:figID="10">
		<path style="fill:#CCECF4;stroke:#000000; stroke-width:1.33; stroke-linecap:round;stroke-linejoin:round; " d=" M   671.39,   511.70  L   688.38,   511.70  L   688.38,   528.70  L   671.39,   528.70  L   671.39,   511.70 "/>
		<title ewd:textID="12">No. 15 Junction Connector</title>
	</a>
	<a ewd:figtype="conn" style="cursor:pointer;" ewd:code="d17" ewd:figID="11">
		<path style="fill:#CCECF4;stroke:#000000; stroke-width:1.33; stroke-linecap:round;stroke-linejoin:round; " d=" M   552.41,   282.24  L   552.41,   367.22  L   637.39,   367.22  L   637.39,   282.24  L   552.41,   282.24 "/>
		<title ewd:textID="5">Front Seat Inner Belt Assembly RH</title>
	</a>
	<a ewd:figtype="jb" style="cursor:pointer;" ewd:code="3" ewd:figID="13">
		<path style="&st4; " d=" M   212.46,   146.26  L   212.46,   197.25  L   237.96,   197.25  L   237.96,   146.26  L   212.46,   146.26  "/>
	</a>
	<a ewd:figtype="jb" style="cursor:pointer;" ewd:code="3" ewd:figID="14">
		<path style="&st4; " d=" M   356.94,   205.75  L   356.94,   256.74  L   382.44,   256.74  L   382.44,   205.75  L   356.94,   205.75  "/>
	</a>
	<a ewd:figtype="jb" style="cursor:pointer;" ewd:code="3" ewd:figID="15">
		<path style="&st4; " d=" M     8.50,    35.78  L     8.50,   103.77  L    67.99,   103.77  L    67.99,    35.78  L     8.50,    35.78  "/>
	</a>
	<a ewd:figtype="fuse" style="cursor:pointer;" ewd:code="FUSE49" ewd:figID="28">
		<path style="&st7; stroke-width:0;" d=" M    12.75,    35.78  L    12.75,    78.27  L    38.24,    78.27  L    38.24,    35.78  L    12.75,    35.78 "/>
	</a>
	<a style="cursor:pointer;" ewd:lineID="1">
		<path style="stroke:#00A0C6;stroke-width: 5.10 ;&st6;" d=" M    25.50,   103.77  L    25.50,   163.26  L   101.98,   163.26  L   101.98,    78.27  "/>
	</a>
	<a style="cursor:pointer;" ewd:lineID="2">
		<path style="stroke:#FF7F00;stroke-width: 5.10 ;&st6;" d=" M   135.98,   171.76  L   135.98,   273.17  "/>
	</a>
	<a style="cursor:pointer;" ewd:lineID="3">
		<path style="stroke:#FF0000;stroke-width: 5.10 ;&st6;" d=" M   135.98,    78.27  L   135.98,   157.03  "/>
	</a>
	<a style="cursor:pointer;" ewd:lineID="4">
		<path style="stroke:#999999;stroke-width: 5.10 ;&st6;" d=" M   186.97,   273.17  L   186.97,   171.76  "/>
	</a>
	<a style="cursor:pointer;" ewd:lineID="5">
		<path style="stroke:#999999;stroke-width: 5.10 ;&st6;" d=" M   186.97,   157.03  L   186.97,    78.27  "/>
	</a>
	<a style="cursor:pointer;" ewd:lineID="6">
		<path style="stroke:#008837;stroke-width: 5.10 ;&st6;" d=" M   229.46,   273.17  L   229.46,   197.25  "/>
	</a>
	<a style="cursor:pointer;" ewd:lineID="7">
		<path style="stroke:#008837;stroke-width: 5.10 ;&st6;" d=" M   229.46,   146.26  L   229.46,    78.27  "/>
	</a>
	<a style="cursor:pointer;" ewd:lineID="8"> d=" M   280.45,    78.27  L   280.45,   180.26 
	
		<path style="stroke:#000000;stroke-width: 5.10 ;&st6;" d=" M   280.45,    78.27  L   280.45,   180.26  "/>
		<path style="stroke:#FFFFFF;stroke-width: 4.53 ;&st6;" d=" M   280.45,    78.27  L   280.45,   180.26  "/>
	</a>
	<a style="cursor:pointer;" ewd:lineID="9">
		<path style="stroke:#000000;stroke-width: 5.10 ;&st6;" d=" M   314.45,    78.27  L   314.45,   180.26  "/>
	</a>
	<a style="cursor:pointer;" ewd:lineID="10">
		<path style="stroke:#992903;stroke-width: 5.10 ;&st6;" d=" M   373.94,   460.71  L   373.94,   681.67  "/>
	</a>
	<a style="cursor:pointer;" ewd:lineID="11">
		<path style="stroke:#992903;stroke-width: 5.10 ;&st6;" d=" M   373.94,   358.73  L   373.94,   443.71  "/>
	</a>
	<a style="cursor:pointer;" ewd:lineID="12">
		<path style="stroke:#992903;stroke-width: 5.10 ;&st6;" d=" M   373.94,   256.74  L   373.94,   343.99  "/>
	</a>
	<a style="cursor:pointer;" ewd:lineID="13">
		<path style="stroke:#992903;stroke-width: 5.10 ;&st6;" d=" M   373.94,    78.27  L   373.94,   205.75  "/>
	</a>
	<a style="cursor:pointer;" ewd:lineID="14">
		<path style="stroke:#000000;stroke-width: 5.10 ;&st6;" d=" M   424.93,   350.23  L   424.93,   681.67  "/>
		<path style="stroke:#FFFFFF;stroke-width: 4.53 ;&st6;" d=" M   424.93,   350.23  L   424.93,   681.67  "/>
		<path style="stroke:#000000;stroke-width: 1.13 ;&st6;" d=" M   424.93,   350.23  L   424.93,   681.67  "/>
	</a>
	<a ewd:comment="1" style="cursor:pointer;" ewd:lineID="15">
		<path style="stroke:#000000;stroke-width: 5.10 ;&st6;" d=" M   424.93,   222.75  L   424.93,   333.23  "/>
		<path style="stroke:#FFFFFF;stroke-width: 4.53 ;&st6;" d=" M   424.93,   222.75  L   424.93,   333.23  "/>
		<path style="stroke:#000000;stroke-width: 1.13 ;&st6;" d=" M   424.93,   222.75  L   424.93,   333.23  "/>
	</a>
	<a ewd:comment="1" style="cursor:pointer;" ewd:lineID="16">
		<path style="stroke:#992903;stroke-width: 5.10 ;&st6;" d=" M   424.93,    78.27  L   424.93,   205.75  "/>
	</a>
	<a ewd:comment="2" style="cursor:pointer;" ewd:lineID="17">
		<path style="stroke:#992903;stroke-width: 5.10 ;&st6;" d=" M   424.93,    78.27  L   424.93,    86.77  L   433.43,    95.27  L   475.92,    95.27  L   475.92,   205.75  "/>
	</a>
	<a ewd:comment="2" style="cursor:pointer;" ewd:lineID="18">
		<path style="stroke:#000000;stroke-width: 5.10 ;&st6;" d=" M   475.92,   222.75  L   475.92,   316.23  L   433.43,   316.23  L   424.93,   324.73  L   424.93,   333.23  "/>
		<path style="stroke:#FFFFFF;stroke-width: 4.53 ;&st6;" d=" M   475.92,   222.75  L   475.92,   316.23  L   433.43,   316.23  L   424.93,   324.73  L   424.93,   333.23  "/>
		<path style="stroke:#000000;stroke-width: 1.13 ;&st6;" d=" M   475.92,   222.75  L   475.92,   316.23  L   433.43,   316.23  L   424.93,   324.73  L   424.93,   333.23  "/>
	</a>
	<a style="cursor:pointer;" ewd:lineID="19">
		<path style="stroke:#FF0000;stroke-width: 5.10 ;&st6;" d=" M   569.40,   282.24  L   569.40,   220.48  "/>
	</a>
	<a style="cursor:pointer;" ewd:lineID="20">
		<path style="stroke:#56077D;stroke-width: 5.10 ;&st6;" d=" M   569.40,   160.99  L   569.40,   205.75  "/>
	</a>
	<a style="cursor:pointer;" ewd:lineID="21">
		<path style="stroke:#56077D;stroke-width: 5.10 ;&st6;" d=" M   569.40,   146.26  L   569.40,    78.27  "/>
	</a>
	<a ewd:comment="1" style="cursor:pointer;" ewd:lineID="22">
		<path style="stroke:#000000;stroke-width: 5.10 ;&st6;" d=" M   679.89,   528.70  L   679.89,   681.67  "/>
		<path style="stroke:#FFFFFF;stroke-width: 4.53 ;&st6;" d=" M   679.89,   528.70  L   679.89,   681.67  "/>
		<path style="stroke:#000000;stroke-width: 1.13 ;&st6;" d=" M   679.89,   528.70  L   679.89,   681.67  "/>
	</a>
	<a ewd:comment="2" style="cursor:pointer;" ewd:lineID="23">
		<path style="stroke:#000000;stroke-width: 5.10 ;&st6;" d=" M   679.89,   409.72  L   679.89,   418.22  L   671.39,   426.71  L   637.39,   426.71  L   637.39,   664.67  L   671.39,   664.67  L   679.89,   673.17  L   679.89,   681.67  "/>
		<path style="stroke:#FFFFFF;stroke-width: 4.53 ;&st6;" d=" M   679.89,   409.72  L   679.89,   418.22  L   671.39,   426.71  L   637.39,   426.71  L   637.39,   664.67  L   671.39,   664.67  L   679.89,   673.17  L   679.89,   681.67  "/>
		<path style="stroke:#000000;stroke-width: 1.13 ;&st6;" d=" M   679.89,   409.72  L   679.89,   418.22  L   671.39,   426.71  L   637.39,   426.71  L   637.39,   664.67  L   671.39,   664.67  L   679.89,   673.17  L   679.89,   681.67  "/>
	</a>
	<a ewd:comment="1" style="cursor:pointer;" ewd:lineID="24">
		<path style="stroke:#000000;stroke-width: 5.10 ;&st6;" d=" M   679.89,   409.72  L   679.89,   511.70  "/>
		<path style="stroke:#FFFFFF;stroke-width: 4.53 ;&st6;" d=" M   679.89,   409.72  L   679.89,   511.70  "/>
		<path style="stroke:#000000;stroke-width: 1.13 ;&st6;" d=" M   679.89,   409.72  L   679.89,   511.70  "/>
	</a>
	<a style="cursor:pointer;" ewd:lineID="25">
		<path style="stroke:#992903;stroke-width: 5.10 ;&st6;" d=" M   679.89,   394.99  L   679.89,   256.74  L   620.40,   256.74  L   620.40,   282.24  "/>
	</a>
	<a ewd:comment="1" style="cursor:pointer;" ewd:lineID="26">
		<path style="stroke:#FFE600;stroke-width: 5.10 ;&st6;" d=" M   730.88,   222.75  L   730.88,   401.22  L   756.37,   401.22  L   764.87,   409.72  L   764.87,   418.22  "/>
	</a>
	<a ewd:comment="1" style="cursor:pointer;" ewd:lineID="27">
		<path style="stroke:#000000;stroke-width: 5.10 ;&st6;" d=" M   764.87,   222.75  L   764.87,   248.24  L   841.36,   248.24  L   841.36,   350.23  L   951.84,   350.23  L   951.84,   222.75  "/>
	</a>
	<a ewd:comment="2" style="cursor:pointer;" ewd:lineID="28">
		<path style="stroke:#FFE600;stroke-width: 5.10 ;&st6;" d=" M   815.86,   222.75  L   815.86,   265.24  L   764.87,   265.24  L   764.87,   418.22  "/>
	</a>
	<a ewd:comment="2" style="cursor:pointer;" ewd:lineID="29">
		<path style="stroke:#008837;stroke-width: 5.10 ;&st6;" d=" M   815.86,   205.75  L   815.86,    78.27  "/>
	</a>
	<a ewd:comment="1" style="cursor:pointer;" ewd:lineID="30">
		<path style="stroke:#008837;stroke-width: 5.10 ;&st6;" d=" M   815.86,    78.27  L   815.86,    86.77  L   807.37,    95.27  L   764.87,    95.27  L   764.87,   205.75  "/>
	</a>
	<a ewd:comment="2" style="cursor:pointer;" ewd:lineID="31">
		<path style="stroke:#000000;stroke-width: 5.10 ;&st6;" d=" M   875.35,   222.75  L   875.35,   333.23  L   917.85,   333.23  L   917.85,   239.75  L   943.34,   239.75  L   951.84,   231.25  L   951.84,   222.75  "/>
	</a>
	<a style="cursor:pointer;" ewd:lineID="32">
		<path style="stroke:#000000;stroke-width: 5.10 ;&st6;" d=" M   951.84,   154.76  L   951.84,   208.02  "/>
	</a>
	<a style="cursor:pointer;" ewd:lineID="33">
		<path style="stroke:#999999;stroke-width: 5.10 ;&st6;" d=" M   951.84,   140.03  L   951.84,    87.34  "/>
	</a>
	<g ewd:figtype="conn" ewd:figID="1" ewd:code="G95">
		<path style="stroke-width: 1.42 ;&st7;  " d=" M   416.43,   205.75  L   433.43,   205.75  L   433.43,   222.75  L   416.43,   222.75  L   416.43,   205.75  "/>
		<path style="stroke-width: 0.85 ;&st7;  " d=" M   424.93,   205.75  L   424.93,   222.75  "/>
		<text style="&st18;" transform="matrix(&st16;  418.74  230.94 )">9</text>
		<text style="&st18;" transform="matrix(&st16;  415.64  202.06 )">11</text>
		<g ewd:figtype="title">
			<text style="&st18;" transform="matrix(&st17;  441.04  225.65 )">G95</text>
			<text style="&st18;" transform="matrix(&st17;  448.15  225.65 )" ewd:textID="9">No. 3 Junction Connector</text>
		</g>
	</g>
	<g ewd:figtype="conn" ewd:figID="2" ewd:code="h1">
		<g ewd:lineID="2">
			<text style="&st18;" transform="matrix(&st16;  127.28  279.67 )">5</text>
			<path style="stroke-width: 1.42 ;&st7;   " d=" M   140.51,   277.71  C   140.51    275.20    138.48    273.17    135.98    273.17  "/>
			<path style="stroke-width: 1.42 ;&st7;   " d=" M   135.98,   273.17  C   133.47    273.17    131.44    275.20    131.44    277.71  "/>
			<path style="stroke-width: 1.42 ;&st7;   " d=" M   131.44,   277.71  C   131.44    280.21    133.47    282.24    135.98    282.24  "/>
			<path style="stroke-width: 1.42 ;&st7;   " d=" M   135.98,   282.24  C   138.48    282.24    140.51    280.21    140.51    277.71  "/>
			<text style="&st18;" transform="matrix(&st16;  133.67  279.67 )">A</text>
			<text style="&st18;" transform="matrix(&st16;  132.24  289.87 )">TS</text>
		</g>
		<path style="stroke-width: 1.42 ;&st7;  " d=" M   118.98,   282.24  L   152.97,   282.24  L   152.97,   316.23  L   118.98,   316.23  L   118.98,   282.24  "/>
		<g ewd:figtype="title">
			<text style="&st18;" transform="matrix(&st17;  109.34  319.14 )" ewd:textID="14">Power Steering <tspan x="0 " dy="6.0">ECU Assembly</tspan></text>
			<text style="&st18;" transform="matrix(&st17;  102.23  319.13 )">h1(A)</text>
		</g>
	</g>
	<g ewd:figtype="conn" ewd:figID="3" ewd:code="G88">
		<g ewd:lineID="26,28">
			<text style="&st18;" transform="matrix(&st16;  758.69  414.53 )">9</text>
			<text style="&st18;" transform="matrix(&st16;  762.49  425.85 )">D</text>
		</g>
		<path style="stroke-width: 1.42 ;&st7;  " d=" M   747.87,   418.22  L   781.87,   418.22  L   781.87,   452.21  L   747.87,   452.21  L   747.87,   418.22  "/>
		<g ewd:figtype="title">
			<text style="&st18;" transform="matrix(&st16;  744.47  466.93 )" ewd:textID="15">Transponder Key <tspan x="0 " dy="6.0">ECU Assembly</tspan></text>
			<text style="&st18;" transform="matrix(&st16;  744.46  459.82 )">G88</text>
		</g>
	</g>
	<g ewd:figtype="conn" ewd:figID="4" ewd:code="G93">
		<path style="stroke-width: 1.42 ;&st7;  " d=" M   467.42,   205.75  L   484.42,   205.75  L   484.42,   222.75  L   467.42,   222.75  L   467.42,   205.75  "/>
		<path style="stroke-width: 0.85 ;&st7;  " d=" M   475.92,   205.75  L   475.92,   222.75  "/>
		<text style="&st18;" transform="matrix(&st16;  466.63  202.06 )">21</text>
		<text style="&st18;" transform="matrix(&st16;  466.63  230.94 )">19</text>
		<g ewd:figtype="title">
			<text style="&st18;" transform="matrix(&st17;  492.03  225.65 )">G93</text>
			<text style="&st18;" transform="matrix(&st17;  499.14  225.65 )" ewd:textID="8">No. 1 Junction Connector</text>
		</g>
	</g>
	<g ewd:figtype="conn" ewd:figID="5" ewd:code="G98">
		<path style="stroke-width: 1.42 ;&st7;  " d=" M   416.43,   333.23  L   433.43,   333.23  L   433.43,   350.23  L   416.43,   350.23  L   416.43,   333.23  "/>
		<path style="stroke-width: 0.85 ;&st7;  " d=" M   424.93,   333.23  L   424.93,   350.23  "/>
		<text style="&st18;" transform="matrix(&st16;  418.74  358.42 )">6</text>
		<text style="&st18;" transform="matrix(&st16;  418.74  329.54 )">7</text>
		<g ewd:figtype="title">
			<text style="&st18;" transform="matrix(&st17;  405.63  353.13 )">G98</text>
			<text style="&st18;" transform="matrix(&st17;  412.73  353.13 )" ewd:textID="11">No. 5 Junction Connector</text>
		</g>
	</g>
	<g ewd:figtype="conn" ewd:figID="6" ewd:code="A62">
		<g ewd:lineID="4">
			<text style="&st18;" transform="matrix(&st16;  175.17  279.67 )">31</text>
			<text style="&st18;" transform="matrix(&st16;  184.66  279.67 )">A</text>
			<path style="stroke-width: 1.42 ;&st7;   " d=" M   191.50,   277.71  C   191.50    275.20    189.47    273.17    186.97    273.17  "/>
			<path style="stroke-width: 1.42 ;&st7;   " d=" M   186.97,   273.17  C   184.47    273.17    182.44    275.20    182.44    277.71  "/>
			<path style="stroke-width: 1.42 ;&st7;   " d=" M   182.44,   277.71  C   182.44    280.21    184.47    282.24    186.97    282.24  "/>
			<path style="stroke-width: 1.42 ;&st7;   " d=" M   186.97,   282.24  C   189.47    282.24    191.50    280.21    191.50    277.71  "/>
			<text style="&st18;" transform="matrix(&st16;  178.31  289.87 )">TACH</text>
		</g>
		<g ewd:lineID="6">
			<text style="&st18;" transform="matrix(&st16;  217.67  279.67 )">23</text>
			<text style="&st18;" transform="matrix(&st16;  227.16  279.67 )">A</text>
			<path style="stroke-width: 1.42 ;&st7;   " d=" M   233.99,   277.71  C   233.99    275.20    231.96    273.17    229.46    273.17  "/>
			<path style="stroke-width: 1.42 ;&st7;   " d=" M   229.46,   273.17  C   226.96    273.17    224.93    275.20    224.93    277.71  "/>
			<path style="stroke-width: 1.42 ;&st7;   " d=" M   224.93,   277.71  C   224.93    280.21    226.96    282.24    229.46    282.24  "/>
			<path style="stroke-width: 1.42 ;&st7;   " d=" M   229.46,   282.24  C   231.96    282.24    233.99    280.21    233.99    277.71  "/>
			<text style="&st18;" transform="matrix(&st16;  225.1  289.87 )">TC</text>
		</g>
		<path style="stroke-width: 1.42 ;&st7;  " d=" M   169.97,   282.24  L   246.46,   282.24  L   246.46,   316.23  L   169.97,   316.23  L   169.97,   282.24  "/>
		<g ewd:figtype="title">
			<text style="&st18;" transform="matrix(&st16;  166.57  330.95 )">ECM</text>
			<text style="&st18;" transform="matrix(&st16;  166.56  323.84 )">A62(A)</text>
		</g>
	</g>
	<g ewd:figtype="conn" ewd:figID="7" ewd:code="d16">
		<g ewd:lineID="33">
			<text style="&st18;" transform="matrix(&st16;  939.94  84.77 )">2</text>
			<path style="stroke-width: 1.42 ;&st7;   " d=" M   956.37,    82.80  C   956.37     80.30    954.34     78.27    951.84     78.27  "/>
			<path style="stroke-width: 1.42 ;&st7;   " d=" M   951.84,    78.27  C   949.34     78.27    947.31     80.30    947.31     82.80  "/>
			<path style="stroke-width: 1.42 ;&st7;   " d=" M   947.31,    82.80  C   947.31     85.31    949.34     87.34    951.84     87.34  "/>
			<path style="stroke-width: 1.42 ;&st7;   " d=" M   951.84,    87.34  C   954.34     87.34    956.37     85.31    956.37     82.80  "/>
			<text style="&st18;" transform="matrix(&st16;  949.65  84.77 )">B</text>
		</g>
		<path style="stroke-width: 1.42 ;&st7;  " d=" M   934.84,    44.28  L   934.84,    78.27  L   968.84,    78.27  L   968.84,    44.28  L   934.84,    44.28  "/>
		<g ewd:figtype="title">
			<text style="&st18;" transform="matrix(&st16;  931.43  33.47 )">d16(B)</text>
			<text style="&st18;" transform="matrix(&st16;  931.44  40.58 )" ewd:textID="13">Occupant Detection ECU</text>
		</g>
	</g>
	<g ewd:figtype="conn" ewd:figID="8" ewd:code="G96">
		<path style="stroke-width: 1.42 ;&st7;  " d=" M   722.38,   205.75  L   722.38,   222.75  L   883.85,   222.75  L   883.85,   205.75  L   722.38,   205.75  "/>
		<path style="stroke-width: 0.85 ;&st7;  " d=" M   764.87,   214.25  L   730.88,   214.25  L   730.88,   222.75  "/>
		<path style="stroke-width: 0.85 ;&st7;  " d=" M   764.87,   205.75  L   764.87,   222.75  "/>
		<path style="stroke-width: 0.85 ;&st7;  " d=" M   763.41,   213.72  L   763.31,   214.25  L   763.41,   214.78  L   763.68,   215.25  L   764.09,   215.60  L   764.60,   215.79  L   765.14,   215.79  L   765.65,   215.60  L   766.06,   215.25  L   766.34,   214.78  L   766.43,   214.25  L   766.34,   213.72  L   766.06,   213.25  L   765.65,   212.90  L   765.14,   212.71  L   764.60,   212.71  L   764.09,   212.90  L   763.68,   213.25  L   764.07,   213.96  L   764.07,   214.54  L   764.45,   214.99  L   765.02,   215.09  L   765.52,   214.80  L   765.72,   214.25  L   765.52,   213.70  L   765.02,   213.41  L   764.45,   213.51  L   764.87,   214.25  "/>
		<path style="stroke-width: 0.85 ;&st7;  " d=" M   815.86,   205.75  L   815.86,   222.75  "/>
		<path style="stroke-width: 0.85 ;&st7;  " d=" M   815.86,   214.25  L   875.35,   214.25  L   875.35,   222.75  "/>
		<path style="stroke-width: 0.85 ;&st7;  " d=" M   814.67,   213.25  L   814.40,   213.72  L   814.31,   214.25  L   814.40,   214.78  L   814.67,   215.25  L   815.08,   215.60  L   815.59,   215.79  L   816.14,   215.79  L   816.64,   215.60  L   817.06,   215.25  L   817.33,   214.78  L   817.42,   214.25  L   817.33,   213.72  L   817.06,   213.25  L   816.64,   212.90  L   816.14,   212.71  L   815.59,   212.71  L   815.08,   212.90  L   814.67,   213.25  L   815.06,   213.96  L   815.06,   214.54  L   815.44,   214.99  L   816.01,   215.09  L   816.51,   214.80  L   816.71,   214.25  L   816.51,   213.70  L   816.01,   213.41  L   815.44,   213.51  L   815.86,   214.25  "/>
		<text style="&st18;" transform="matrix(&st16;  721.59  230.94 )">13</text>
		<text style="&st18;" transform="matrix(&st16;  755.59  230.94 )">14</text>
		<text style="&st18;" transform="matrix(&st16;  809.68  230.94 )">5</text>
		<text style="&st18;" transform="matrix(&st16;  809.68  202.06 )">6</text>
		<text style="&st18;" transform="matrix(&st16;  755.59  202.06 )">12</text>
		<text style="&st18;" transform="matrix(&st16;  869.17  230.94 )">4</text>
		<g ewd:figtype="title">
			<text style="&st18;" transform="matrix(&st17;  898.57  225.65 )" ewd:textID="10">No. 4 Junction Connector</text>
			<text style="&st18;" transform="matrix(&st17;  891.46  225.65 )">G96</text>
		</g>
	</g>
	<g ewd:figtype="conn" ewd:figID="9" ewd:code="G14">
		<g ewd:lineID="1">
			<text style="&st18;" transform="matrix(&st16;  92.7  86.47 )">16</text>
			<text style="&st18;" transform="matrix(&st16;  95.8  74.58 )">BAT</text>
		</g>
		<g ewd:lineID="13">
			<text style="&st18;" transform="matrix(&st16;  367.75  86.47 )">5</text>
			<text style="&st18;" transform="matrix(&st16;  369.93  74.58 )">SG</text>
		</g>
		<g ewd:lineID="16,17">
			<text style="&st18;" transform="matrix(&st16;  418.74  86.47 )">4</text>
			<text style="&st18;" transform="matrix(&st16;  420.3  74.58 )">CG</text>
		</g>
		<g ewd:lineID="21">
			<text style="&st18;" transform="matrix(&st16;  563.22  86.47 )">1</text>
			<text style="&st18;" transform="matrix(&st16;  563.49  74.58 )">OP4</text>
		</g>
		<g ewd:lineID="29,30">
			<text style="&st18;" transform="matrix(&st16;  809.68  86.47 )">7</text>
			<text style="&st18;" transform="matrix(&st16;  811.35  74.58 )">SIL</text>
		</g>
		<g ewd:lineID="3">
			<text style="&st18;" transform="matrix(&st16;  126.69  86.47 )">12</text>
			<text style="&st18;" transform="matrix(&st16;  132.24  74.58 )">TS</text>
		</g>
		<g ewd:lineID="5">
			<text style="&st18;" transform="matrix(&st16;  180.78  86.47 )">9</text>
			<text style="&st18;" transform="matrix(&st16;  180.55  74.58 )">TAC</text>
		</g>
		<g ewd:lineID="7">
			<text style="&st18;" transform="matrix(&st16;  220.18  86.47 )">13</text>
			<text style="&st18;" transform="matrix(&st16;  225.1  74.58 )">TC</text>
		</g>
		<g ewd:lineID="8">
			<text style="&st18;" transform="matrix(&st16;  271.17  86.47 )">14</text>
			<text style="&st18;" transform="matrix(&st16;  272.1  74.58 )">CANL</text>
		</g>
		<g ewd:lineID="9">
			<text style="&st18;" transform="matrix(&st16;  308.26  86.47 )">6</text>
			<text style="&st18;" transform="matrix(&st16;  305.67  74.58 )">CANH</text>
		</g>
		<path style="stroke-width: 1.42 ;&st7;  " d=" M    84.99,    78.27  L   832.86,    78.27  L   832.86,    35.78  L    84.99,    35.78  L    84.99,    78.27  "/>
		<g ewd:figtype="title">
			<text style="&st18;" transform="matrix(&st16;  81.57  24.98 )">G14</text>
			<text style="&st18;" transform="matrix(&st16;  81.58  32.08 )" ewd:textID="4">Data Link Connector 3</text>
		</g>
	</g>
	<g ewd:figtype="conn" ewd:figID="10" ewd:code="M26">
		<path style="stroke-width: 1.42 ;&st7;  " d=" M   671.39,   511.70  L   688.38,   511.70  L   688.38,   528.70  L   671.39,   528.70  L   671.39,   511.70  "/>
		<path style="stroke-width: 0.85 ;&st7;  " d=" M   679.89,   511.70  L   679.89,   528.70  "/>
		<text style="&st18;" transform="matrix(&st16;  670.6  536.89 )">10</text>
		<text style="&st18;" transform="matrix(&st16;  670.6  508.01 )">11</text>
		<g ewd:figtype="title">
			<text style="&st18;" transform="matrix(&st16;  690.65  520.75 )" ewd:textID="12">No.15 <tspan x="0 " dy="6.0">Junction Connector</tspan></text>
			<text style="&st18;" transform="matrix(&st16;  690.64  513.93 )">M26</text>
		</g>
	</g>
	<g ewd:figtype="conn" ewd:figID="11" ewd:code="d17">
		<path style="stroke-width: 1.42 ;&st7;  " d=" M   552.41,   282.24  L   552.41,   367.22  L   637.39,   367.22  L   637.39,   282.24  L   552.41,   282.24  "/>
		<path style="stroke-width: 1.42 ;&st7;  " d=" M   552.41,   307.73  L   637.39,   307.73  "/>
		<path style="stroke-width: 0.85 ;&st7;  " d=" M   611.90,   341.73  L   607.65,   341.73  "/>
		<path style="stroke-width: 1.42 ;&st7;  " d=" M   604.82,   341.73  L   582.15,   336.06  "/>
		<path style="stroke-width: 0.85 ;&st7;  " d=" M   582.15,   341.73  L   577.90,   341.73  "/>
		<path style="stroke-width: 0.85 ;&st7;   " d=" M   607.65,   341.73  C   607.65    340.95    607.01    340.31    606.23    340.31  "/>
		<path style="stroke-width: 0.85 ;&st7;   " d=" M   606.23,   340.31  C   605.45    340.31    604.82    340.95    604.82    341.73  "/>
		<path style="stroke-width: 0.85 ;&st7;   " d=" M   604.82,   341.73  C   604.82    342.51    605.45    343.14    606.23    343.14  "/>
		<path style="stroke-width: 0.85 ;&st7;   " d=" M   606.23,   343.14  C   607.01    343.14    607.65    342.51    607.65    341.73  "/>
		<path style="stroke-width: 0.85 ;&st7;   " d=" M   584.99,   341.73  C   584.99    340.95    584.35    340.31    583.57    340.31  "/>
		<path style="stroke-width: 0.85 ;&st7;   " d=" M   583.57,   340.31  C   582.79    340.31    582.15    340.95    582.15    341.73  "/>
		<path style="stroke-width: 0.85 ;&st7;   " d=" M   582.15,   341.73  C   582.15    342.51    582.79    343.14    583.57    343.14  "/>
		<path style="stroke-width: 0.85 ;&st7;   " d=" M   583.57,   343.14  C   584.35    343.14    584.99    342.51    584.99    341.73  "/>
		<path style="stroke-width: 1.42 ;&st7;  " d=" M   611.90,   333.23  L   577.90,   333.23  L   577.90,   350.23  L   611.90,   350.23  L   611.90,   333.23  "/>
		<text style="&st18;" transform="matrix(&st16;  578.95  357.86 )" ewd:textID="6">Limit Switch</text>
		<path style="stroke-width: 0.85 ;&st7;  " d=" M   611.90,   341.73  L   620.40,   341.73  L   620.40,   282.24  "/>
		<path style="stroke-width: 0.85 ;&st7;  " d=" M   577.90,   341.73  L   569.40,   341.73  L   569.40,   282.24  "/>
		<text style="&st18;" transform="matrix(&st16;  563.22  278.55 )">3</text>
		<text style="&st18;" transform="matrix(&st16;  614.21  278.55 )">4</text>
		<g ewd:figtype="title">
			<text style="&st18;" transform="matrix(&st16;  549.0  381.66 )" ewd:textID="5">Front Seat <tspan x="0 " dy="6.0">Inner Belt </tspan><tspan x="0 " dy="6.0">Assembly RH</tspan></text>
			<text style="&st18;" transform="matrix(&st16;  549.0  374.55 )">d17</text>
		</g>
	</g>
	<g ewd:figtype="jb" ewd:figID="13" ewd:code="3">
		<path style="stroke-width: 1.42 ;&st7;  " d=" M   231.59,   146.26  L   227.34,   146.26  "/>
		<path style="stroke-width: 1.42 ;&st7;  " d=" M   231.59,   154.76  L   227.34,   154.76  "/>
		<path style="stroke-width: 1.42 ;&st7;  " d=" M   231.59,   188.75  L   227.34,   188.75  "/>
		<path style="stroke-width: 1.42 ;&st7;  " d=" M   231.59,   197.25  L   227.34,   197.25  "/>
		<path style="stroke-width: 1.42 ;&st7;   " d=" M   227.34,   146.26  C   224.99    146.26    223.09    148.16    223.09    150.51  "/>
		<path style="stroke-width: 1.42 ;&st7;   " d=" M   223.09,   150.51  C   223.09    152.86    224.99    154.76    227.34    154.76  "/>
		<path style="stroke-width: 1.42 ;&st7;   " d=" M   231.59,   154.76  C   233.93    154.76    235.84    152.86    235.84    150.51  "/>
		<path style="stroke-width: 1.42 ;&st7;   " d=" M   235.84,   150.51  C   235.84    148.16    233.93    146.26    231.59    146.26  "/>
		<path style="stroke-width: 1.42 ;&st7;   " d=" M   227.34,   188.75  C   224.99    188.75    223.09    190.66    223.09    193.00  "/>
		<path style="stroke-width: 1.42 ;&st7;   " d=" M   223.09,   193.00  C   223.09    195.35    224.99    197.25    227.34    197.25  "/>
		<path style="stroke-width: 1.42 ;&st7;   " d=" M   231.59,   197.25  C   233.93    197.25    235.84    195.35    235.84    193.00  "/>
		<path style="stroke-width: 1.42 ;&st7;   " d=" M   235.84,   193.00  C   235.84    190.66    233.93    188.75    231.59    188.75  "/>
		<path style="stroke-width: 0.28 ;&st9;  " d=" M   229.46,   159.65  L   232.29,   162.49  L   232.29,   158.24  L   229.46,   155.41  L   226.63,   158.24  L   226.63,   162.49  L   229.46,   159.65  "/>
		<path style="stroke-width: 0.28 ;&st9;  " d=" M   229.46,   183.86  L   226.63,   181.03  L   226.63,   185.28  L   229.46,   188.11  L   232.29,   185.28  L   232.29,   181.03  L   229.46,   183.86  "/>
		<path style="stroke-width: 0.85 ;&st7;  " d=" M   229.46,   188.75  L   229.46,   154.76  "/>
		<text style="&st18;" transform="matrix(&st16;  225.49  152.48 )">3C</text>
		<text style="&st18;" transform="matrix(&st16;  215.85  152.48 )">16</text>
		<text style="&st18;" transform="matrix(&st16;  225.72  194.97 )">3B</text>
		<text style="&st18;" transform="matrix(&st16;  215.85  194.97 )">15</text>
	</g>
	<g ewd:figtype="jb" ewd:figID="14" ewd:code="3">
		<path style="stroke-width: 1.42 ;&st7;  " d=" M   376.06,   214.25  L   371.81,   214.25  "/>
		<path style="stroke-width: 1.42 ;&st7;  " d=" M   376.06,   205.75  L   371.81,   205.75  "/>
		<path style="stroke-width: 1.42 ;&st7;  " d=" M   376.06,   248.24  L   371.81,   248.24  "/>
		<path style="stroke-width: 1.42 ;&st7;  " d=" M   376.06,   256.74  L   371.81,   256.74  "/>
		<path style="stroke-width: 1.42 ;&st7;   " d=" M   376.06,   214.25  C   378.41    214.25    380.31    212.35    380.31    210.00  "/>
		<path style="stroke-width: 1.42 ;&st7;   " d=" M   380.31,   210.00  C   380.31    207.65    378.41    205.75    376.06    205.75  "/>
		<path style="stroke-width: 1.42 ;&st7;   " d=" M   367.56,   210.00  C   367.56    212.35    369.47    214.25    371.81    214.25  "/>
		<path style="stroke-width: 1.42 ;&st7;   " d=" M   371.81,   205.75  C   369.47    205.75    367.56    207.65    367.56    210.00  "/>
		<path style="stroke-width: 1.42 ;&st7;   " d=" M   371.81,   248.24  C   369.47    248.24    367.56    250.15    367.56    252.49  "/>
		<path style="stroke-width: 1.42 ;&st7;   " d=" M   367.56,   252.49  C   367.56    254.84    369.47    256.74    371.81    256.74  "/>
		<path style="stroke-width: 0.85 ;&st7;  " d=" M   373.94,   248.24  L   373.94,   214.25  "/>
		<path style="stroke-width: 0.28 ;&st9;  " d=" M   373.94,   219.14  L   376.77,   221.98  L   376.77,   217.73  L   373.94,   214.90  L   371.10,   217.73  L   371.10,   221.98  L   373.94,   219.14  "/>
		<path style="stroke-width: 0.28 ;&st9;  " d=" M   373.94,   243.35  L   371.10,   240.52  L   371.10,   244.77  L   373.94,   247.60  L   376.77,   244.77  L   376.77,   240.52  L   373.94,   243.35  "/>
		<text style="&st18;" transform="matrix(&st16;  360.33  254.46 )">49</text>
		<text style="&st18;" transform="matrix(&st16;  370.2  254.46 )">3B</text>
		<path style="stroke-width: 1.42 ;&st7;   " d=" M   380.31,   252.49  C   380.31    250.15    378.41    248.24    376.06    248.24  "/>
		<path style="stroke-width: 1.42 ;&st7;   " d=" M   376.06,   256.74  C   378.41    256.74    380.31    254.84    380.31    252.49  "/>
		<text style="&st18;" transform="matrix(&st16;  360.33  211.97 )">23</text>
		<text style="&st18;" transform="matrix(&st16;  369.97  211.97 )">3C</text>
	</g>
	<g ewd:figtype="jb" ewd:figID="15" ewd:code="3">
		<path style="stroke-width: 1.42 ;&st7;  " d=" M    27.62,   103.77  L    23.37,   103.77  "/>
		<path style="stroke-width: 1.42 ;&st7;   " d=" M    25.50,    47.11  C    22.76     48.72     21.85     52.25     23.46     54.99  "/>
		<path style="stroke-width: 1.42 ;&st7;   " d=" M    23.46,    54.99  C    23.98     55.87     24.61     56.51     25.50     57.03  "/>
		<path style="stroke-width: 1.42 ;&st7;   " d=" M    25.50,    66.94  C    28.23     65.33     29.15     61.80     27.53     59.06  "/>
		<path style="stroke-width: 1.42 ;&st7;   " d=" M    27.53,    59.06  C    27.01     58.18     26.38     57.55     25.50     57.03  "/>
		<path style="stroke-width: 0.85 ;&st7;   " d=" M    26.91,    45.69  C    26.91     44.91     26.28     44.28     25.50     44.28  "/>
		<path style="stroke-width: 0.85 ;&st7;   " d=" M    25.50,    44.28  C    24.71     44.28     24.08     44.91     24.08     45.69  "/>
		<path style="stroke-width: 0.85 ;&st7;   " d=" M    24.08,    45.69  C    24.08     46.48     24.71     47.11     25.50     47.11  "/>
		<path style="stroke-width: 0.85 ;&st7;   " d=" M    25.50,    47.11  C    26.28     47.11     26.91     46.48     26.91     45.69  "/>
		<path style="stroke-width: 0.85 ;&st7;   " d=" M    26.91,    68.36  C    26.91     67.57     26.28     66.94     25.50     66.94  "/>
		<path style="stroke-width: 0.85 ;&st7;   " d=" M    25.50,    66.94  C    24.71     66.94     24.08     67.57     24.08     68.36  "/>
		<path style="stroke-width: 0.85 ;&st7;   " d=" M    24.08,    68.36  C    24.08     69.14     24.71     69.77     25.50     69.77  "/>
		<path style="stroke-width: 0.85 ;&st7;   " d=" M    25.50,    69.77  C    26.28     69.77     26.91     69.14     26.91     68.36  "/>
		<path style="stroke-width: 1.42 ;&st7;   " d=" M    23.37,    95.27  C    21.02     95.27     19.12     97.17     19.12     99.52  "/>
		<path style="stroke-width: 1.42 ;&st7;   " d=" M    19.12,    99.52  C    19.12    101.87     21.02    103.77     23.37    103.77  "/>
		<path style="stroke-width: 1.42 ;&st7;   " d=" M    27.62,   103.77  C    29.97    103.77     31.87    101.87     31.87     99.52  "/>
		<path style="stroke-width: 1.42 ;&st7;   " d=" M    31.87,    99.52  C    31.87     97.17     29.97     95.27     27.62     95.27  "/>
		<path style="stroke-width: 0.85 ;&st7;  " d=" M    25.50,    69.77  L    25.50,    95.27  "/>
		<path style="stroke-width: 1.42 ;&st7;  " d=" M    27.62,    95.27  L    23.37,    95.27  "/>
		<path style="stroke-width: 0.28 ;&st9;  " d=" M    25.50,    90.37  L    22.66,    87.54  L    22.66,    91.79  L    25.50,    94.62  L    28.33,    91.79  L    28.33,    87.54  L    25.50,    90.37  "/>
		<path style="stroke-width: 1.42 ;&st7;  " d=" M    12.75,    35.78  L    12.75,    78.27  L    38.24,    78.27  L    38.24,    35.78  L    12.75,    35.78  "/>
		<text style="&st18;" transform="matrix(&st16;  41.92  56.17 )">7.5A <tspan x="0 " dy="6.0">OBD</tspan></text>
		<text style="&st18;" transform="matrix(&st16;  21.56  101.49 )">3D</text>
		<text style="&st18;" transform="matrix(&st16;  11.89  101.49 )">42</text>
		<text style="&st18;" transform="matrix(&st16;  17.45  32.08 )">(BAT)</text>
		<text style="&st18;" transform="matrix(&st16;  19.31  86.47 )">2</text>
	</g>
	<g ewd:figtype="w2w" ewd:figID="16" ewd:code="hG1">
		<path style="stroke-width: 1.42 ;&st7;  " d=" M   131.73,   154.19  L   135.98,   158.44  L   140.23,   154.19  "/>
		<path style="stroke-width: 1.42 ;&st7;  " d=" M   140.23,   157.59  L   135.98,   161.84  L   131.73,   157.59  "/>
		<text style="&st18;" transform="matrix(&st16;  123.35  169.48 )">6</text>
	</g>
	<g ewd:figtype="w2w" ewd:figID="17" ewd:code="AG1">
		<path style="stroke-width: 1.42 ;&st7;  " d=" M   191.22,   157.59  L   186.97,   161.84  L   182.72,   157.59  "/>
		<path style="stroke-width: 1.42 ;&st7;  " d=" M   182.72,   154.19  L   186.97,   158.44  L   191.22,   154.19  "/>
		<text style="&st18;" transform="matrix(&st16;  171.24  169.48 )">16</text>
	</g>
	<g ewd:figtype="w2w" ewd:figID="18" ewd:code="BA1">
		<path style="stroke-width: 1.42 ;&st7;  " d=" M   369.69,   341.16  L   373.94,   345.41  L   378.19,   341.16  "/>
		<path style="stroke-width: 1.42 ;&st7;  " d=" M   378.19,   344.56  L   373.94,   348.81  L   369.69,   344.56  "/>
		<text style="&st18;" transform="matrix(&st16;  361.31  356.45 )">6</text>
	</g>
	<g ewd:figtype="w2w" ewd:figID="19" ewd:code="Md1">
		<path style="stroke-width: 1.42 ;&st7;  " d=" M   573.65,   223.31  L   569.40,   219.07  L   565.16,   223.31  "/>
		<path style="stroke-width: 1.42 ;&st7;  " d=" M   573.65,   219.92  L   569.40,   215.67  L   565.16,   219.92  "/>
		<text style="&st18;" transform="matrix(&st16;  556.77  211.97 )">8</text>
	</g>
	<g ewd:figtype="w2w" ewd:figID="20" ewd:code="GM2">
		<path style="stroke-width: 1.42 ;&st7;  " d=" M   573.65,   163.82  L   569.40,   159.58  L   565.16,   163.82  "/>
		<path style="stroke-width: 1.42 ;&st7;  " d=" M   573.65,   160.43  L   569.40,   156.18  L   565.16,   160.43  "/>
		<text style="&st18;" transform="matrix(&st16;  556.77  152.48 )">4</text>
	</g>
	<g ewd:figtype="w2w" ewd:figID="21" ewd:code="Md1">
		<path style="stroke-width: 1.42 ;&st7;  " d=" M   675.64,   392.15  L   679.89,   396.40  L   684.14,   392.15  "/>
		<path style="stroke-width: 1.42 ;&st7;  " d=" M   684.14,   395.55  L   679.89,   399.80  L   675.64,   395.55  "/>
		<text style="&st18;" transform="matrix(&st16;  667.25  407.44 )">4</text>
	</g>
	<g ewd:figtype="w2w" ewd:figID="22" ewd:code="GM2">
		<path style="stroke-width: 1.42 ;&st7;  " d=" M   947.59,   205.18  L   951.84,   209.43  L   956.09,   205.18  "/>
		<path style="stroke-width: 1.42 ;&st7;  " d=" M   956.09,   208.58  L   951.84,   212.83  L   947.59,   208.58  "/>
		<text style="&st18;" transform="matrix(&st16;  936.11  220.47 )">15</text>
	</g>
	<g ewd:figtype="w2w" ewd:figID="23" ewd:code="Md1">
		<path style="stroke-width: 1.42 ;&st7;  " d=" M   947.59,   137.20  L   951.84,   141.45  L   956.09,   137.20  "/>
		<path style="stroke-width: 1.42 ;&st7;  " d=" M   956.09,   140.60  L   951.84,   144.84  L   947.59,   140.60  "/>
		<text style="&st18;" transform="matrix(&st16;  939.21  152.48 )">2</text>
	</g>
	<g ewd:figtype="gp" ewd:figID="24" ewd:code="BD">
		<path style="stroke-width: 0.85 ;&st7;  " d=" M   372.52,   710.00  L   375.35,   710.00  "/>
		<path style="stroke-width: 0.85 ;&st7;  " d=" M   371.10,   707.17  L   376.77,   707.17  "/>
		<path style="stroke-width: 0.85 ;&st7;  " d=" M   369.69,   704.33  L   378.19,   704.33  "/>
		<path style="stroke-width: 0.85 ;&st7;  " d=" M   365.44,   701.50  L   382.44,   701.50  "/>
		<path style="stroke-width: 0.85 ;&st7;  " d=" M   373.94,   697.25  L   373.94,   701.50  "/>
	</g>
	<g ewd:figtype="gp" ewd:figID="25" ewd:code="GD">
		<path style="stroke-width: 0.85 ;&st7;  " d=" M   420.68,   704.33  L   429.18,   704.33  "/>
		<path style="stroke-width: 0.85 ;&st7;  " d=" M   424.93,   697.25  L   424.93,   701.50  "/>
		<path style="stroke-width: 0.85 ;&st7;  " d=" M   416.43,   701.50  L   433.43,   701.50  "/>
		<path style="stroke-width: 0.85 ;&st7;  " d=" M   423.51,   710.00  L   426.35,   710.00  "/>
		<path style="stroke-width: 0.85 ;&st7;  " d=" M   422.10,   707.17  L   427.76,   707.17  "/>
	</g>
	<g ewd:figtype="gp" ewd:figID="26" ewd:code="MA">
		<path style="stroke-width: 0.85 ;&st7;  " d=" M   679.89,   697.25  L   679.89,   701.50  "/>
		<path style="stroke-width: 0.85 ;&st7;  " d=" M   671.39,   701.50  L   688.38,   701.50  "/>
		<path style="stroke-width: 0.85 ;&st7;  " d=" M   675.64,   704.33  L   684.14,   704.33  "/>
		<path style="stroke-width: 0.85 ;&st7;  " d=" M   677.05,   707.17  L   682.72,   707.17  "/>
		<path style="stroke-width: 0.85 ;&st7;  " d=" M   678.47,   710.00  L   681.30,   710.00  "/>
	</g>
	<g ewd:code=" " ewd:figID="12" ewd:comment="2,1" ewd:figtype="annex">
		<path style="stroke-width: 1.42 ;&st7;  " d=" M   280.45,   180.26  L   275.39,   168.89  "/>
		<path style="stroke-width: 0.85 ;&st7;  " d=" M   318.70,   184.50  L   314.45,   188.75  L   299.57,   188.75  L   297.45,   193.00  L   295.33,   188.75  L   280.45,   188.75  L   276.20,   184.50  "/>
		<path style="stroke-width: 1.42 ;&st7;  " d=" M   314.45,   180.26  L   319.51,   168.89  "/>
		<path style="stroke-width: 1.42 ;&st7;  " d=" M   280.45,   180.26  L   285.51,   168.89  "/>
		<path style="stroke-width: 1.42 ;&st7;  " d=" M   314.45,   180.26  L   309.39,   168.89  "/>
		<g ewd:code="" ewd:figID="32" ewd:comment="1,2" ewd:figtype="commref">
			<text style="&st18;" transform="matrix(&st16;  272.31  200.64 )" ewd:textID="7">No.1 CAN Junction <tspan x="0 " dy="6.0">Connector (*1) </tspan><tspan x="0 " dy="6.0">No.4 CAN Junction </tspan><tspan x="0 " dy="6.0">Connector (*2)</tspan></text>
		</g>
	</g>
	<g ewd:code="1" ewd:figID="30" ewd:comment="2" ewd:figtype="comment">
		<text style="&st18;" transform="matrix(&st16;  866.28  479.67 )" ewd:textID="2">* 1 :Except *2</text>
	</g>
	<g ewd:code="2" ewd:figID="29" ewd:comment="" ewd:figtype="comment">
		<text style="&st18;" transform="matrix(&st16;  866.28  488.17 )" ewd:textID="3">* 2 :USA 4WD Manual Air Conditioning <tspan x="14.17" dy="8.5">4 Speaker w/o Parking Assist</tspan></text>
		<text style="&st18;" transform="matrix(&st16;  880.45  505.17 )" ewd:textID="1">(Intuitive Parking Assist)</text>
	</g>
	<path style="stroke-width: 1.42 ;&st7;  " d=" M   178.47,   163.26  L   186.97,   163.26  "/>
	<text style="&st18;" transform="matrix(&st17;  849.0  303.95 )">(*1)</text>
	<path style="stroke-width: 1.42 ;&st7;  " d=" M   365.44,   350.23  L   373.94,   350.23  "/>
	<text style="&st18;" transform="matrix(&st17;  871.66  300.92 )">B</text>
	<text style="&st18;" transform="matrix(&st17;  882.99  303.95 )">(*2)</text>
	<text style="&st18;" transform="matrix(&st17;  421.23  594.14 )">W-B</text>
	<text style="&st18;" transform="matrix(&st17;  370.24  591.74 )">BR</text>
	<text style="&st18;" transform="matrix(&st17;  183.27  124.59 )">GR</text>
	<text style="&st18;" transform="matrix(&st17;  225.77  224.71 )">G</text>
	<text style="&st18;" transform="matrix(&st17;  183.27  226.57 )">GR</text>
	<text style="&st18;" transform="matrix(&st17;  98.29  122.34 )">L</text>
	<text style="&st18;" transform="matrix(&st17;  225.77  122.73 )">G</text>
	<text style="&st18;" transform="matrix(&st17;  370.24  124.32 )">BR</text>
	<text style="&st18;" transform="matrix(&st17;  812.17  122.73 )">G</text>
	<text style="&st18;" transform="matrix(&st17;  132.28  122.38 )">R</text>
	<text style="&st18;" transform="matrix(&st17;  370.24  404.77 )">BR</text>
	<text style="&st18;" transform="matrix(&st17;  370.24  302.79 )">BR</text>
	<text style="&st18;" transform="matrix(&st16;  608.49  32.08 )" ewd:textID="4">Data Link Connector 3</text>
	<text style="&st18;" transform="matrix(&st17;  421.23  271.2 )">W-B</text>
	<text style="&st18;" transform="matrix(&st17;  432.57  269.95 )">(*1)</text>
	<text style="&st18;" transform="matrix(&st17;  472.23  271.2 )">W-B</text>
	<text style="&st18;" transform="matrix(&st17;  483.56  269.95 )">(*2)</text>
	<text style="&st18;" transform="matrix(&st17;  472.22  124.32 )">BR</text>
	<text style="&st18;" transform="matrix(&st17;  483.56  125.48 )">(*2)</text>
	<text style="&st18;" transform="matrix(&st17;  421.23  124.32 )">BR</text>
	<text style="&st18;" transform="matrix(&st17;  432.57  125.48 )">(*1)</text>
	<text style="&st18;" transform="matrix(&st17;  823.5  125.48 )">(*2)</text>
	<text style="&st18;" transform="matrix(&st17;  761.18  122.73 )">G</text>
	<text style="&st18;" transform="matrix(&st17;  772.51  125.48 )">(*1)</text>
	<text style="&st18;" transform="matrix(&st17;  761.18  300.92 )">Y</text>
	<text style="&st18;" transform="matrix(&st17;  772.51  303.95 )">(*2)</text>
	<text style="&st18;" transform="matrix(&st17;  727.18  300.92 )">Y</text>
	<text style="&st18;" transform="matrix(&st17;  738.51  303.95 )">(*1)</text>
	<text style="&st18;" transform="matrix(&st17;  837.66  300.92 )">B</text>
	<path style="stroke-width: 1.42 ;&st7;  " d=" M   127.48,   163.26  L   135.98,   163.26  "/>
	<text style="&st18;" transform="matrix(&st17;  132.28  224.86 )">O</text>
	<text style="&st18;" transform="matrix(&st17;  276.76  148.73 )">W</text>
	<text style="&st18;" transform="matrix(&st17;  310.75  147.95 )">B</text>
	<text style="&st18;" transform="matrix(&st16;  608.49  24.98 )">G14</text>
	<path style="stroke-width: 1.42 ;&st7;  " d=" M   943.34,   146.26  L   951.84,   146.26  "/>
	<path style="stroke-width: 1.42 ;&st7;  " d=" M   943.34,   214.25  L   951.84,   214.25  "/>
	<text style="&st18;" transform="matrix(&st17;  948.14  292.43 )">B</text>
	<text style="&st18;" transform="matrix(&st17;  948.15  107.59 )">GR</text>
	<text style="&st18;" transform="matrix(&st17;  948.14  181.94 )">B</text>
	<text style="&st18;" transform="matrix(&st17;  925.48  295.45 )">(*2)</text>
	<text style="&st18;" transform="matrix(&st17;  914.15  292.43 )">B</text>
	<text style="&st18;" transform="matrix(&st17;  565.71  122.57 )">V</text>
	<path style="stroke-width: 1.42 ;&st7;  " d=" M   577.90,   214.25  L   569.40,   214.25  "/>
	<text style="&st18;" transform="matrix(&st17;  565.71  182.06 )">V</text>
	<text style="&st18;" transform="matrix(&st17;  565.71  249.86 )">R</text>
	<text style="&st18;" transform="matrix(&st17;  959.48  295.45 )">(*1)</text>
	<path style="stroke-width: 1.42 ;&st7;  " d=" M   577.90,   154.76  L   569.40,   154.76  "/>
	<path style="stroke-width: 1.42 ;&st7;  " d=" M   671.39,   401.22  L   679.89,   401.22  "/>
	<text style="&st18;" transform="matrix(&st17;  676.19  302.79 )">BR</text>
	<text style="&st18;" transform="matrix(&st17;  676.19  475.16 )">W-B</text>
	<text style="&st18;" transform="matrix(&st17;  687.52  473.92 )">(*1)</text>
	<text style="&st18;" transform="matrix(&st17;  633.7  475.16 )">W-B</text>
	<text style="&st18;" transform="matrix(&st17;  645.03  473.92 )">(*2)</text>
	<text style="&st18;" transform="matrix(&st17;  676.19  594.14 )">W-B</text>
	<text style="&st18;" transform="matrix(&st17;  687.52  592.9 )">(*1)</text>
	<path style="stroke-width: 1.42 ;&st7;  " d=" M   382.44,   448.68  L   377.46,   443.71  "/>
	<path style="stroke-width: 1.42 ;&st7;  " d=" M   365.44,   455.74  L   370.41,   460.71  "/>
	<path style="stroke-width: 1.42 ;&st7;  " d=" M   377.46,   460.71  L   382.44,   455.74  "/>
	<path style="stroke-width: 1.42 ;&st7;  " d=" M   370.41,   443.71  L   365.44,   448.68  "/>
	<a ewd:figtype="w2w" style="cursor:pointer;" ewd:pinNo="6" ewd:code="hG1" ewd:figID="16">
		<path style="&st2;" d=" M   144.48,   163.26  L   127.48,   163.26  L   127.48,   171.76  L   144.48,   171.76  L   144.48,   163.26 "/>
		<text style="&st8;" transform="matrix(&st16;  130.82  169.63 )"><tspan x="0" style="&st18;" y="0">hG1</tspan></text>
	</a>
	<a ewd:figtype="w2w" style="cursor:pointer;" ewd:pinNo="16" ewd:code="AG1" ewd:figID="17">
		<path style="&st2;" d=" M   195.47,   163.26  L   178.47,   163.26  L   178.47,   171.76  L   195.47,   171.76  L   195.47,   163.26 "/>
		<text style="&st8;" transform="matrix(&st16;  181.33  169.63 )"><tspan x="0" style="&st18;" y="0">AG1</tspan></text>
	</a>
	<a ewd:figtype="w2w" style="cursor:pointer;" ewd:pinNo="6" ewd:code="BA1" ewd:figID="18">
		<path style="&st2;" d=" M   382.44,   350.23  L   365.44,   350.23  L   365.44,   358.73  L   382.44,   358.73  L   382.44,   350.23 "/>
		<text style="&st8;" transform="matrix(&st16;  368.56  356.6 )"><tspan x="0" style="&st18;" y="0">BA1</tspan></text>
	</a>
	<a ewd:figtype="w2w" style="cursor:pointer;" ewd:pinNo="8" ewd:code="Md1" ewd:figID="19">
		<path style="&st2;" d=" M   577.90,   205.75  L   560.91,   205.75  L   560.91,   214.25  L   577.90,   214.25  L   577.90,   205.75 "/>
		<text style="&st8;" transform="matrix(&st16;  563.99  212.12 )"><tspan x="0" style="&st18;" y="0">Md1</tspan></text>
	</a>
	<a ewd:figtype="w2w" style="cursor:pointer;" ewd:pinNo="4" ewd:code="GM2" ewd:figID="20">
		<path style="&st2;" d=" M   577.90,   146.26  L   560.91,   146.26  L   560.91,   154.76  L   577.90,   154.76  L   577.90,   146.26 "/>
		<text style="&st8;" transform="matrix(&st16;  563.35  152.63 )"><tspan x="0" style="&st18;" y="0">GM2</tspan></text>
	</a>
	<a ewd:figtype="w2w" style="cursor:pointer;" ewd:pinNo="4" ewd:code="Md1" ewd:figID="21">
		<path style="&st2;" d=" M   688.38,   401.22  L   671.39,   401.22  L   671.39,   409.72  L   688.38,   409.72  L   688.38,   401.22 "/>
		<text style="&st8;" transform="matrix(&st16;  674.47  407.59 )"><tspan x="0" style="&st18;" y="0">Md1</tspan></text>
	</a>
	<a ewd:figtype="w2w" style="cursor:pointer;" ewd:pinNo="15" ewd:code="GM2" ewd:figID="22">
		<path style="&st2;" d=" M   960.34,   214.25  L   943.34,   214.25  L   943.34,   222.75  L   960.34,   222.75  L   960.34,   214.25 "/>
		<text style="&st8;" transform="matrix(&st16;  945.78  220.62 )"><tspan x="0" style="&st18;" y="0">GM2</tspan></text>
	</a>
	<a ewd:figtype="w2w" style="cursor:pointer;" ewd:pinNo="2" ewd:code="Md1" ewd:figID="23">
		<path style="&st2;" d=" M   960.34,   146.26  L   943.34,   146.26  L   943.34,   154.76  L   960.34,   154.76  L   960.34,   146.26 "/>
		<text style="&st8;" transform="matrix(&st16;  946.42  152.63 )"><tspan x="0" style="&st18;" y="0">Md1</tspan></text>
	</a>
	<a ewd:figtype="gp" style="cursor:pointer;" ewd:code="BD" ewd:figID="24">
		<path style="&st2;" d=" M   363.31,   681.67  L   384.56,   681.67  L   373.94,   697.25  L   363.31,   681.67 "/>
		<text style="&st8;" transform="matrix(&st16;  369.99  689.46 )"><tspan x="0" style="&st18;" y="0">BD</tspan></text>
	</a>
	<a ewd:figtype="gp" style="cursor:pointer;" ewd:code="GD" ewd:figID="25">
		<path style="&st2;" d=" M   414.31,   681.67  L   435.55,   681.67  L   424.93,   697.25  L   414.31,   681.67 "/>
		<text style="&st8;" transform="matrix(&st16;  420.72  689.46 )"><tspan x="0" style="&st18;" y="0">GD</tspan></text>
	</a>
	<a ewd:figtype="gp" style="cursor:pointer;" ewd:code="MA" ewd:figID="26">
		<path style="&st2;" d=" M   669.26,   681.67  L   690.51,   681.67  L   679.89,   697.25  L   669.26,   681.67 "/>
		<text style="&st8;" transform="matrix(&st16;  675.48  689.46 )"><tspan x="0" style="&st18;" y="0">MA</tspan></text>
	</a>
	<a ewd:figtype="sp" style="cursor:pointer;" ewd:code="SP22" ewd:figID="27">
		<path style="&st2;" d=" M   369.69,   443.71  L   378.19,   443.71  L   382.44,   447.96  L   382.44,   456.46  L   378.19,   460.71  L   369.69,   460.71  L   365.44,   456.46  L   365.44,   447.96  L   369.69,   443.71 "/>
	</a>
</g>
</svg>