﻿<?xml version="1.0" encoding="utf-8"?>
<!DOCTYPE svg PUBLIC "-//W3C//DTD SVG 1.0//EN" "http://www.w3.org/TR/2001/REC-SVG-20010904/DTD/svg10.dtd"[
	<!ENTITY ns_flows "http://ns.adobe.com/Flows/1.0/">
	<!ENTITY ns_svg "http://www.w3.org/2000/svg">
	<!ENTITY ns_xlink "http://www.w3.org/1999/xlink">
	<!ENTITY st0 "font-size:7px;font-family:'MS-PGothic';adobe-font-script:japanese;">
	<!ENTITY st1 "font-size:6px;font-family:'ArialMT';">
	<!-- White fill  -->
	<!ENTITY st2 "fill:#FFFFFF;stroke:#000000; stroke-width:1.41;stroke-linecap:round;stroke-linejoin:round;">
	<!-- Yellow fill  -->
	<!ENTITY st3 "fill:#FFFFCC;stroke:#FFFFCC; stroke-width:0.1;stroke-linecap:round;stroke-linejoin:round;">
	<!-- Gray fill  -->
	<!ENTITY st4 "fill:#CCCCCC;stroke:#CCCCCC; stroke-width:0.1;stroke-linecap:round;stroke-linejoin:round;">
	<!-- Light-blue fill -->
	<!ENTITY st5 "fill:#CCECF4;stroke:#000000; stroke-width:1.133;stroke-linecap:round;stroke-linejoin:round;">
	<!ENTITY st6 "fill:none;stroke-linecap:butt; stroke-linejoin:round;">
	<!ENTITY st7 "fill:none;stroke:#000000;stroke-linecap:round;stroke-linejoin:round;">
	<!ENTITY st8 "enable-background:new    ;">
	<!-- Black fill -->
	<!ENTITY st9 "fill:#000000;stroke:#000000; stroke-linecap:round;stroke-linejoin:round;">
	<!-- SRS note   -->
	<!ENTITY st10 "font-size:9px;font-family:'ArialMT';">
	<!ENTITY st11 "font-size:9px;font-family:'Svg Symbol';">
	<!ENTITY st12 "font-size:6px;font-family:'Svg Symbol';">
	<!ENTITY st13 "fill:none;stroke:#ff0000;stroke-linecap:round;stroke-linejoin:round;">
	<!-- Yellow fill  -->
	<!ENTITY st14 "fill:#FFFF00;stroke:#FFFF00; stroke-width:0.1;stroke-linecap:round;stroke-linejoin:round;">
	<!ENTITY st15 "font-size:6px;font-family:'MS-PGothic';adobe-font-script:japanese;">
	<!ENTITY st16 "1.00 0.00 0.00 1.00">
	<!ENTITY st17 "0.00 -1.00 1.00 0.00">
	<!ENTITY st18 "font-size:6px;font-family:'Arial';">
	<!ENTITY st19 "font-size:9px;font-family:'Arial';">
	<!ENTITY st20 "font-size:6px;font-family:'MS-PGothic','MS PGothic';adobe-font-script:japanese;">
	<!ENTITY st21 "font-size:7px;font-family:'MS-PGothic','MS PGothic';adobe-font-script:japanese;">
	<!ATTLIST svg
		xmlns:ewd CDATA #FIXED "http://shcl.co.jp/ewd"
		xmlns:a CDATA #FIXED "http://ns.adobe.com/AdobeSVGViewerExtensions/3.0/"
		ewd:ver CDATA #IMPLIED
	>
	<!ATTLIST a
		ewd:lineID CDATA #IMPLIED
		ewd:groupID CDATA #IMPLIED
		ewd:figtype CDATA #IMPLIED
		ewd:code CDATA #IMPLIED
		ewd:figID CDATA #IMPLIED
		ewd:pinNo CDATA #IMPLIED
		ewd:comment CDATA #IMPLIED >
	<!ATTLIST g
		ewd:lineID CDATA #IMPLIED
		ewd:groupID CDATA #IMPLIED
		ewd:figtype CDATA #IMPLIED
		ewd:code CDATA #IMPLIED
		ewd:figID CDATA #IMPLIED
		ewd:pinNo CDATA #IMPLIED
		ewd:comment CDATA #IMPLIED >
	<!ATTLIST text
		ewd:textID CDATA #IMPLIED >
	<!ATTLIST title
		ewd:textID CDATA #IMPLIED >
]>
<!-- Generator: Shintec Hozumi YS   -->
<svg onload="call_execInitLoadProc_svg('system')" style="overflow:visible;  enable-background:new 0 0 1025.348 710.000" viewBox="0 0 1025.348 710.000" height="710.000" width="1025.348" xml:space="preserve" ewd:ver="2.1.2.5" xmlns="&ns_svg;" xmlns:a="http://ns.adobe.com/AdobeSVGViewerExtensions/3.0/" xmlns:ewd="http://shcl.co.jp/ewd" xmlns:xlink="&ns_xlink;">
<path style="stroke-width: 1.42 ;&st7;  " d=" M   178.47,   163.26  L   186.97,   163.26  " /><path style="stroke-width: 1.42 ;&st7;  " d=" M   365.44,   350.23  L   373.94,   350.23  " /><text style="&st18;" transform="matrix(&st17;  421.23  594.14 )">W-B</text><text style="&st18;" transform="matrix(&st17;  370.24  591.74 )">BR</text><text style="&st18;" transform="matrix(&st17;  183.27  124.59 )">GR</text><text style="&st18;" transform="matrix(&st17;  225.77  224.71 )">G</text><text style="&st18;" transform="matrix(&st17;  183.27  226.57 )">GR</text><text style="&st18;" transform="matrix(&st17;  98.29  122.34 )">L</text><text style="&st18;" transform="matrix(&st17;  225.77  122.73 )">G</text><text style="&st18;" transform="matrix(&st17;  370.24  124.32 )">BR</text><text style="&st18;" transform="matrix(&st17;  132.28  122.38 )">R</text><text style="&st18;" transform="matrix(&st17;  370.24  404.77 )">BR</text><text style="&st18;" transform="matrix(&st17;  370.24  302.79 )">BR</text><text style="&st18;" transform="matrix(&st17;  421.23  271.2 )">W-B</text><text style="&st18;" transform="matrix(&st17;  432.57  269.95 )">(*1)</text><text style="&st18;" transform="matrix(&st17;  472.23  271.2 )">W-B</text><text style="&st18;" transform="matrix(&st17;  483.56  269.95 )">(*2)</text><text style="&st18;" transform="matrix(&st17;  472.22  124.32 )">BR</text><text style="&st18;" transform="matrix(&st17;  483.56  125.48 )">(*2)</text><text style="&st18;" transform="matrix(&st17;  421.23  124.32 )">BR</text><text style="&st18;" transform="matrix(&st17;  432.57  125.48 )">(*1)</text><path style="stroke-width: 1.42 ;&st7;  " d=" M   127.48,   163.26  L   135.98,   163.26  " /><text style="&st18;" transform="matrix(&st17;  132.28  224.86 )">O</text><text style="&st18;" transform="matrix(&st17;  276.76  148.73 )">W</text><text style="&st18;" transform="matrix(&st17;  310.75  147.95 )">B</text><path style="stroke-width: 1.42 ;&st7;  " d=" M   382.44,   448.68  L   377.46,   443.71  " /><path style="stroke-width: 1.42 ;&st7;  " d=" M   365.44,   455.74  L   370.41,   460.71  " /><path style="stroke-width: 1.42 ;&st7;  " d=" M   377.46,   460.71  L   382.44,   455.74  " /><path style="stroke-width: 1.42 ;&st7;  " d=" M   370.41,   443.71  L   365.44,   448.68  " /><g ewd:figtype="conn" ewd:figID="1" ewd:code="G95"><path style="stroke-width: 1.42 ;&st7;  " d=" M   416.43,   205.75  L   433.43,   205.75  L   433.43,   222.75  L   416.43,   222.75  L   416.43,   205.75  " /><path style="stroke-width: 0.85 ;&st7;  " d=" M   424.93,   205.75  L   424.93,   222.75  " /><text style="&st18;" transform="matrix(&st16;  418.74  230.94 )">9</text><text style="&st18;" transform="matrix(&st16;  415.64  202.06 )">11</text><g ewd:figtype="title"><text style="&st18;" transform="matrix(&st17;  441.04  225.65 )">G95</text><text style="&st18;" transform="matrix(&st17;  448.15  225.65 )" ewd:textID="9">No. 3 Junction Connector</text></g></g><g ewd:figtype="conn" ewd:figID="2" ewd:code="h1"><path style="stroke-width: 1.42 ;&st7;  " d=" M   118.98,   282.24  L   152.97,   282.24  L   152.97,   316.23  L   118.98,   316.23  L   118.98,   282.24  " /><g ewd:lineID="2"><text style="&st18;" transform="matrix(&st16;  127.28  279.67 )">5</text><path style="stroke-width: 1.42 ;&st7;   " d=" M   140.51,   277.71  C   140.51    275.20    138.48    273.17    135.98    273.17  " /><path style="stroke-width: 1.42 ;&st7;   " d=" M   135.98,   273.17  C   133.47    273.17    131.44    275.20    131.44    277.71  " /><path style="stroke-width: 1.42 ;&st7;   " d=" M   131.44,   277.71  C   131.44    280.21    133.47    282.24    135.98    282.24  " /><path style="stroke-width: 1.42 ;&st7;   " d=" M   135.98,   282.24  C   138.48    282.24    140.51    280.21    140.51    277.71  " /><text style="&st18;" transform="matrix(&st16;  133.67  279.67 )">A</text><text style="&st18;" transform="matrix(&st16;  132.24  289.87 )">TS</text></g><g ewd:figtype="title"><text style="&st18;" transform="matrix(&st17;  109.34  319.14 )" ewd:textID="14">Power Steering <tspan x="0 " dy="6.0">ECU Assembly</tspan></text><text style="&st18;" transform="matrix(&st17;  102.23  319.13 )">h1(A)</text></g></g><g ewd:figtype="conn" ewd:figID="4" ewd:code="G93"><path style="stroke-width: 1.42 ;&st7;  " d=" M   467.42,   205.75  L   484.42,   205.75  L   484.42,   222.75  L   467.42,   222.75  L   467.42,   205.75  " /><path style="stroke-width: 0.85 ;&st7;  " d=" M   475.92,   205.75  L   475.92,   222.75  " /><text style="&st18;" transform="matrix(&st16;  466.63  202.06 )">21</text><text style="&st18;" transform="matrix(&st16;  466.63  230.94 )">19</text><g ewd:figtype="title"><text style="&st18;" transform="matrix(&st17;  492.03  225.65 )">G93</text><text style="&st18;" transform="matrix(&st17;  499.14  225.65 )" ewd:textID="8">No. 1 Junction Connector</text></g></g><g ewd:figtype="conn" ewd:figID="5" ewd:code="G98"><path style="stroke-width: 1.42 ;&st7;  " d=" M   416.43,   333.23  L   433.43,   333.23  L   433.43,   350.23  L   416.43,   350.23  L   416.43,   333.23  " /><path style="stroke-width: 0.85 ;&st7;  " d=" M   424.93,   333.23  L   424.93,   350.23  " /><text style="&st18;" transform="matrix(&st16;  418.74  358.42 )">6</text><text style="&st18;" transform="matrix(&st16;  418.74  329.54 )">7</text><g ewd:figtype="title"><text style="&st18;" transform="matrix(&st17;  405.63  353.13 )">G98</text><text style="&st18;" transform="matrix(&st17;  412.73  353.13 )" ewd:textID="11">No. 5 Junction Connector</text></g></g><g ewd:figtype="conn" ewd:figID="6" ewd:code="A62"><path style="stroke-width: 1.42 ;&st7;  " d=" M   169.97,   282.24  L   246.46,   282.24  L   246.46,   316.23  L   169.97,   316.23  L   169.97,   282.24  " /><g ewd:lineID="4"><text style="&st18;" transform="matrix(&st16;  175.17  279.67 )">31</text><text style="&st18;" transform="matrix(&st16;  184.66  279.67 )">A</text><path style="stroke-width: 1.42 ;&st7;   " d=" M   191.50,   277.71  C   191.50    275.20    189.47    273.17    186.97    273.17  " /><path style="stroke-width: 1.42 ;&st7;   " d=" M   186.97,   273.17  C   184.47    273.17    182.44    275.20    182.44    277.71  " /><path style="stroke-width: 1.42 ;&st7;   " d=" M   182.44,   277.71  C   182.44    280.21    184.47    282.24    186.97    282.24  " /><path style="stroke-width: 1.42 ;&st7;   " d=" M   186.97,   282.24  C   189.47    282.24    191.50    280.21    191.50    277.71  " /><text style="&st18;" transform="matrix(&st16;  178.31  289.87 )">TACH</text></g><g ewd:lineID="6"><text style="&st18;" transform="matrix(&st16;  217.67  279.67 )">23</text><text style="&st18;" transform="matrix(&st16;  227.16  279.67 )">A</text><path style="stroke-width: 1.42 ;&st7;   " d=" M   233.99,   277.71  C   233.99    275.20    231.96    273.17    229.46    273.17  " /><path style="stroke-width: 1.42 ;&st7;   " d=" M   229.46,   273.17  C   226.96    273.17    224.93    275.20    224.93    277.71  " /><path style="stroke-width: 1.42 ;&st7;   " d=" M   224.93,   277.71  C   224.93    280.21    226.96    282.24    229.46    282.24  " /><path style="stroke-width: 1.42 ;&st7;   " d=" M   229.46,   282.24  C   231.96    282.24    233.99    280.21    233.99    277.71  " /><text style="&st18;" transform="matrix(&st16;  225.1  289.87 )">TC</text></g><g ewd:figtype="title"><text style="&st18;" transform="matrix(&st16;  166.57  330.95 )">ECM</text><text style="&st18;" transform="matrix(&st16;  166.56  323.84 )">A62(A)</text></g></g><g ewd:figtype="conn" ewd:figID="9" ewd:code="G14"><path style="stroke-width: 1.42 ;&st7;  " d=" M    84.99,    78.27  L   832.86,    78.27  L   832.86,    35.78  L    84.99,    35.78  L    84.99,    78.27  " /><g ewd:lineID="1"><text style="&st18;" transform="matrix(&st16;  92.7  86.47 )">16</text><text style="&st18;" transform="matrix(&st16;  95.8  74.58 )">BAT</text></g><g ewd:lineID="13"><text style="&st18;" transform="matrix(&st16;  367.75  86.47 )">5</text><text style="&st18;" transform="matrix(&st16;  369.93  74.58 )">SG</text></g><g ewd:lineID="16,17"><text style="&st18;" transform="matrix(&st16;  418.74  86.47 )">4</text><text style="&st18;" transform="matrix(&st16;  420.3  74.58 )">CG</text></g><g ewd:lineID="3"><text style="&st18;" transform="matrix(&st16;  126.69  86.47 )">12</text><text style="&st18;" transform="matrix(&st16;  132.24  74.58 )">TS</text></g><g ewd:lineID="5"><text style="&st18;" transform="matrix(&st16;  180.78  86.47 )">9</text><text style="&st18;" transform="matrix(&st16;  180.55  74.58 )">TAC</text></g><g ewd:lineID="7"><text style="&st18;" transform="matrix(&st16;  220.18  86.47 )">13</text><text style="&st18;" transform="matrix(&st16;  225.1  74.58 )">TC</text></g><g ewd:lineID="8"><text style="&st18;" transform="matrix(&st16;  271.17  86.47 )">14</text><text style="&st18;" transform="matrix(&st16;  272.1  74.58 )">CANL</text></g><g ewd:lineID="9"><text style="&st18;" transform="matrix(&st16;  308.26  86.47 )">6</text><text style="&st18;" transform="matrix(&st16;  305.67  74.58 )">CANH</text></g><g ewd:figtype="title"><text style="&st18;" transform="matrix(&st16;  81.57  24.98 )">G14</text><text style="&st18;" transform="matrix(&st16;  81.58  32.08 )" ewd:textID="4">Data Link Connector 3</text></g></g><g ewd:figtype="jb" ewd:figID="13" ewd:code="3"><path style="stroke-width: 1.42 ;&st7;  " d=" M   231.59,   146.26  L   227.34,   146.26  " /><path style="stroke-width: 1.42 ;&st7;  " d=" M   231.59,   154.76  L   227.34,   154.76  " /><path style="stroke-width: 1.42 ;&st7;  " d=" M   231.59,   188.75  L   227.34,   188.75  " /><path style="stroke-width: 1.42 ;&st7;  " d=" M   231.59,   197.25  L   227.34,   197.25  " /><path style="stroke-width: 1.42 ;&st7;   " d=" M   227.34,   146.26  C   224.99    146.26    223.09    148.16    223.09    150.51  " /><path style="stroke-width: 1.42 ;&st7;   " d=" M   223.09,   150.51  C   223.09    152.86    224.99    154.76    227.34    154.76  " /><path style="stroke-width: 1.42 ;&st7;   " d=" M   231.59,   154.76  C   233.93    154.76    235.84    152.86    235.84    150.51  " /><path style="stroke-width: 1.42 ;&st7;   " d=" M   235.84,   150.51  C   235.84    148.16    233.93    146.26    231.59    146.26  " /><path style="stroke-width: 1.42 ;&st7;   " d=" M   227.34,   188.75  C   224.99    188.75    223.09    190.66    223.09    193.00  " /><path style="stroke-width: 1.42 ;&st7;   " d=" M   223.09,   193.00  C   223.09    195.35    224.99    197.25    227.34    197.25  " /><path style="stroke-width: 1.42 ;&st7;   " d=" M   231.59,   197.25  C   233.93    197.25    235.84    195.35    235.84    193.00  " /><path style="stroke-width: 1.42 ;&st7;   " d=" M   235.84,   193.00  C   235.84    190.66    233.93    188.75    231.59    188.75  " /><path style="stroke-width: 0.28 ;&st9;  " d=" M   229.46,   159.65  L   232.29,   162.49  L   232.29,   158.24  L   229.46,   155.41  L   226.63,   158.24  L   226.63,   162.49  L   229.46,   159.65  " /><path style="stroke-width: 0.28 ;&st9;  " d=" M   229.46,   183.86  L   226.63,   181.03  L   226.63,   185.28  L   229.46,   188.11  L   232.29,   185.28  L   232.29,   181.03  L   229.46,   183.86  " /><path style="stroke-width: 0.85 ;&st7;  " d=" M   229.46,   188.75  L   229.46,   154.76  " /><text style="&st18;" transform="matrix(&st16;  225.49  152.48 )">3C</text><text style="&st18;" transform="matrix(&st16;  215.85  152.48 )">16</text><text style="&st18;" transform="matrix(&st16;  225.72  194.97 )">3B</text><text style="&st18;" transform="matrix(&st16;  215.85  194.97 )">15</text></g><g ewd:figtype="jb" ewd:figID="14" ewd:code="3"><path style="stroke-width: 1.42 ;&st7;  " d=" M   376.06,   214.25  L   371.81,   214.25  " /><path style="stroke-width: 1.42 ;&st7;  " d=" M   376.06,   205.75  L   371.81,   205.75  " /><path style="stroke-width: 1.42 ;&st7;  " d=" M   376.06,   248.24  L   371.81,   248.24  " /><path style="stroke-width: 1.42 ;&st7;  " d=" M   376.06,   256.74  L   371.81,   256.74  " /><path style="stroke-width: 1.42 ;&st7;   " d=" M   376.06,   214.25  C   378.41    214.25    380.31    212.35    380.31    210.00  " /><path style="stroke-width: 1.42 ;&st7;   " d=" M   380.31,   210.00  C   380.31    207.65    378.41    205.75    376.06    205.75  " /><path style="stroke-width: 1.42 ;&st7;   " d=" M   367.56,   210.00  C   367.56    212.35    369.47    214.25    371.81    214.25  " /><path style="stroke-width: 1.42 ;&st7;   " d=" M   371.81,   205.75  C   369.47    205.75    367.56    207.65    367.56    210.00  " /><path style="stroke-width: 1.42 ;&st7;   " d=" M   371.81,   248.24  C   369.47    248.24    367.56    250.15    367.56    252.49  " /><path style="stroke-width: 1.42 ;&st7;   " d=" M   367.56,   252.49  C   367.56    254.84    369.47    256.74    371.81    256.74  " /><path style="stroke-width: 0.85 ;&st7;  " d=" M   373.94,   248.24  L   373.94,   214.25  " /><path style="stroke-width: 0.28 ;&st9;  " d=" M   373.94,   219.14  L   376.77,   221.98  L   376.77,   217.73  L   373.94,   214.90  L   371.10,   217.73  L   371.10,   221.98  L   373.94,   219.14  " /><path style="stroke-width: 0.28 ;&st9;  " d=" M   373.94,   243.35  L   371.10,   240.52  L   371.10,   244.77  L   373.94,   247.60  L   376.77,   244.77  L   376.77,   240.52  L   373.94,   243.35  " /><text style="&st18;" transform="matrix(&st16;  360.33  254.46 )">49</text><text style="&st18;" transform="matrix(&st16;  370.2  254.46 )">3B</text><path style="stroke-width: 1.42 ;&st7;   " d=" M   380.31,   252.49  C   380.31    250.15    378.41    248.24    376.06    248.24  " /><path style="stroke-width: 1.42 ;&st7;   " d=" M   376.06,   256.74  C   378.41    256.74    380.31    254.84    380.31    252.49  " /><text style="&st18;" transform="matrix(&st16;  360.33  211.97 )">23</text><text style="&st18;" transform="matrix(&st16;  369.97  211.97 )">3C</text></g><g ewd:figtype="jb" ewd:figID="15" ewd:code="3"><path style="stroke-width: 1.42 ;&st7;  " d=" M    27.62,   103.77  L    23.37,   103.77  " /><path style="stroke-width: 1.42 ;&st7;   " d=" M    25.50,    47.11  C    22.76     48.72     21.85     52.25     23.46     54.99  " /><path style="stroke-width: 1.42 ;&st7;   " d=" M    23.46,    54.99  C    23.98     55.87     24.61     56.51     25.50     57.03  " /><path style="stroke-width: 1.42 ;&st7;   " d=" M    25.50,    66.94  C    28.23     65.33     29.15     61.80     27.53     59.06  " /><path style="stroke-width: 1.42 ;&st7;   " d=" M    27.53,    59.06  C    27.01     58.18     26.38     57.55     25.50     57.03  " /><path style="stroke-width: 0.85 ;&st7;   " d=" M    26.91,    45.69  C    26.91     44.91     26.28     44.28     25.50     44.28  " /><path style="stroke-width: 0.85 ;&st7;   " d=" M    25.50,    44.28  C    24.71     44.28     24.08     44.91     24.08     45.69  " /><path style="stroke-width: 0.85 ;&st7;   " d=" M    24.08,    45.69  C    24.08     46.48     24.71     47.11     25.50     47.11  " /><path style="stroke-width: 0.85 ;&st7;   " d=" M    25.50,    47.11  C    26.28     47.11     26.91     46.48     26.91     45.69  " /><path style="stroke-width: 0.85 ;&st7;   " d=" M    26.91,    68.36  C    26.91     67.57     26.28     66.94     25.50     66.94  " /><path style="stroke-width: 0.85 ;&st7;   " d=" M    25.50,    66.94  C    24.71     66.94     24.08     67.57     24.08     68.36  " /><path style="stroke-width: 0.85 ;&st7;   " d=" M    24.08,    68.36  C    24.08     69.14     24.71     69.77     25.50     69.77  " /><path style="stroke-width: 0.85 ;&st7;   " d=" M    25.50,    69.77  C    26.28     69.77     26.91     69.14     26.91     68.36  " /><path style="stroke-width: 1.42 ;&st7;   " d=" M    23.37,    95.27  C    21.02     95.27     19.12     97.17     19.12     99.52  " /><path style="stroke-width: 1.42 ;&st7;   " d=" M    19.12,    99.52  C    19.12    101.87     21.02    103.77     23.37    103.77  " /><path style="stroke-width: 1.42 ;&st7;   " d=" M    27.62,   103.77  C    29.97    103.77     31.87    101.87     31.87     99.52  " /><path style="stroke-width: 1.42 ;&st7;   " d=" M    31.87,    99.52  C    31.87     97.17     29.97     95.27     27.62     95.27  " /><path style="stroke-width: 0.85 ;&st7;  " d=" M    25.50,    69.77  L    25.50,    95.27  " /><path style="stroke-width: 1.42 ;&st7;  " d=" M    27.62,    95.27  L    23.37,    95.27  " /><path style="stroke-width: 0.28 ;&st9;  " d=" M    25.50,    90.37  L    22.66,    87.54  L    22.66,    91.79  L    25.50,    94.62  L    28.33,    91.79  L    28.33,    87.54  L    25.50,    90.37  " /><path style="stroke-width: 1.42 ;&st7;  " d=" M    12.75,    35.78  L    12.75,    78.27  L    38.24,    78.27  L    38.24,    35.78  L    12.75,    35.78  " /><text style="&st18;" transform="matrix(&st16;  41.92  56.17 )">7.5A <tspan x="0 " dy="6.0">OBD</tspan></text><text style="&st18;" transform="matrix(&st16;  21.56  101.49 )">3D</text><text style="&st18;" transform="matrix(&st16;  11.89  101.49 )">42</text><text style="&st18;" transform="matrix(&st16;  17.45  32.08 )">(BAT)</text><text style="&st18;" transform="matrix(&st16;  19.31  86.47 )">2</text></g><g ewd:figtype="w2w" ewd:figID="16" ewd:code="hG1"><path style="stroke-width: 1.42 ;&st7;  " d=" M   131.73,   154.19  L   135.98,   158.44  L   140.23,   154.19  " /><path style="stroke-width: 1.42 ;&st7;  " d=" M   140.23,   157.59  L   135.98,   161.84  L   131.73,   157.59  " /><text style="&st18;" transform="matrix(&st16;  123.35  169.48 )">6</text></g><g ewd:figtype="w2w" ewd:figID="17" ewd:code="AG1"><path style="stroke-width: 1.42 ;&st7;  " d=" M   191.22,   157.59  L   186.97,   161.84  L   182.72,   157.59  " /><path style="stroke-width: 1.42 ;&st7;  " d=" M   182.72,   154.19  L   186.97,   158.44  L   191.22,   154.19  " /><text style="&st18;" transform="matrix(&st16;  171.24  169.48 )">16</text></g><g ewd:figtype="w2w" ewd:figID="18" ewd:code="BA1"><path style="stroke-width: 1.42 ;&st7;  " d=" M   369.69,   341.16  L   373.94,   345.41  L   378.19,   341.16  " /><path style="stroke-width: 1.42 ;&st7;  " d=" M   378.19,   344.56  L   373.94,   348.81  L   369.69,   344.56  " /><text style="&st18;" transform="matrix(&st16;  361.31  356.45 )">6</text></g><g ewd:figtype="gp" ewd:figID="24" ewd:code="BD"><path style="stroke-width: 0.85 ;&st7;  " d=" M   372.52,   710.00  L   375.35,   710.00  " /><path style="stroke-width: 0.85 ;&st7;  " d=" M   371.10,   707.17  L   376.77,   707.17  " /><path style="stroke-width: 0.85 ;&st7;  " d=" M   369.69,   704.33  L   378.19,   704.33  " /><path style="stroke-width: 0.85 ;&st7;  " d=" M   365.44,   701.50  L   382.44,   701.50  " /><path style="stroke-width: 0.85 ;&st7;  " d=" M   373.94,   697.25  L   373.94,   701.50  " /></g><g ewd:figtype="gp" ewd:figID="25" ewd:code="GD"><path style="stroke-width: 0.85 ;&st7;  " d=" M   420.68,   704.33  L   429.18,   704.33  " /><path style="stroke-width: 0.85 ;&st7;  " d=" M   424.93,   697.25  L   424.93,   701.50  " /><path style="stroke-width: 0.85 ;&st7;  " d=" M   416.43,   701.50  L   433.43,   701.50  " /><path style="stroke-width: 0.85 ;&st7;  " d=" M   423.51,   710.00  L   426.35,   710.00  " /><path style="stroke-width: 0.85 ;&st7;  " d=" M   422.10,   707.17  L   427.76,   707.17  " /></g><g ewd:code=" " ewd:figID="12" ewd:comment="2,1" ewd:figtype="annex"><path style="stroke-width: 1.42 ;&st7;  " d=" M   280.45,   180.26  L   275.39,   168.89  " /><path style="stroke-width: 0.85 ;&st7;  " d=" M   318.70,   184.50  L   314.45,   188.75  L   299.57,   188.75  L   297.45,   193.00  L   295.33,   188.75  L   280.45,   188.75  L   276.20,   184.50  " /><path style="stroke-width: 1.42 ;&st7;  " d=" M   314.45,   180.26  L   319.51,   168.89  " /><path style="stroke-width: 1.42 ;&st7;  " d=" M   280.45,   180.26  L   285.51,   168.89  " /><path style="stroke-width: 1.42 ;&st7;  " d=" M   314.45,   180.26  L   309.39,   168.89  " /><g ewd:code="" ewd:figID="32" ewd:comment="1,2" ewd:figtype="commref"><text style="&st18;" transform="matrix(&st16;  272.31  200.64 )" ewd:textID="7">No.1 CAN Junction <tspan x="0 " dy="6.0">Connector (*1) </tspan><tspan x="0 " dy="6.0">No.4 CAN Junction </tspan><tspan x="0 " dy="6.0">Connector (*2)</tspan></text></g></g></svg>