﻿<?xml version="1.0" encoding="utf-8"?>
<!DOCTYPE svg PUBLIC "-//W3C//DTD SVG 1.0//EN" "http://www.w3.org/TR/2001/REC-SVG-20010904/DTD/svg10.dtd"[
	<!ENTITY ns_flows "http://ns.adobe.com/Flows/1.0/">
	<!ENTITY ns_svg "http://www.w3.org/2000/svg">
	<!ENTITY ns_xlink "http://www.w3.org/1999/xlink">
	<!ENTITY st0 "font-size:7px;font-family:'MS-PGothic';adobe-font-script:japanese;">
	<!ENTITY st1 "font-size:6px;font-family:'ArialMT';">
	<!-- White fill  -->
	<!ENTITY st2 "fill:#FFFFFF;stroke:#000000; stroke-width:1.41;stroke-linecap:round;stroke-linejoin:round;">
	<!-- Yellow fill  -->
	<!ENTITY st3 "fill:#FFFFCC;stroke:#FFFFCC; stroke-width:0.1;stroke-linecap:round;stroke-linejoin:round;">
	<!-- Gray fill  -->
	<!ENTITY st4 "fill:#CCCCCC;stroke:#CCCCCC; stroke-width:0.1;stroke-linecap:round;stroke-linejoin:round;">
	<!-- Light-blue fill -->
	<!ENTITY st5 "fill:#CCECF4;stroke:#000000; stroke-width:1.133;stroke-linecap:round;stroke-linejoin:round;">
	<!ENTITY st6 "fill:none;stroke-linecap:butt; stroke-linejoin:round;">
	<!ENTITY st7 "fill:none;stroke:#000000;stroke-linecap:round;stroke-linejoin:round;">
	<!ENTITY st8 "enable-background:new    ;">
	<!-- Black fill -->
	<!ENTITY st9 "fill:#000000;stroke:#000000; stroke-linecap:round;stroke-linejoin:round;">
	<!-- SRS note   -->
	<!ENTITY st10 "font-size:9px;font-family:'ArialMT';">
	<!ENTITY st11 "font-size:9px;font-family:'Svg Symbol';">
	<!ENTITY st12 "font-size:6px;font-family:'Svg Symbol';">
	<!ENTITY st13 "fill:none;stroke:#ff0000;stroke-linecap:round;stroke-linejoin:round;">
	<!-- Yellow fill  -->
	<!ENTITY st14 "fill:#FFFF00;stroke:#FFFF00; stroke-width:0.1;stroke-linecap:round;stroke-linejoin:round;">
	<!ENTITY st15 "font-size:6px;font-family:'MS-PGothic';adobe-font-script:japanese;">
	<!ENTITY st16 "1.00 0.00 0.00 1.00">
	<!ENTITY st17 "0.00 -1.00 1.00 0.00">
	<!ENTITY st18 "font-size:6px;font-family:'Arial';">
	<!ENTITY st19 "font-size:9px;font-family:'Arial';">
	<!ENTITY st20 "font-size:6px;font-family:'MS-PGothic','MS PGothic';adobe-font-script:japanese;">
	<!ENTITY st21 "font-size:7px;font-family:'MS-PGothic','MS PGothic';adobe-font-script:japanese;">
	<!ATTLIST svg
		xmlns:ewd CDATA #FIXED "http://shcl.co.jp/ewd"
		xmlns:a CDATA #FIXED "http://ns.adobe.com/AdobeSVGViewerExtensions/3.0/"
		ewd:ver CDATA #IMPLIED
	>
	<!ATTLIST a
		ewd:lineID CDATA #IMPLIED
		ewd:groupID CDATA #IMPLIED
		ewd:figtype CDATA #IMPLIED
		ewd:code CDATA #IMPLIED
		ewd:figID CDATA #IMPLIED
		ewd:pinNo CDATA #IMPLIED
		ewd:comment CDATA #IMPLIED >
	<!ATTLIST g
		ewd:lineID CDATA #IMPLIED
		ewd:groupID CDATA #IMPLIED
		ewd:figtype CDATA #IMPLIED
		ewd:code CDATA #IMPLIED
		ewd:figID CDATA #IMPLIED
		ewd:pinNo CDATA #IMPLIED
		ewd:comment CDATA #IMPLIED >
	<!ATTLIST text
		ewd:textID CDATA #IMPLIED >
	<!ATTLIST title
		ewd:textID CDATA #IMPLIED >
]>
<!-- Generator: Shintec Hozumi YS   -->
<svg onload="call_execInitLoadProc_svg('system')" style="overflow:visible;  enable-background:new 0 0 12366.142 710.000" viewBox="0 0 12366.142 710.000" height="710.000" width="12366.142" xml:space="preserve" ewd:ver="2.1.2.5" xmlns="&ns_svg;" xmlns:a="http://ns.adobe.com/AdobeSVGViewerExtensions/3.0/" xmlns:ewd="http://shcl.co.jp/ewd" xmlns:xlink="&ns_xlink;">
<text style="&st18;" transform="matrix(&st17;  7815.0  132.81 )">BR</text><text style="&st18;" transform="matrix(&st17;  7950.97  148.22 )">G</text><text style="&st18;" transform="matrix(&st17;  7908.48  147.76 )">P</text><text style="&st18;" transform="matrix(&st17;  7874.49  148.07 )">V</text><text style="&st18;" transform="matrix(&st17;  7984.97  147.95 )">Y</text><text style="&st18;" transform="matrix(&st17;  7730.01  141.58 )">GR</text><text style="&st18;" transform="matrix(&st17;  7670.52  141.31 )">BR</text><text style="&st18;" transform="matrix(&st17;  7560.04  147.76 )">P</text><text style="&st18;" transform="matrix(&st17;  7517.55  147.87 )">R</text><text style="&st18;" transform="matrix(&st16;  7509.34  40.58 )">ECM</text><text style="&st18;" transform="matrix(&st16;  7509.33  33.47 )">A62(A),B77(B)</text><path style="stroke-width: 1.42 ;&st7;  " d=" M  7827.19,   159.73  L  7822.22,   154.76  " /><path style="stroke-width: 1.42 ;&st7;  " d=" M  7810.20,   166.79  L  7815.16,   171.76  " /><path style="stroke-width: 1.42 ;&st7;  " d=" M  7822.22,   171.76  L  7827.19,   166.79  " /><path style="stroke-width: 1.42 ;&st7;  " d=" M  7815.16,   154.76  L  7810.20,   159.73  " /><g ewd:figtype="conn" ewd:figID="2" ewd:code="B4"><path style="stroke-width: 1.42 ;&st7;  " d=" M  7652.97,   248.24  L  7652.97,   188.75  L  7695.46,   188.75  L  7695.46,   248.24  L  7652.97,   248.24  " /><path style="stroke-width: 0.85 ;&st7;   " d=" M  7665.72,   227.00  C  7665.72    231.69   7669.52    235.50   7674.22    235.50  " /><path style="stroke-width: 0.85 ;&st7;   " d=" M  7674.22,   235.50  C  7678.91    235.50   7682.72    231.69   7682.72    227.00  " /><path style="stroke-width: 0.85 ;&st7;   " d=" M  7682.72,   210.00  C  7682.72    205.31   7678.91    201.50   7674.22    201.50  " /><path style="stroke-width: 0.85 ;&st7;   " d=" M  7674.22,   201.50  C  7669.52    201.50   7665.72    205.31   7665.72    210.00  " /><path style="stroke-width: 0.85 ;&st7;  " d=" M  7682.72,   210.00  L  7682.72,   227.00  " /><path style="stroke-width: 0.85 ;&st7;  " d=" M  7665.72,   210.00  L  7665.72,   227.00  " /><path style="stroke-width: 0.85 ;&st7;  " d=" M  7674.22,   210.00  L  7674.22,   188.75  " /><path style="stroke-width: 0.85 ;&st7;  " d=" M  7671.38,   225.58  L  7674.22,   227.00  " /><path style="stroke-width: 0.85 ;&st7;  " d=" M  7674.22,   210.00  L  7677.05,   211.42  " /><path style="stroke-width: 0.85 ;&st7;  " d=" M  7677.05,   211.42  L  7671.38,   214.25  " /><path style="stroke-width: 0.85 ;&st7;  " d=" M  7671.38,   214.25  L  7677.05,   217.08  " /><path style="stroke-width: 0.85 ;&st7;  " d=" M  7677.05,   217.08  L  7671.38,   219.92  " /><path style="stroke-width: 0.85 ;&st7;  " d=" M  7671.38,   219.92  L  7677.05,   222.75  " /><path style="stroke-width: 0.85 ;&st7;  " d=" M  7677.05,   222.75  L  7671.38,   225.58  " /><path style="stroke-width: 0.85 ;&st7;  " d=" M  7674.22,   248.24  L  7674.22,   227.00  " /><text style="&st18;" transform="matrix(&st16;  7676.8  244.55 )">THW</text><text style="&st18;" transform="matrix(&st16;  7676.8  196.95 )">E2</text><text style="&st18;" transform="matrix(&st16;  7668.03  185.06 )">1</text><text style="&st18;" transform="matrix(&st16;  7668.03  256.44 )">2</text><g ewd:figtype="title"><text style="&st18;" transform="matrix(&st17;  7703.08  251.14 )">B4</text><text style="&st18;" transform="matrix(&st17;  7710.18  251.15 )" ewd:textID="31">E.F.I. Engine Coolant <tspan x="0 " dy="6.0">Temperature Sensor</tspan></text></g></g><g ewd:figtype="conn" ewd:figID="25" ewd:code="B3"><text style="&st18;" transform="matrix(&st16;  7957.25  324.43 )">VTA</text><text style="&st18;" transform="matrix(&st16;  8017.8  352.2 )">IC2</text><text style="&st18;" transform="matrix(&st16;  7914.76  324.43 )">M-</text><text style="&st18;" transform="matrix(&st16;  7880.77  324.43 )">M+</text><text style="&st18;" transform="matrix(&st16;  8059.24  324.43 )">E2</text><text style="&st18;" transform="matrix(&st16;  8025.24  324.43 )">VTA2</text><text style="&st18;" transform="matrix(&st16;  7991.25  324.43 )">VC</text><text style="&st18;" transform="matrix(&st16;  7949.81  352.2 )">IC1</text><path style="stroke-width: 0.85 ;&st7;  " d=" M  8021.46,   374.72  L  8021.19,   375.19  L  8021.10,   375.72  L  8021.19,   376.26  L  8021.46,   376.73  L  8021.88,   377.07  L  8022.39,   377.26  L  8022.93,   377.26  L  8023.44,   377.07  L  8023.85,   376.73  L  8024.12,   376.26  L  8024.21,   375.72  L  8024.12,   375.19  L  8023.85,   374.72  L  8023.44,   374.37  L  8022.93,   374.19  L  8022.39,   374.19  L  8021.88,   374.37  L  8021.46,   374.72  L  8021.86,   375.43  L  8021.86,   376.01  L  8022.23,   376.46  L  8022.80,   376.56  L  8023.31,   376.27  L  8023.51,   375.72  L  8023.31,   375.18  L  8022.80,   374.89  L  8022.23,   374.99  L  8022.66,   375.72  " /><path style="stroke-width: 0.85 ;&st7;  " d=" M  8022.66,   358.73  L  8022.66,   375.72  " /><path style="stroke-width: 0.85 ;&st7;  " d=" M  8056.65,   316.23  L  8056.65,   375.72  L  7954.67,   375.72  L  7954.67,   358.73  " /><path style="stroke-width: 0.85 ;&st7;  " d=" M  7987.47,   349.22  L  7987.20,   349.69  L  7987.10,   350.23  L  7987.20,   350.76  L  7987.47,   351.23  L  7987.88,   351.58  L  7988.39,   351.76  L  7988.93,   351.76  L  7989.44,   351.58  L  7989.85,   351.23  L  7990.13,   350.76  L  7990.22,   350.23  L  7990.13,   349.69  L  7989.85,   349.22  L  7989.44,   348.88  L  7988.93,   348.69  L  7988.39,   348.69  L  7987.88,   348.88  L  7987.47,   349.22  L  7987.86,   349.94  L  7987.86,   350.52  L  7988.24,   350.96  L  7988.81,   351.06  L  7989.31,   350.77  L  7989.51,   350.23  L  7989.31,   349.68  L  7988.81,   349.39  L  7988.24,   349.49  L  7988.66,   350.23  " /><path style="stroke-width: 0.85 ;&st7;  " d=" M  7988.66,   316.23  L  7988.66,   350.23  " /><path style="stroke-width: 1.42 ;&st7;  " d=" M  8005.66,   341.73  L  8039.65,   341.73  L  8039.65,   358.73  L  8005.66,   358.73  L  8005.66,   341.73  " /><path style="stroke-width: 0.85 ;&st7;  " d=" M  7912.17,   316.23  L  7912.17,   358.73  L  7878.18,   358.73  " /><path style="stroke-width: 0.85 ;&st7;  " d=" M  7878.18,   324.73  L  7878.18,   316.23  " /><path style="stroke-width: 1.42 ;&st7;  " d=" M  7937.67,   341.73  L  7971.66,   341.73  L  7971.66,   358.73  L  7937.67,   358.73  L  7937.67,   341.73  " /><path style="stroke-width: 0.85 ;&st7;  " d=" M  7954.67,   316.23  L  7954.67,   341.73  " /><path style="stroke-width: 0.85 ;&st7;  " d=" M  7971.66,   350.23  L  8005.66,   350.23  " /><path style="stroke-width: 1.42 ;&st7;  " d=" M  7861.18,   316.23  L  7861.18,   384.22  L  8082.15,   384.22  L  8082.15,   316.23  L  7861.18,   316.23  " /><path style="stroke-width: 0.85 ;&st7;  " d=" M  8022.66,   316.23  L  8022.66,   341.73  " /><path style="stroke-width: 0.85 ;&st7;   " d=" M  7875.65,   344.21  C  7877.02    345.60   7879.27    345.63   7880.66    344.26  " /><path style="stroke-width: 0.85 ;&st7;   " d=" M  7880.66,   344.26  C  7882.06    342.89   7882.08    340.65   7880.71    339.25  " /><path style="stroke-width: 0.85 ;&st7;   " d=" M  7880.71,   339.25  C  7879.34    337.85   7877.10    337.83   7875.70    339.20  " /><path style="stroke-width: 0.85 ;&st7;   " d=" M  7875.70,   339.20  C  7875.69    339.22   7875.67    339.23   7875.65    339.25  " /><path style="stroke-width: 0.85 ;&st7;   " d=" M  7875.65,   339.25  C  7877.02    340.65   7879.27    340.67   7880.66    339.30  " /><path style="stroke-width: 0.85 ;&st7;   " d=" M  7880.66,   339.30  C  7882.06    337.93   7882.08    335.69   7880.71    334.29  " /><path style="stroke-width: 0.85 ;&st7;   " d=" M  7880.71,   334.29  C  7880.02    333.58   7879.17    333.23   7878.18    333.23  " /><path style="stroke-width: 0.85 ;&st7;   " d=" M  7878.18,   350.23  C  7880.14    350.23   7881.72    348.64   7881.72    346.69  " /><path style="stroke-width: 0.85 ;&st7;   " d=" M  7881.72,   346.69  C  7881.72    344.73   7880.14    343.14   7878.18    343.14  " /><path style="stroke-width: 0.85 ;&st7;   " d=" M  7878.18,   343.14  C  7877.19    343.14   7876.35    343.50   7875.65    344.21  " /><path style="stroke-width: 0.85 ;&st7;  " d=" M  7878.18,   350.23  L  7878.18,   358.73  " /><path style="stroke-width: 0.85 ;&st7;  " d=" M  7878.18,   324.73  L  7878.18,   333.23  " /><text style="&st18;" transform="matrix(&st16;  7872.0  312.54 )">2</text><text style="&st18;" transform="matrix(&st16;  7905.99  312.54 )">1</text><text style="&st18;" transform="matrix(&st16;  7948.49  312.54 )">6</text><text style="&st18;" transform="matrix(&st16;  7982.48  312.54 )">5</text><text style="&st18;" transform="matrix(&st16;  8016.48  312.54 )">4</text><text style="&st18;" transform="matrix(&st16;  8050.47  312.54 )">3</text><g ewd:figtype="title"><text style="&st18;" transform="matrix(&st16;  7857.78  398.94 )" ewd:textID="78">Throttle Body with Motor Assembly</text><text style="&st18;" transform="matrix(&st16;  7857.77  391.83 )">B3</text></g></g><g ewd:figtype="conn" ewd:figID="71" ewd:code="A62,B77"><g ewd:lineID="181"><text style="&st18;" transform="matrix(&st16;  7509.45  101.77 )">54</text><text style="&st18;" transform="matrix(&st16;  7518.94  101.77 )">A</text><path style="stroke-width: 1.42 ;&st7;   " d=" M  7525.78,    99.80  C  7525.78     97.30   7523.75     95.27   7521.24     95.27  " /><path style="stroke-width: 1.42 ;&st7;   " d=" M  7521.24,    95.27  C  7518.74     95.27   7516.71     97.30   7516.71     99.80  " /><path style="stroke-width: 1.42 ;&st7;   " d=" M  7516.71,    99.80  C  7516.71    102.31   7518.74    104.33   7521.24    104.33  " /><path style="stroke-width: 1.42 ;&st7;   " d=" M  7521.24,   104.33  C  7523.75    104.33   7525.78    102.31   7525.78     99.80  " /><text style="&st18;" transform="matrix(&st16;  7513.59  91.57 )">VPA2</text></g><g ewd:lineID="182"><text style="&st18;" transform="matrix(&st16;  7551.94  101.77 )">55</text><path style="stroke-width: 1.42 ;&st7;   " d=" M  7568.27,    99.80  C  7568.27     97.30   7566.24     95.27   7563.74     95.27  " /><path style="stroke-width: 1.42 ;&st7;   " d=" M  7563.74,    95.27  C  7561.23     95.27   7559.20     97.30   7559.20     99.80  " /><path style="stroke-width: 1.42 ;&st7;   " d=" M  7559.20,    99.80  C  7559.20    102.31   7561.23    104.33   7563.74    104.33  " /><path style="stroke-width: 1.42 ;&st7;   " d=" M  7563.74,   104.33  C  7566.24    104.33   7568.27    102.31   7568.27     99.80  " /><text style="&st18;" transform="matrix(&st16;  7561.43  101.77 )">A</text><text style="&st18;" transform="matrix(&st16;  7556.27  91.57 )">EPA2</text></g><g ewd:lineID="183"><text style="&st18;" transform="matrix(&st16;  7662.42  101.77 )">96</text><text style="&st18;" transform="matrix(&st16;  7672.03  101.77 )">B</text><path style="stroke-width: 1.42 ;&st7;   " d=" M  7678.75,    99.80  C  7678.75     97.30   7676.72     95.27   7674.22     95.27  " /><path style="stroke-width: 1.42 ;&st7;   " d=" M  7674.22,    95.27  C  7671.71     95.27   7669.69     97.30   7669.69     99.80  " /><path style="stroke-width: 1.42 ;&st7;   " d=" M  7669.69,    99.80  C  7669.69    102.31   7671.71    104.33   7674.22    104.33  " /><path style="stroke-width: 1.42 ;&st7;   " d=" M  7674.22,   104.33  C  7676.72    104.33   7678.75    102.31   7678.75     99.80  " /><text style="&st18;" transform="matrix(&st16;  7665.21  91.57 )">ETHW</text></g><g ewd:lineID="184"><text style="&st18;" transform="matrix(&st16;  7721.91  101.77 )">95</text><path style="stroke-width: 1.42 ;&st7;   " d=" M  7738.24,    99.80  C  7738.24     97.30   7736.21     95.27   7733.71     95.27  " /><path style="stroke-width: 1.42 ;&st7;   " d=" M  7733.71,    95.27  C  7731.20     95.27   7729.18     97.30   7729.18     99.80  " /><path style="stroke-width: 1.42 ;&st7;   " d=" M  7729.18,    99.80  C  7729.18    102.31   7731.20    104.33   7733.71    104.33  " /><path style="stroke-width: 1.42 ;&st7;   " d=" M  7733.71,   104.33  C  7736.21    104.33   7738.24    102.31   7738.24     99.80  " /><text style="&st18;" transform="matrix(&st16;  7731.52  101.77 )">B</text><text style="&st18;" transform="matrix(&st16;  7726.56  91.57 )">THW</text></g><g ewd:lineID="185"><text style="&st18;" transform="matrix(&st16;  7806.9  101.77 )">59</text><text style="&st18;" transform="matrix(&st16;  7816.51  101.77 )">B</text><path style="stroke-width: 1.42 ;&st7;   " d=" M  7823.23,    99.80  C  7823.23     97.30   7821.20     95.27   7818.69     95.27  " /><path style="stroke-width: 1.42 ;&st7;   " d=" M  7818.69,    95.27  C  7816.19     95.27   7814.16     97.30   7814.16     99.80  " /><path style="stroke-width: 1.42 ;&st7;   " d=" M  7814.16,    99.80  C  7814.16    102.31   7816.19    104.33   7818.69    104.33  " /><path style="stroke-width: 1.42 ;&st7;   " d=" M  7818.69,   104.33  C  7821.20    104.33   7823.23    102.31   7823.23     99.80  " /><text style="&st18;" transform="matrix(&st16;  7811.27  91.57 )">GE01</text></g><g ewd:lineID="186"><text style="&st18;" transform="matrix(&st16;  7866.39  101.77 )">60</text><text style="&st18;" transform="matrix(&st16;  7876.0  101.77 )">B</text><path style="stroke-width: 1.42 ;&st7;   " d=" M  7882.72,    99.80  C  7882.72     97.30   7880.69     95.27   7878.18     95.27  " /><path style="stroke-width: 1.42 ;&st7;   " d=" M  7878.18,    95.27  C  7875.68     95.27   7873.65     97.30   7873.65     99.80  " /><path style="stroke-width: 1.42 ;&st7;   " d=" M  7873.65,    99.80  C  7873.65    102.31   7875.68    104.33   7878.18    104.33  " /><path style="stroke-width: 1.42 ;&st7;   " d=" M  7878.18,   104.33  C  7880.69    104.33   7882.72    102.31   7882.72     99.80  " /><text style="&st18;" transform="matrix(&st16;  7873.9  91.57 )">M+</text></g><g ewd:lineID="187"><text style="&st18;" transform="matrix(&st16;  7900.38  101.77 )">30</text><path style="stroke-width: 1.42 ;&st7;   " d=" M  7916.71,    99.80  C  7916.71     97.30   7914.68     95.27   7912.18     95.27  " /><path style="stroke-width: 1.42 ;&st7;   " d=" M  7912.18,    95.27  C  7909.67     95.27   7907.65     97.30   7907.65     99.80  " /><path style="stroke-width: 1.42 ;&st7;   " d=" M  7907.65,    99.80  C  7907.65    102.31   7909.67    104.33   7912.18    104.33  " /><path style="stroke-width: 1.42 ;&st7;   " d=" M  7912.18,   104.33  C  7914.68    104.33   7916.71    102.31   7916.71     99.80  " /><text style="&st18;" transform="matrix(&st16;  7909.99  101.77 )">B</text><text style="&st18;" transform="matrix(&st16;  7907.9  91.57 )">M-</text></g><g ewd:lineID="188"><text style="&st18;" transform="matrix(&st16;  7939.77  101.77 )">127</text><path style="stroke-width: 1.42 ;&st7;   " d=" M  7959.20,    99.80  C  7959.20     97.30   7957.17     95.27   7954.67     95.27  " /><path style="stroke-width: 1.42 ;&st7;   " d=" M  7954.67,    95.27  C  7952.17     95.27   7950.14     97.30   7950.14     99.80  " /><path style="stroke-width: 1.42 ;&st7;   " d=" M  7950.14,    99.80  C  7950.14    102.31   7952.17    104.33   7954.67    104.33  " /><path style="stroke-width: 1.42 ;&st7;   " d=" M  7954.67,   104.33  C  7957.17    104.33   7959.20    102.31   7959.20     99.80  " /><text style="&st18;" transform="matrix(&st16;  7952.48  101.77 )">B</text><text style="&st18;" transform="matrix(&st16;  7946.82  91.57 )">VTA1</text></g><g ewd:lineID="189"><text style="&st18;" transform="matrix(&st16;  7973.77  101.77 )">125</text><path style="stroke-width: 1.42 ;&st7;   " d=" M  7993.20,    99.80  C  7993.20     97.30   7991.17     95.27   7988.67     95.27  " /><path style="stroke-width: 1.42 ;&st7;   " d=" M  7988.67,    95.27  C  7986.16     95.27   7984.13     97.30   7984.13     99.80  " /><path style="stroke-width: 1.42 ;&st7;   " d=" M  7984.13,    99.80  C  7984.13    102.31   7986.16    104.33   7988.67    104.33  " /><path style="stroke-width: 1.42 ;&st7;   " d=" M  7988.67,   104.33  C  7991.17    104.33   7993.20    102.31   7993.20     99.80  " /><text style="&st18;" transform="matrix(&st16;  7986.48  101.77 )">B</text><text style="&st18;" transform="matrix(&st16;  7980.2  91.57 )">VCTA</text></g></g><g ewd:code=" " ewd:figID="228" ewd:comment=" " ewd:figtype="sh"><path style="stroke-width: 0.85 ;&st7; stroke-dasharray:3, 1.5;" d=" M  7852.68,   163.26  L  7929.17,   163.26  L  7929.17,   129.26  L  7852.68,   129.26  L  7852.68,   163.26  " /><path style="stroke-width: 0.85 ;&st7;  " d=" M  7851.49,   162.26  L  7851.22,   162.73  L  7851.13,   163.26  L  7851.22,   163.79  L  7851.49,   164.26  L  7851.91,   164.61  L  7852.42,   164.79  L  7852.95,   164.79  L  7853.46,   164.61  L  7853.88,   164.26  L  7854.15,   163.79  L  7854.24,   163.26  L  7854.15,   162.73  L  7853.88,   162.26  L  7853.46,   161.91  L  7852.95,   161.72  L  7852.42,   161.72  L  7851.91,   161.91  L  7851.49,   162.26  L  7851.89,   162.97  L  7851.89,   163.55  L  7852.26,   163.99  L  7852.83,   164.09  L  7853.34,   163.80  L  7853.53,   163.26  L  7853.34,   162.71  L  7852.83,   162.42  L  7852.26,   162.52  L  7852.68,   163.26  " /><g ewd:code="" ewd:figID="223" ewd:comment=" " ewd:figtype="commref"><text style="&st18;" transform="matrix(&st17;  7848.99  158.5 )" ewd:textID="1">(Shielded)</text></g></g></svg>