﻿<?xml version="1.0" encoding="utf-8"?>
<!DOCTYPE svg PUBLIC "-//W3C//DTD SVG 1.0//EN" "http://www.w3.org/TR/2001/REC-SVG-20010904/DTD/svg10.dtd"[
	<!ENTITY ns_flows "http://ns.adobe.com/Flows/1.0/">
	<!ENTITY ns_svg "http://www.w3.org/2000/svg">
	<!ENTITY ns_xlink "http://www.w3.org/1999/xlink">
	<!ENTITY st0 "font-size:7px;font-family:'MS-PGothic';adobe-font-script:japanese;">
	<!ENTITY st1 "font-size:6px;font-family:'ArialMT';">
	<!-- White fill  -->
	<!ENTITY st2 "fill:#FFFFFF;stroke:#000000; stroke-width:1.41;stroke-linecap:round;stroke-linejoin:round;">
	<!-- Yellow fill  -->
	<!ENTITY st3 "fill:#FFFFCC;stroke:#FFFFCC; stroke-width:0.1;stroke-linecap:round;stroke-linejoin:round;">
	<!-- Gray fill  -->
	<!ENTITY st4 "fill:#CCCCCC;stroke:#CCCCCC; stroke-width:0.1;stroke-linecap:round;stroke-linejoin:round;">
	<!-- Light-blue fill -->
	<!ENTITY st5 "fill:#CCECF4;stroke:#000000; stroke-width:1.133;stroke-linecap:round;stroke-linejoin:round;">
	<!ENTITY st6 "fill:none;stroke-linecap:butt; stroke-linejoin:round;">
	<!ENTITY st7 "fill:none;stroke:#000000;stroke-linecap:round;stroke-linejoin:round;">
	<!ENTITY st8 "enable-background:new    ;">
	<!-- Black fill -->
	<!ENTITY st9 "fill:#000000;stroke:#000000; stroke-linecap:round;stroke-linejoin:round;">
	<!-- SRS note   -->
	<!ENTITY st10 "font-size:9px;font-family:'ArialMT';">
	<!ENTITY st11 "font-size:9px;font-family:'Svg Symbol';">
	<!ENTITY st12 "font-size:6px;font-family:'Svg Symbol';">
	<!ENTITY st13 "fill:none;stroke:#ff0000;stroke-linecap:round;stroke-linejoin:round;">
	<!-- Yellow fill  -->
	<!ENTITY st14 "fill:#FFFF00;stroke:#FFFF00; stroke-width:0.1;stroke-linecap:round;stroke-linejoin:round;">
	<!ENTITY st15 "font-size:6px;font-family:'MS-PGothic';adobe-font-script:japanese;">
	<!ENTITY st16 "1.00 0.00 0.00 1.00">
	<!ENTITY st17 "0.00 -1.00 1.00 0.00">
	<!ENTITY st18 "font-size:6px;font-family:'Arial';">
	<!ENTITY st19 "font-size:9px;font-family:'Arial';">
	<!ENTITY st20 "font-size:6px;font-family:'MS-PGothic','MS PGothic';adobe-font-script:japanese;">
	<!ENTITY st21 "font-size:7px;font-family:'MS-PGothic','MS PGothic';adobe-font-script:japanese;">
	<!ATTLIST svg
		xmlns:ewd CDATA #FIXED "http://shcl.co.jp/ewd"
		xmlns:a CDATA #FIXED "http://ns.adobe.com/AdobeSVGViewerExtensions/3.0/"
		ewd:ver CDATA #IMPLIED
	>
	<!ATTLIST a
		ewd:lineID CDATA #IMPLIED
		ewd:groupID CDATA #IMPLIED
		ewd:figtype CDATA #IMPLIED
		ewd:code CDATA #IMPLIED
		ewd:figID CDATA #IMPLIED
		ewd:pinNo CDATA #IMPLIED
		ewd:comment CDATA #IMPLIED >
	<!ATTLIST g
		ewd:lineID CDATA #IMPLIED
		ewd:groupID CDATA #IMPLIED
		ewd:figtype CDATA #IMPLIED
		ewd:code CDATA #IMPLIED
		ewd:figID CDATA #IMPLIED
		ewd:pinNo CDATA #IMPLIED
		ewd:comment CDATA #IMPLIED >
	<!ATTLIST text
		ewd:textID CDATA #IMPLIED >
	<!ATTLIST title
		ewd:textID CDATA #IMPLIED >
]>
<!-- Generator: Shintec Hozumi YS   -->
<svg onload="call_execInitLoadProc_svg('system')" style="overflow:visible;  enable-background:new 0 0 989.831 710.000" viewBox="0 0 989.831 710.000" height="710.000" width="989.831" xml:space="preserve" ewd:ver="2.1.2.5" xmlns="&ns_svg;" xmlns:a="http://ns.adobe.com/AdobeSVGViewerExtensions/3.0/" xmlns:ewd="http://shcl.co.jp/ewd" xmlns:xlink="&ns_xlink;"><script type="text/javascript" xlink:href="../../../../../system/js/ewd/fig/svgfig.js" xmlns:xlink="http://www.w3.org/1999/xlink" />
<g id="ewd_top"><a ewd:figtype="conn" style="cursor:pointer;" ewd:code="A7" ewd:figID="1"><path style="fill:#CCECF4;stroke:#000000; stroke-width:1.33; stroke-linecap:round;stroke-linejoin:round; " d=" M   637.39,   588.19  L   637.39,   494.70  L   824.36,   494.70  L   824.36,   588.19  L   637.39,   588.19 " /><title ewd:textID="15">Windshield Wiper Motor Assembly</title></a><a ewd:figtype="conn" style="cursor:pointer;" ewd:code="A45" ewd:figID="2"><path style="fill:#CCECF4;stroke:#000000; stroke-width:1.33; stroke-linecap:round;stroke-linejoin:round; " d=" M   896.60,   249.38  L   896.60,   249.38  L   896.60,   245.41  L   905.10,   245.41  L   905.10,   249.38  C   906.45    250.16    907.43    251.14    908.21    252.49  L   908.21,   252.49  C   910.56    256.55    909.17    261.75    905.10    264.10  L   905.10,   264.10  L   905.10,   268.07  L   896.60,   268.07  L   896.60,   264.10  C   895.25    263.32    894.27    262.34    893.49    260.99  L   893.49,   260.99  C   891.14    256.92    892.54    251.73    896.60    249.38 " /><title ewd:textID="14">Windshield Washer Motor and Pump Assembly</title></a><a ewd:figtype="conn" style="cursor:pointer;" ewd:code="G10,G11" ewd:figID="3"><path style="fill:#CCECF4;stroke:#000000; stroke-width:1.33; stroke-linecap:round;stroke-linejoin:round; " d=" M    25.50,    18.78  L    25.50,   681.67  L   424.93,   681.67  L   424.93,    18.78  L    25.50,    18.78 " /><title ewd:textID="16">Windshield Wiper Switch Assembly</title></a><a ewd:figtype="jb" style="cursor:pointer;" ewd:code="3" ewd:figID="4"><path style="&st4; " d=" M   883.85,   460.71  L   909.35,   460.71  L   909.35,   409.72  L   883.85,   409.72  L   883.85,   460.71  " /></a><a ewd:figtype="jb" style="cursor:pointer;" ewd:code="3" ewd:figID="5"><path style="&st4; " d=" M   637.39,   460.71  L   637.39,   409.72  L   662.89,   409.72  L   662.89,   460.71  L   637.39,   460.71  " /></a><a ewd:figtype="jb" style="cursor:pointer;" ewd:code="3" ewd:figID="6"><path style="&st4; " d=" M   594.90,   120.77  L   985.84,   120.77  L   985.84,    35.78  L   594.90,    35.78  L   594.90,   120.77  " /></a><a ewd:figtype="fuse" style="cursor:pointer;" ewd:code="FUSE66" ewd:figID="13"><path style="&st7; stroke-width:0;" d=" M   786.12,    78.27  L   786.12,    35.78  L   760.62,    35.78  L   760.62,    78.27  L   786.12,    78.27 " /></a><a ewd:figtype="fuse" style="cursor:pointer;" ewd:code="FUSE61" ewd:figID="14"><path style="&st7; stroke-width:0;" d=" M   964.59,    78.27  L   964.59,    35.78  L   939.09,    35.78  L   939.09,    78.27  L   964.59,    78.27 " /></a><a style="cursor:pointer;" ewd:lineID="1"><path style="stroke:#FF0000;stroke-width: 5.10 ;&st6;" d=" M   433.99,   622.18  L   900.85,   622.18  L   900.85,   460.71  " /></a><a style="cursor:pointer;" ewd:lineID="2"><path style="stroke:#FF0000;stroke-width: 5.10 ;&st6;" d=" M   433.99,   392.72  L   654.39,   392.72  L   654.39,   409.72  " /></a><a style="cursor:pointer;" ewd:lineID="3"><path style="stroke:#000000;stroke-width: 5.10 ;&st6;" d=" M   433.99,   367.22  L   713.88,   367.22  L   713.88,   403.48  " /></a><a style="cursor:pointer;" ewd:lineID="4"><path style="stroke:#000000;stroke-width: 5.10 ;&st6;" d=" M   467.42,   681.67  L   467.42,   571.19  L   433.99,   571.19  " /><path style="stroke:#FFFFFF;stroke-width: 4.53 ;&st6;" d=" M   467.42,   681.67  L   467.42,   571.19  L   433.99,   571.19  " /><path style="stroke:#000000;stroke-width: 1.13 ;&st6;" d=" M   467.42,   681.67  L   467.42,   571.19  L   433.99,   571.19  " /></a><a style="cursor:pointer;" ewd:lineID="5"><path style="stroke:#000000;stroke-width: 5.10 ;&st6;" d=" M   586.40,   596.69  L   586.40,   681.67  " /><path style="stroke:#FFFFFF;stroke-width: 4.53 ;&st6;" d=" M   586.40,   596.69  L   586.40,   681.67  " /><path style="stroke:#000000;stroke-width: 1.13 ;&st6;" d=" M   586.40,   596.69  L   586.40,   681.67  " /></a><a style="cursor:pointer;" ewd:lineID="6"><path style="stroke:#00A0C6;stroke-width: 5.10 ;&st6;" d=" M   611.90,   120.77  L   611.90,   418.22  L   433.99,   418.22  " /></a><a style="cursor:pointer;" ewd:lineID="7"><path style="stroke:#000000;stroke-width: 5.10 ;&st6;" d=" M   654.39,   588.19  L   654.39,   605.18  L   620.40,   605.18  L   620.40,   545.69  L   586.40,   545.69  L   586.40,   579.69  " /><path style="stroke:#FFFFFF;stroke-width: 4.53 ;&st6;" d=" M   654.39,   588.19  L   654.39,   605.18  L   620.40,   605.18  L   620.40,   545.69  L   586.40,   545.69  L   586.40,   579.69  " /><path style="stroke:#000000;stroke-width: 1.13 ;&st6;" d=" M   654.39,   588.19  L   654.39,   605.18  L   620.40,   605.18  L   620.40,   545.69  L   586.40,   545.69  L   586.40,   579.69  " /></a><a style="cursor:pointer;" ewd:lineID="8"><path style="stroke:#FF0000;stroke-width: 5.10 ;&st6;" d=" M   654.39,   460.71  L   654.39,   494.70  " /></a><a style="cursor:pointer;" ewd:lineID="9"><path style="stroke:#000000;stroke-width: 5.10 ;&st6;" d=" M   713.88,   418.22  L   713.88,   494.70  " /></a><a style="cursor:pointer;" ewd:lineID="10"><path style="stroke:#00A0C6;stroke-width: 5.10 ;&st6;" d=" M   773.37,   120.77  L   773.37,   494.70  " /></a><a style="cursor:pointer;" ewd:lineID="11"><path style="stroke:#008837;stroke-width: 5.10 ;&st6;" d=" M   807.37,   494.70  L   807.37,   418.22  " /></a><a style="cursor:pointer;" ewd:lineID="12"><path style="stroke:#008837;stroke-width: 5.10 ;&st6;" d=" M   807.37,   403.48  L   807.37,   341.73  L   433.99,   341.73  " /></a><a style="cursor:pointer;" ewd:lineID="13"> d=" M   809.35,   154.76  L   467.42,   154.76  L   467.42,    35.78  L   433.99,    35.78 
	
		<path style="stroke:#000000;stroke-width: 5.10 ;&st6;" d=" M   809.35,   154.76  L   467.42,   154.76  L   467.42,    35.78  L   433.99,    35.78  " /><path style="stroke:#FFFFFF;stroke-width: 4.53 ;&st6;" d=" M   809.35,   154.76  L   467.42,   154.76  L   467.42,    35.78  L   433.99,    35.78  " /></a><a style="cursor:pointer;" ewd:lineID="14"> d=" M   832.86,   154.76  L   900.85,   154.76  L   900.85,   245.41 
	
		<path style="stroke:#000000;stroke-width: 5.10 ;&st6;" d=" M   832.86,   154.76  L   900.85,   154.76  L   900.85,   245.41  " /><path style="stroke:#FFFFFF;stroke-width: 4.53 ;&st6;" d=" M   832.86,   154.76  L   900.85,   154.76  L   900.85,   245.41  " /></a><a style="cursor:pointer;" ewd:lineID="15"><path style="stroke:#FF0000;stroke-width: 5.10 ;&st6;" d=" M   900.85,   268.07  L   900.85,   409.72  " /></a><a style="cursor:pointer;" ewd:lineID="16"><path style="stroke:#00A0C6;stroke-width: 5.10 ;&st6;" d=" M   951.84,   120.77  L   951.84,   647.68  L   433.99,   647.68  " /></a><a ewd:figtype="w2w" style="cursor:pointer;" ewd:pinNo="20" ewd:code="AG3" ewd:figID="7"><path style="&st2;" d=" M   722.38,   409.72  L   705.38,   409.72  L   705.38,   418.22  L   722.38,   418.22  L   722.38,   409.72 " /><text style="&st8;" transform="matrix(&st16;  708.24  416.09 )"><tspan x="0" style="&st18;" y="0">AG3</tspan></text></a><a ewd:figtype="w2w" style="cursor:pointer;" ewd:pinNo="1" ewd:code="AG3" ewd:figID="8"><path style="&st2;" d=" M   815.86,   409.72  L   798.87,   409.72  L   798.87,   418.22  L   815.86,   418.22  L   815.86,   409.72 " /><text style="&st8;" transform="matrix(&st16;  801.72  416.09 )"><tspan x="0" style="&st18;" y="0">AG3</tspan></text></a><a ewd:figtype="w2w" style="cursor:pointer;" ewd:pinNo="12" ewd:code="AG4" ewd:figID="9"><path style="&st2;" d=" M   832.86,   150.51  L   815.86,   150.51  L   815.86,   159.01  L   832.86,   159.01  L   832.86,   150.51 " /><text style="&st8;" transform="matrix(&st16;  818.72  156.88 )"><tspan x="0" style="&st18;" y="0">AG4</tspan></text></a><a ewd:figtype="gp" style="cursor:pointer;" ewd:code="GD" ewd:figID="10"><path style="&st2;" d=" M   456.80,   681.67  L   478.05,   681.67  L   467.42,   697.25  L   456.80,   681.67 " /><text style="&st8;" transform="matrix(&st16;  463.21  689.46 )"><tspan x="0" style="&st18;" y="0">GD</tspan></text></a><a ewd:figtype="gp" style="cursor:pointer;" ewd:code="AB" ewd:figID="11"><path style="&st2;" d=" M   575.78,   681.67  L   597.03,   681.67  L   586.40,   697.25  L   575.78,   681.67 " /><text style="&st8;" transform="matrix(&st16;  582.53  689.46 )"><tspan x="0" style="&st18;" y="0">AB</tspan></text></a><a ewd:figtype="sp" style="cursor:pointer;" ewd:code="SP2" ewd:figID="12"><path style="&st2;" d=" M   582.15,   579.69  L   590.65,   579.69  L   594.90,   583.94  L   594.90,   592.44  L   590.65,   596.69  L   582.15,   596.69  L   577.90,   592.44  L   577.90,   583.94  L   582.15,   579.69 " /></a></g></svg>