﻿<?xml version="1.0" encoding="utf-8"?>
<!DOCTYPE svg PUBLIC "-//W3C//DTD SVG 1.0//EN" "http://www.w3.org/TR/2001/REC-SVG-20010904/DTD/svg10.dtd"[
	<!ENTITY ns_flows "http://ns.adobe.com/Flows/1.0/">
	<!ENTITY ns_svg "http://www.w3.org/2000/svg">
	<!ENTITY ns_xlink "http://www.w3.org/1999/xlink">
	<!ENTITY st0 "font-size:7px;font-family:'MS-PGothic';adobe-font-script:japanese;">
	<!ENTITY st1 "font-size:6px;font-family:'ArialMT';">
	<!-- White fill  -->
	<!ENTITY st2 "fill:#FFFFFF;stroke:#000000; stroke-width:1.41;stroke-linecap:round;stroke-linejoin:round;">
	<!-- Yellow fill  -->
	<!ENTITY st3 "fill:#FFFFCC;stroke:#FFFFCC; stroke-width:0.1;stroke-linecap:round;stroke-linejoin:round;">
	<!-- Gray fill  -->
	<!ENTITY st4 "fill:#CCCCCC;stroke:#CCCCCC; stroke-width:0.1;stroke-linecap:round;stroke-linejoin:round;">
	<!-- Light-blue fill -->
	<!ENTITY st5 "fill:#CCECF4;stroke:#000000; stroke-width:1.133;stroke-linecap:round;stroke-linejoin:round;">
	<!ENTITY st6 "fill:none;stroke-linecap:butt; stroke-linejoin:round;">
	<!ENTITY st7 "fill:none;stroke:#000000;stroke-linecap:round;stroke-linejoin:round;">
	<!ENTITY st8 "enable-background:new    ;">
	<!-- Black fill -->
	<!ENTITY st9 "fill:#000000;stroke:#000000; stroke-linecap:round;stroke-linejoin:round;">
	<!-- SRS note   -->
	<!ENTITY st10 "font-size:9px;font-family:'ArialMT';">
	<!ENTITY st11 "font-size:9px;font-family:'Svg Symbol';">
	<!ENTITY st12 "font-size:6px;font-family:'Svg Symbol';">
	<!ENTITY st13 "fill:none;stroke:#ff0000;stroke-linecap:round;stroke-linejoin:round;">
	<!-- Yellow fill  -->
	<!ENTITY st14 "fill:#FFFF00;stroke:#FFFF00; stroke-width:0.1;stroke-linecap:round;stroke-linejoin:round;">
	<!ENTITY st15 "font-size:6px;font-family:'MS-PGothic';adobe-font-script:japanese;">
	<!ENTITY st16 "1.00 0.00 0.00 1.00">
	<!ENTITY st17 "0.00 -1.00 1.00 0.00">
	<!ENTITY st18 "font-size:6px;font-family:'Arial';">
	<!ENTITY st19 "font-size:9px;font-family:'Arial';">
	<!ENTITY st20 "font-size:6px;font-family:'MS-PGothic','MS PGothic';adobe-font-script:japanese;">
	<!ENTITY st21 "font-size:7px;font-family:'MS-PGothic','MS PGothic';adobe-font-script:japanese;">
	<!ATTLIST svg
		xmlns:ewd CDATA #FIXED "http://shcl.co.jp/ewd"
		xmlns:a CDATA #FIXED "http://ns.adobe.com/AdobeSVGViewerExtensions/3.0/"
		ewd:ver CDATA #IMPLIED
	>
	<!ATTLIST a
		ewd:lineID CDATA #IMPLIED
		ewd:groupID CDATA #IMPLIED
		ewd:figtype CDATA #IMPLIED
		ewd:code CDATA #IMPLIED
		ewd:figID CDATA #IMPLIED
		ewd:pinNo CDATA #IMPLIED
		ewd:comment CDATA #IMPLIED >
	<!ATTLIST g
		ewd:lineID CDATA #IMPLIED
		ewd:groupID CDATA #IMPLIED
		ewd:figtype CDATA #IMPLIED
		ewd:code CDATA #IMPLIED
		ewd:figID CDATA #IMPLIED
		ewd:pinNo CDATA #IMPLIED
		ewd:comment CDATA #IMPLIED >
	<!ATTLIST text
		ewd:textID CDATA #IMPLIED >
	<!ATTLIST title
		ewd:textID CDATA #IMPLIED >
]>
<!-- Generator: Shintec Hozumi YS   -->
<svg onload="call_execInitLoadProc_svg('system')" style="overflow:visible;  enable-background:new 0 0 3589.773 710.000" viewBox="0 0 3589.773 710.000" height="710.000" width="3589.773" xml:space="preserve" ewd:ver="2.1.2.5" xmlns="&ns_svg;" xmlns:a="http://ns.adobe.com/AdobeSVGViewerExtensions/3.0/" xmlns:ewd="http://shcl.co.jp/ewd" xmlns:xlink="&ns_xlink;">
<path style="stroke-width: 1.42 ;&st7;  " d=" M  1602.70,   256.74  L  1597.73,   261.71  " /><path style="stroke-width: 1.42 ;&st7;  " d=" M  1609.76,   273.74  L  1614.73,   268.77  " /><path style="stroke-width: 1.42 ;&st7;  " d=" M  1597.73,   268.77  L  1602.70,   273.74  " /><path style="stroke-width: 1.42 ;&st7;  " d=" M  1614.73,   261.71  L  1609.76,   256.74  " /><path style="stroke-width: 1.42 ;&st7;  " d=" M  1614.73,   205.75  L  1606.23,   205.75  " /><path style="stroke-width: 1.42 ;&st7;  " d=" M  1742.21,   261.71  L  1737.24,   256.74  " /><path style="stroke-width: 1.42 ;&st7;  " d=" M  1725.21,   268.77  L  1730.18,   273.74  " /><path style="stroke-width: 1.42 ;&st7;  " d=" M  1737.24,   273.74  L  1742.21,   268.77  " /><path style="stroke-width: 1.42 ;&st7;  " d=" M  1730.18,   256.74  L  1725.21,   261.71  " /><path style="stroke-width: 1.42 ;&st7;  " d=" M  1793.20,   287.21  L  1788.23,   282.24  " /><path style="stroke-width: 1.42 ;&st7;  " d=" M  1776.20,   294.27  L  1781.17,   299.24  " /><path style="stroke-width: 1.42 ;&st7;  " d=" M  1788.23,   299.24  L  1793.20,   294.27  " /><path style="stroke-width: 1.42 ;&st7;  " d=" M  1781.17,   282.24  L  1776.20,   287.21  " /><path style="stroke-width: 1.42 ;&st7;  " d=" M  1997.17,   294.27  L  2002.14,   299.24  " /><path style="stroke-width: 1.42 ;&st7;  " d=" M  2002.14,   282.24  L  1997.17,   287.21  " /><path style="stroke-width: 1.42 ;&st7;  " d=" M  1869.69,   491.18  L  1864.72,   486.20  " /><path style="stroke-width: 1.42 ;&st7;  " d=" M  1852.69,   498.23  L  1857.66,   503.20  " /><path style="stroke-width: 1.42 ;&st7;  " d=" M  1864.72,   503.20  L  1869.69,   498.23  " /><path style="stroke-width: 1.42 ;&st7;  " d=" M  1857.66,   486.20  L  1852.69,   491.18  " /><text style="&st18;" transform="matrix(&st17;  1602.54  167.08 )">GR</text><text style="&st18;" transform="matrix(&st17;  1509.05  173.37 )">R</text><text style="&st18;" transform="matrix(&st16;  1900.72  287.04 )">W</text><text style="&st18;" transform="matrix(&st16;  1790.24  261.54 )">W</text><text style="&st18;" transform="matrix(&st17;  1602.54  242.21 )">W</text><text style="&st18;" transform="matrix(&st17;  1602.54  318.7 )">W</text><text style="&st18;" transform="matrix(&st17;  1613.87  320.95 )">(*5)</text><text style="&st18;" transform="matrix(&st17;  1653.53  318.7 )">W</text><text style="&st18;" transform="matrix(&st17;  1664.86  320.95 )">(*5)</text><text style="&st18;" transform="matrix(&st17;  1730.01  318.7 )">W</text><text style="&st18;" transform="matrix(&st17;  1741.35  320.95 )">(*6)</text><text style="&st18;" transform="matrix(&st17;  1792.34  320.95 )">(*6)</text><text style="&st18;" transform="matrix(&st17;  1781.01  318.7 )">W</text><text style="&st18;" transform="matrix(&st17;  1950.98  318.7 )">W</text><text style="&st18;" transform="matrix(&st17;  1882.99  437.68 )">W</text><text style="&st18;" transform="matrix(&st17;  1857.49  437.68 )">W</text><text style="&st18;" transform="matrix(&st17;  1781.01  420.68 )">W</text><text style="&st18;" transform="matrix(&st17;  1792.34  422.93 )">(*6)</text><text style="&st18;" transform="matrix(&st17;  1653.53  420.68 )">W</text><text style="&st18;" transform="matrix(&st17;  1664.86  422.93 )">(*5)</text><text style="&st18;" transform="matrix(&st17;  1857.49  526.91 )">W</text><text style="&st18;" transform="matrix(&st17;  1857.49  615.39 )">W-B</text><text style="&st18;" transform="matrix(&st17;  1916.98  369.69 )">W</text><text style="&st18;" transform="matrix(&st16;  1662.76  261.54 )">W</text><text style="&st18;" transform="matrix(&st16;  1502.25  338.03 )">P</text><path style="stroke-width: 1.42 ;&st7;  " d=" M  1852.69,   562.69  L  1861.19,   562.69  " /><text style="&st18;" transform="matrix(&st16;  1577.77  592.99 )">W</text><text style="&st18;" transform="matrix(&st16;  1526.78  592.99 )">W</text><text style="&st18;" transform="matrix(&st16;  1755.79  24.98 )">G78(A)</text><text style="&st18;" transform="matrix(&st16;  1755.8  32.08 )" ewd:textID="23">Main Body ECU</text><g ewd:figtype="conn" ewd:figID="7" ewd:code="Q9"><path style="stroke-width: 1.42 ;&st7;  " d=" M  1937.68,   350.23  L  1937.68,   392.72  L  2022.66,   392.72  L  2022.66,   350.23  L  1937.68,   350.23  " /><g ewd:lineID="50"><text style="&st18;" transform="matrix(&st16;  1948.49  346.54 )">3</text><text style="&st18;" transform="matrix(&st16;  1948.38  357.86 )">CTY</text></g><g ewd:lineID="51"><text style="&st18;" transform="matrix(&st16;  1999.48  400.91 )">2</text></g><g ewd:lineID="52"><text style="&st18;" transform="matrix(&st16;  1999.48  346.54 )">1</text></g></g><g ewd:figtype="conn" ewd:figID="8" ewd:code="Q11"><path style="stroke-width: 1.42 ;&st7;  " d=" M  1716.71,   350.23  L  1716.71,   392.72  L  1801.70,   392.72  L  1801.70,   350.23  L  1716.71,   350.23  " /><g ewd:lineID="42"><text style="&st18;" transform="matrix(&st16;  1727.53  346.54 )">2</text><text style="&st18;" transform="matrix(&st16;  1727.41  357.86 )">CTY</text></g><g ewd:lineID="43"><text style="&st18;" transform="matrix(&st16;  1778.52  400.91 )">1</text><text style="&st18;" transform="matrix(&st16;  1778.05  389.02 )">GND</text></g><g ewd:lineID="44"><text style="&st18;" transform="matrix(&st16;  1778.52  346.54 )">3</text><text style="&st18;" transform="matrix(&st16;  1779.41  357.86 )">+B1</text></g><g ewd:figtype="title"><text style="&st18;" transform="matrix(&st17;  1816.42  395.63 )" ewd:textID="24">Map Light Assembly</text><text style="&st18;" transform="matrix(&st17;  1809.31  395.62 )">Q11</text></g></g><g ewd:figtype="conn" ewd:figID="9" ewd:code="Q12"><path style="stroke-width: 1.42 ;&st7;  " d=" M  1589.23,   350.23  L  1589.23,   392.72  L  1674.22,   392.72  L  1674.22,   350.23  L  1589.23,   350.23  " /><g ewd:lineID="36"><text style="&st18;" transform="matrix(&st16;  1600.05  346.54 )">2</text><text style="&st18;" transform="matrix(&st16;  1599.93  357.86 )">CTY</text></g><g ewd:lineID="40"><text style="&st18;" transform="matrix(&st16;  1651.04  400.91 )">1</text><text style="&st18;" transform="matrix(&st16;  1650.58  389.02 )">GND</text></g><g ewd:lineID="41"><text style="&st18;" transform="matrix(&st16;  1651.04  346.54 )">3</text><text style="&st18;" transform="matrix(&st16;  1651.93  357.86 )">+B1</text></g><g ewd:figtype="title"><text style="&st18;" transform="matrix(&st17;  1688.94  395.63 )" ewd:textID="24">Map Light Assembly</text><text style="&st18;" transform="matrix(&st17;  1681.83  395.62 )">Q12</text></g></g><g ewd:figtype="conn" ewd:figID="23" ewd:code="Q4"><path style="stroke-width: 1.42 ;&st7;  " d=" M  1861.19,   394.14  L  1866.85,   371.47  " /><path style="stroke-width: 0.85 ;&st7;  " d=" M  1861.19,   401.22  L  1861.19,   396.97  " /><path style="stroke-width: 0.85 ;&st7;  " d=" M  1861.19,   371.47  L  1861.19,   367.22  " /><path style="stroke-width: 0.85 ;&st7;   " d=" M  1862.61,   395.55  C  1862.61    394.77   1861.97    394.14   1861.19    394.14  " /><path style="stroke-width: 0.85 ;&st7;   " d=" M  1861.19,   394.14  C  1860.41    394.14   1859.77    394.77   1859.77    395.55  " /><path style="stroke-width: 0.85 ;&st7;   " d=" M  1859.77,   395.55  C  1859.77    396.33   1860.41    396.97   1861.19    396.97  " /><path style="stroke-width: 0.85 ;&st7;   " d=" M  1861.19,   396.97  C  1861.97    396.97   1862.61    396.33   1862.61    395.55  " /><path style="stroke-width: 0.85 ;&st7;   " d=" M  1862.61,   372.89  C  1862.61    372.11   1861.97    371.47   1861.19    371.47  " /><path style="stroke-width: 0.85 ;&st7;   " d=" M  1861.19,   371.47  C  1860.41    371.47   1859.77    372.11   1859.77    372.89  " /><path style="stroke-width: 0.85 ;&st7;   " d=" M  1859.77,   372.89  C  1859.77    373.67   1860.41    374.31   1861.19    374.31  " /><path style="stroke-width: 0.85 ;&st7;   " d=" M  1861.19,   374.31  C  1861.97    374.31   1862.61    373.67   1862.61    372.89  " /><path style="stroke-width: 1.42 ;&st7;  " d=" M  1869.69,   401.22  L  1869.69,   367.22  L  1852.69,   367.22  L  1852.69,   401.22  L  1869.69,   401.22  " /><text style="&st18;" transform="matrix(&st16;  1855.0  409.41 )">1</text><text style="&st18;" transform="matrix(&st16;  1855.0  363.53 )">2</text><g ewd:figtype="title"><text style="&st18;" transform="matrix(&st17;  1843.33  404.12 )" ewd:textID="42">Vanity Light Switch LH <tspan x="0 " dy="6.0">(Visor Assembly LH)</tspan></text><text style="&st18;" transform="matrix(&st17;  1836.22  404.12 )">Q4</text></g></g><g ewd:figtype="conn" ewd:figID="29" ewd:code="G78"><g ewd:lineID="35"><text style="&st18;" transform="matrix(&st16;  1500.95  84.77 )">15</text><path style="stroke-width: 1.42 ;&st7;   " d=" M  1517.28,    82.80  C  1517.28     80.30   1515.25     78.27   1512.75     78.27  " /><path style="stroke-width: 1.42 ;&st7;   " d=" M  1512.75,    78.27  C  1510.24     78.27   1508.21     80.30   1508.21     82.80  " /><path style="stroke-width: 1.42 ;&st7;   " d=" M  1508.21,    82.80  C  1508.21     85.31   1510.24     87.34   1512.75     87.34  " /><path style="stroke-width: 1.42 ;&st7;   " d=" M  1512.75,    87.34  C  1515.25     87.34   1517.28     85.31   1517.28     82.80  " /><text style="&st18;" transform="matrix(&st16;  1510.44  84.77 )">A</text><text style="&st18;" transform="matrix(&st16;  1503.66  74.58 )">DOMR</text></g><g ewd:lineID="105"><text style="&st18;" transform="matrix(&st16;  1601.41  74.58 )">ILE</text></g></g><g ewd:figtype="jb" ewd:figID="42" ewd:code="3"><path style="stroke-width: 1.42 ;&st7;  " d=" M  1608.36,   129.26  L  1604.11,   129.26  " /><path style="stroke-width: 1.42 ;&st7;  " d=" M  1608.36,   137.76  L  1604.11,   137.76  " /><path style="stroke-width: 1.42 ;&st7;   " d=" M  1604.11,   129.26  C  1601.76    129.26   1599.86    131.17   1599.86    133.51  " /><path style="stroke-width: 1.42 ;&st7;   " d=" M  1599.86,   133.51  C  1599.86    135.86   1601.76    137.76   1604.11    137.76  " /><path style="stroke-width: 1.42 ;&st7;   " d=" M  1608.36,   137.76  C  1610.70    137.76   1612.61    135.86   1612.61    133.51  " /><path style="stroke-width: 1.42 ;&st7;   " d=" M  1612.61,   133.51  C  1612.61    131.17   1610.70    129.26   1608.36    129.26  " /><path style="stroke-width: 0.28 ;&st9;  " d=" M  1606.23,   124.37  L  1603.40,   121.54  L  1603.40,   125.79  L  1606.23,   128.62  L  1609.06,   125.79  L  1609.06,   121.54  L  1606.23,   124.37  " /><path style="stroke-width: 0.85 ;&st7;  " d=" M  1606.23,    78.27  L  1606.23,   129.26  " /><text style="&st18;" transform="matrix(&st16;  1602.3  135.48 )">3D</text><text style="&st18;" transform="matrix(&st16;  1592.62  135.48 )">35</text><text style="&st18;" transform="matrix(&st16;  1600.05  86.47 )">1</text></g><g ewd:figtype="w2w" ewd:figID="54" ewd:code="GQ2"><path style="stroke-width: 1.42 ;&st7;  " d=" M  1610.48,   211.42  L  1606.23,   207.17  L  1601.98,   211.42  " /><path style="stroke-width: 1.42 ;&st7;  " d=" M  1610.48,   214.82  L  1606.23,   210.57  L  1601.98,   214.82  " /><text style="&st18;" transform="matrix(&st16;  1593.6  203.47 )">5</text></g><g ewd:figtype="w2w" ewd:figID="55" ewd:code="GQ2"><path style="stroke-width: 1.42 ;&st7;  " d=" M  1856.94,   553.63  L  1861.19,   557.88  L  1865.44,   553.63  " /><path style="stroke-width: 1.42 ;&st7;  " d=" M  1865.44,   557.03  L  1861.19,   561.27  L  1856.94,   557.03  " /><text style="&st18;" transform="matrix(&st16;  1848.56  568.91 )">6</text></g><g ewd:figtype="gp" ewd:figID="67" ewd:code="GB"><path style="stroke-width: 0.85 ;&st7;  " d=" M  1861.19,   697.25  L  1861.19,   701.50  " /><path style="stroke-width: 0.85 ;&st7;  " d=" M  1852.69,   701.50  L  1869.69,   701.50  " /><path style="stroke-width: 0.85 ;&st7;  " d=" M  1856.94,   704.33  L  1865.44,   704.33  " /><path style="stroke-width: 0.85 ;&st7;  " d=" M  1858.36,   707.17  L  1864.02,   707.17  " /><path style="stroke-width: 0.85 ;&st7;  " d=" M  1859.77,   710.00  L  1862.60,   710.00  " /></g><g ewd:code="6" ewd:figID="92" ewd:comment="" ewd:figtype="comment"><text style="&st18;" transform="matrix(&st16;  1738.8  182.22 )" ewd:textID="6">* 6 :w/o Sliding Roof</text></g><g ewd:code="8" ewd:figID="96" ewd:comment="7" ewd:figtype="comment"><text style="&st18;" transform="matrix(&st16;  1738.8  207.72 )" ewd:textID="8">* 8 :Except *7</text></g><g ewd:code="10" ewd:figID="99" ewd:comment="" ewd:figtype="comment"><text style="&st18;" transform="matrix(&st16;  1738.8  224.72 )" ewd:textID="10">*10 :TMC Made</text></g><g ewd:code="5" ewd:figID="93" ewd:comment="" ewd:figtype="comment"><text style="&st18;" transform="matrix(&st16;  1738.8  173.73 )" ewd:textID="5">* 5 :w/ Sliding Roof</text></g><g ewd:code="9" ewd:figID="98" ewd:comment="" ewd:figtype="comment"><text style="&st18;" transform="matrix(&st16;  1738.8  216.22 )" ewd:textID="9">* 9 :TMMC Made</text></g><g ewd:code="7" ewd:figID="97" ewd:comment="" ewd:figtype="comment"><text style="&st18;" transform="matrix(&st16;  1738.8  190.72 )" ewd:textID="7">* 7 :USA 4WD Manual Air Conditioning 4 Speaker <tspan x="14.17" dy="8.5">w/o Parking Assist (Intuitive Parking Assist)</tspan></text></g></svg>