﻿<?xml version="1.0" encoding="UTF-8"?>
<!DOCTYPE svg PUBLIC "-//W3C//DTD SVG 1.0//EN" "http://www.w3.org/TR/2001/REC-SVG-20010904/DTD/svg10.dtd"[
	<!ENTITY ns_flows "http://ns.adobe.com/Flows/1.0/">
	<!ENTITY ns_svg "http://www.w3.org/2000/svg">
	<!ENTITY ns_xlink "http://www.w3.org/1999/xlink">
	<!ENTITY st0 "font-size:7px;font-family:'MS-PGothic';adobe-font-script:japanese;">
	<!ENTITY st1 "font-size:6px;font-family:'ArialMT';">
	<!-- White fill  -->
	<!ENTITY st2 "fill:#FFFFFF;stroke:#000000; stroke-width:1.41;stroke-linecap:round;stroke-linejoin:round;">
	<!-- Yellow fill  -->
	<!ENTITY st3 "fill:#FFFFCC;stroke:#FFFFCC; stroke-width:0.1;stroke-linecap:round;stroke-linejoin:round;">
	<!-- Gray fill  -->
	<!ENTITY st4 "fill:#CCCCCC;stroke:#CCCCCC; stroke-width:0.1;stroke-linecap:round;stroke-linejoin:round;">
	<!-- Light-blue fill -->
	<!ENTITY st5 "fill:#CCECF4;stroke:#000000; stroke-width:1.133;stroke-linecap:round;stroke-linejoin:round;">
	<!ENTITY st6 "fill:none;stroke-linecap:butt; stroke-linejoin:round;">
	<!ENTITY st7 "fill:none;stroke:#000000;stroke-linecap:round;stroke-linejoin:round;">
	<!ENTITY st8 "enable-background:new    ;">
	<!-- Black fill -->
	<!ENTITY st9 "fill:#000000;stroke:#000000; stroke-linecap:round;stroke-linejoin:round;">
	<!-- SRS note   -->
	<!ENTITY st10 "font-size:9px;font-family:'ArialMT';">
	<!ENTITY st11 "font-size:9px;font-family:'Svg Symbol';">
	<!ENTITY st12 "font-size:6px;font-family:'Svg Symbol';">
	<!ENTITY st13 "fill:none;stroke:#ff0000;stroke-linecap:round;stroke-linejoin:round;">
	<!-- Yellow fill  -->
	<!ENTITY st14 "fill:#FFFF00;stroke:#FFFF00; stroke-width:0.1;stroke-linecap:round;stroke-linejoin:round;">
	<!ENTITY st15 "font-size:6px;font-family:'MS-PGothic';adobe-font-script:japanese;">
	<!ENTITY st16 "1.00 0.00 0.00 1.00">
	<!ENTITY st17 "0.00 -1.00 1.00 0.00">
	<!ENTITY st18 "font-size:6px;font-family:'Arial';">
	<!ENTITY st19 "font-size:9px;font-family:'Arial';">
	<!ENTITY st20 "font-size:6px;font-family:'MS-PGothic','MS PGothic';adobe-font-script:japanese;">
	<!ENTITY st21 "font-size:7px;font-family:'MS-PGothic','MS PGothic';adobe-font-script:japanese;">
	<!ATTLIST svg
		xmlns:ewd CDATA #FIXED "http://shcl.co.jp/ewd"
		xmlns:a CDATA #FIXED "http://ns.adobe.com/AdobeSVGViewerExtensions/3.0/"
		ewd:ver CDATA #IMPLIED
	>
	<!ATTLIST a
		ewd:lineID CDATA #IMPLIED
		ewd:groupID CDATA #IMPLIED
		ewd:figtype CDATA #IMPLIED
		ewd:code CDATA #IMPLIED
		ewd:figID CDATA #IMPLIED
		ewd:pinNo CDATA #IMPLIED
		ewd:comment CDATA #IMPLIED >
	<!ATTLIST g
		ewd:lineID CDATA #IMPLIED
		ewd:groupID CDATA #IMPLIED
		ewd:figtype CDATA #IMPLIED
		ewd:code CDATA #IMPLIED
		ewd:figID CDATA #IMPLIED
		ewd:pinNo CDATA #IMPLIED
		ewd:comment CDATA #IMPLIED >
	<!ATTLIST text
		ewd:textID CDATA #IMPLIED >
	<!ATTLIST title
		ewd:textID CDATA #IMPLIED >
]>
<!-- Generator: Shintec Hozumi YS   -->
<svg onload="call_execInitLoadProc_svg('system')" style="overflow:visible;  enable-background:new 0 0 1516.119 710.000" viewBox="0 0 1516.119 710.000" height="710.000" width="1516.119" xml:space="preserve" ewd:ver="2.1.2.5" xmlns="&ns_svg;" xmlns:a="http://ns.adobe.com/AdobeSVGViewerExtensions/3.0/" xmlns:ewd="http://shcl.co.jp/ewd" xmlns:xlink="&ns_xlink;">
	<script type="text/javascript" xlink:href="../../../../../system/js/ewd/fig/svgfig.js"/>
<g id="ewd_top">
	<a ewd:figtype="conn" style="cursor:pointer;" ewd:code="G98" ewd:figID="1">
		<path style="fill:#CCECF4;stroke:#000000; stroke-width:1.33; stroke-linecap:round;stroke-linejoin:round; " d=" M   569.40,   503.20  L   569.40,   520.20  L   586.40,   520.20  L   586.40,   503.20  L   569.40,   503.20 "/>
		<title ewd:textID="15">No. 5 Junction Connector</title>
	</a>
	<a ewd:figtype="conn" style="cursor:pointer;" ewd:code="G16" ewd:figID="2">
		<path style="fill:#CCECF4;stroke:#000000; stroke-width:1.33; stroke-linecap:round;stroke-linejoin:round; " d=" M  1164.31,   273.74  L  1164.31,   469.21  L  1495.75,   469.21  L  1495.75,   273.74  L  1164.31,   273.74 "/>
		<title ewd:textID="7">Combination Meter Assembly</title>
	</a>
	<a ewd:figtype="rb" style="cursor:pointer;" ewd:code="FUSE5" ewd:figID="3">
		<path style="fill:#CCECF4;stroke:#000000; stroke-width:0; stroke-linecap:round;stroke-linejoin:round; " d=" M   148.73,    44.28  L   148.73,    86.77  L   174.22,    86.77  L   174.22,    44.28  L   148.73,    44.28 "/>
	</a>
	<a ewd:figtype="rb" style="cursor:pointer;" ewd:code="FUSE6" ewd:figID="4">
		<path style="fill:#CCECF4;stroke:#000000; stroke-width:0; stroke-linecap:round;stroke-linejoin:round; " d=" M  1134.56,    78.27  L  1134.56,    35.78  L  1109.06,    35.78  L  1109.06,    78.27  L  1134.56,    78.27 "/>
	</a>
	<a ewd:figtype="conn" style="cursor:pointer;" ewd:code="G93" ewd:figID="5">
		<path style="fill:#CCECF4;stroke:#000000; stroke-width:1.33; stroke-linecap:round;stroke-linejoin:round; " d=" M  1249.29,   188.75  L  1266.29,   188.75  L  1266.29,   205.75  L  1249.29,   205.75  L  1249.29,   188.75 "/>
		<title ewd:textID="12">No. 1 Junction Connector</title>
	</a>
	<a ewd:figtype="conn" style="cursor:pointer;" ewd:code="G102" ewd:figID="6">
		<path style="fill:#CCECF4;stroke:#000000; stroke-width:1.33; stroke-linecap:round;stroke-linejoin:round; " d=" M  1198.30,   188.75  L  1215.30,   188.75  L  1215.30,   205.75  L  1198.30,   205.75  L  1198.30,   188.75 "/>
		<title ewd:textID="17">No. 7 Junction Connector</title>
	</a>
	<a ewd:figtype="conn" style="cursor:pointer;" ewd:code="G7" ewd:figID="7">
		<path style="fill:#CCECF4;stroke:#000000; stroke-width:1.33; stroke-linecap:round;stroke-linejoin:round; " d=" M   569.40,   392.72  L   569.40,   358.73  L   586.40,   358.73  L   586.40,   392.72  L   569.40,   392.72 "/>
		<title ewd:textID="19">Un-Lock Warning Switch Assembly</title>
	</a>
	<a ewd:figtype="conn" style="cursor:pointer;" ewd:code="M4" ewd:figID="8">
		<path style="fill:#CCECF4;stroke:#000000; stroke-width:1.33; stroke-linecap:round;stroke-linejoin:round; " d=" M   722.38,   392.72  L   722.38,   358.73  L   705.38,   358.73  L   705.38,   392.72  L   722.38,   392.72 "/>
		<title ewd:textID="9">Front Door Courtesy Light Switch Assembly RH</title>
	</a>
	<a ewd:figtype="conn" style="cursor:pointer;" ewd:code="N6" ewd:figID="9">
		<path style="fill:#CCECF4;stroke:#000000; stroke-width:1.33; stroke-linecap:round;stroke-linejoin:round; " d=" M   662.89,   392.72  L   662.89,   358.73  L   645.89,   358.73  L   645.89,   392.72  L   662.89,   392.72 "/>
		<title ewd:textID="8">Front Door Courtesy Light Switch Assembly LH</title>
	</a>
	<a ewd:figtype="conn" style="cursor:pointer;" ewd:code="G134" ewd:figID="10">
		<path style="fill:#CCECF4;stroke:#000000; stroke-width:1.33; stroke-linecap:round;stroke-linejoin:round; " d=" M   926.35,   307.73  L   977.34,   307.73  L   977.34,   290.74  L   926.35,   290.74  L   926.35,   307.73 "/>
		<title ewd:textID="14">No. 4 CAN Junction Connector</title>
	</a>
	<a ewd:figtype="conn" style="cursor:pointer;" ewd:code="G119,G123" ewd:figID="11">
		<path style="fill:#CCECF4;stroke:#000000; stroke-width:1.33; stroke-linecap:round;stroke-linejoin:round; " d=" M   798.87,   307.73  L   875.35,   307.73  L   875.35,   290.74  L   798.87,   290.74  L   798.87,   307.73 "/>
		<title ewd:textID="11">No. 1 CAN Junction Connector</title>
	</a>
	<a ewd:figtype="conn" style="cursor:pointer;" ewd:code="G128,G129" ewd:figID="12">
		<path style="fill:#CCECF4;stroke:#000000; stroke-width:1.33; stroke-linecap:round;stroke-linejoin:round; " d=" M  1334.28,   588.19  L  1410.76,   588.19  L  1410.76,   571.19  L  1334.28,   571.19  L  1334.28,   588.19 "/>
		<title ewd:textID="13">No. 2 CAN Junction Connector</title>
	</a>
	<a ewd:figtype="conn" style="cursor:pointer;" ewd:code="G100" ewd:figID="13">
		<path style="fill:#CCECF4;stroke:#000000; stroke-width:1.33; stroke-linecap:round;stroke-linejoin:round; " d=" M    76.49,   180.26  L    93.48,   180.26  L    93.48,   197.25  L    76.49,   197.25  L    76.49,   180.26 "/>
		<title ewd:textID="16">No. 6 Junction Connector</title>
	</a>
	<a ewd:figtype="conn" style="cursor:pointer;" ewd:code="G105" ewd:figID="14">
		<path style="fill:#CCECF4;stroke:#000000; stroke-width:1.33; stroke-linecap:round;stroke-linejoin:round; " d=" M    17.00,   180.26  L    33.99,   180.26  L    33.99,   197.25  L    17.00,   197.25  L    17.00,   180.26 "/>
		<title ewd:textID="18">No. 10 Junction Connector</title>
	</a>
	<a ewd:figtype="conn" style="cursor:pointer;" ewd:code="G93" ewd:figID="15">
		<path style="fill:#CCECF4;stroke:#000000; stroke-width:1.33; stroke-linecap:round;stroke-linejoin:round; " d=" M   569.40,   231.25  L   586.40,   231.25  L   586.40,   248.24  L   569.40,   248.24  L   569.40,   231.25 "/>
		<title ewd:textID="12">No. 1 Junction Connector</title>
	</a>
	<a ewd:figtype="conn" style="cursor:pointer;" ewd:code="G78" ewd:figID="16">
		<path style="fill:#CCECF4;stroke:#000000; stroke-width:1.33; stroke-linecap:round;stroke-linejoin:round; " d=" M   288.95,    44.28  L   288.95,    86.77  L   892.35,    86.77  L   892.35,    44.28  L   288.95,    44.28 "/>
		<title ewd:textID="10">Main Body ECU</title>
	</a>
	<a ewd:figtype="jb" style="cursor:pointer;" ewd:code="3" ewd:figID="19">
		<path style="&st4; " d=" M  1291.78,    35.78  L  1291.78,   103.77  L  1359.77,   103.77  L  1359.77,    35.78  L  1291.78,    35.78  "/>
	</a>
	<a ewd:figtype="jb" style="cursor:pointer;" ewd:code="3" ewd:figID="20">
		<path style="&st4; " d=" M   637.39,    86.77  L   637.39,   129.26  L   662.89,   129.26  L   662.89,    86.77  L   637.39,    86.77  "/>
	</a>
	<a ewd:figtype="jb" style="cursor:pointer;" ewd:code="3" ewd:figID="21">
		<path style="&st4; " d=" M    67.99,    35.78  L    67.99,   103.77  L   135.98,   103.77  L   135.98,    35.78  L    67.99,    35.78  "/>
	</a>
	<a ewd:figtype="jb" style="cursor:pointer;" ewd:code="3" ewd:figID="22">
		<path style="&st4; " d=" M   212.46,   137.76  L   475.92,   137.76  L   475.92,    86.77  L   271.95,    86.77  L   271.95,    44.28  L   212.46,    44.28  L   212.46,   137.76  "/>
	</a>
	<a ewd:figtype="fuse" style="cursor:pointer;" ewd:code="FUSE38" ewd:figID="28">
		<path style="&st7; stroke-width:0;" d=" M    72.24,    35.78  L    72.24,    78.27  L    97.73,    78.27  L    97.73,    35.78  L    72.24,    35.78 "/>
	</a>
	<a ewd:figtype="fuse" style="cursor:pointer;" ewd:code="FUSE5" ewd:figID="29">
		<path style="&st7; stroke-width:0;" d=" M   148.73,    44.28  L   148.73,    86.77  L   174.22,    86.77  L   174.22,    44.28  L   148.73,    44.28 "/>
	</a>
	<a ewd:figtype="fuse" style="cursor:pointer;" ewd:code="FUSE43" ewd:figID="30">
		<path style="&st7; stroke-width:0;" d=" M   216.71,    44.28  L   216.71,    86.77  L   242.21,    86.77  L   242.21,    44.28  L   216.71,    44.28 "/>
	</a>
	<a ewd:figtype="fuse" style="cursor:pointer;" ewd:code="FUSE6" ewd:figID="31">
		<path style="&st7; stroke-width:0;" d=" M  1134.56,    78.27  L  1134.56,    35.78  L  1109.06,    35.78  L  1109.06,    78.27  L  1134.56,    78.27 "/>
	</a>
	<a ewd:figtype="fuse" style="cursor:pointer;" ewd:code="FUSE40" ewd:figID="32">
		<path style="&st7; stroke-width:0;" d=" M  1321.53,    78.27  L  1321.53,    35.78  L  1296.03,    35.78  L  1296.03,    78.27  L  1321.53,    78.27 "/>
	</a>
	<a ewd:comment="3,4" style="cursor:pointer;" ewd:lineID="1">
		<path style="stroke:#008837;stroke-width: 5.10 ;&st6;" d=" M    84.99,   103.77  L    84.99,   112.27  L    76.49,   120.77  L    25.50,   120.77  L    25.50,   180.26  "/>
	</a>
	<a ewd:comment="5,4,2" style="cursor:pointer;" ewd:lineID="2">
		<path style="stroke:#008837;stroke-width: 5.10 ;&st6;" d=" M    84.99,   103.77  L    84.99,   180.26  "/>
	</a>
	<a style="cursor:pointer;" ewd:lineID="3">
		<path style="stroke:#FF0000;stroke-width: 5.10 ;&st6;" d=" M   161.47,   112.27  L   161.47,   197.25  L   348.44,   197.25  L   348.44,   137.76  "/>
	</a>
	<a ewd:comment="3,4" style="cursor:pointer;" ewd:lineID="4">
		<path style="stroke:#00A0C6;stroke-width: 5.10 ;&st6;" d=" M   407.93,   137.76  L   407.93,   146.26  L   416.43,   154.76  L   433.43,   154.76  L   433.43,   307.73  L    25.50,   307.73  L    25.50,   197.25  "/>
	</a>
	<a ewd:comment="5,4,2" style="cursor:pointer;" ewd:lineID="5">
		<path style="stroke:#00A0C6;stroke-width: 5.10 ;&st6;" d=" M   407.93,   137.76  L   407.93,   282.24  L    84.99,   282.24  L    84.99,   197.25  "/>
	</a>
	<a style="cursor:pointer;" ewd:lineID="6">
		<path style="stroke:#000000;stroke-width: 5.10 ;&st6;" d=" M   467.42,   681.67  L   467.42,   137.76  "/>
		<path style="stroke:#FFFFFF;stroke-width: 4.53 ;&st6;" d=" M   467.42,   681.67  L   467.42,   137.76  "/>
		<path style="stroke:#000000;stroke-width: 1.13 ;&st6;" d=" M   467.42,   681.67  L   467.42,   137.76  "/>
	</a>
	<a style="cursor:pointer;" ewd:lineID="7">
		<path style="stroke:#000000;stroke-width: 5.10 ;&st6;" d=" M   577.90,   681.67  L   577.90,   520.20  "/>
		<path style="stroke:#FFFFFF;stroke-width: 4.53 ;&st6;" d=" M   577.90,   681.67  L   577.90,   520.20  "/>
		<path style="stroke:#000000;stroke-width: 1.13 ;&st6;" d=" M   577.90,   681.67  L   577.90,   520.20  "/>
	</a>
	<a style="cursor:pointer;" ewd:lineID="8">
		<path style="stroke:#000000;stroke-width: 5.10 ;&st6;" d=" M   577.90,   392.72  L   577.90,   503.20  "/>
		<path style="stroke:#FFFFFF;stroke-width: 4.53 ;&st6;" d=" M   577.90,   392.72  L   577.90,   503.20  "/>
		<path style="stroke:#000000;stroke-width: 1.13 ;&st6;" d=" M   577.90,   392.72  L   577.90,   503.20  "/>
	</a>
	<a style="cursor:pointer;" ewd:lineID="9">
		<path style="stroke:#99D9E8;stroke-width: 5.10 ;&st6;" d=" M   577.90,   248.24  L   577.90,   358.73  "/>
	</a>
	<a style="cursor:pointer;" ewd:lineID="10">
		<path style="stroke:#FF0000;stroke-width: 5.10 ;&st6;" d=" M   577.90,   231.25  L   577.90,    95.84  "/>
	</a>
	<a style="cursor:pointer;" ewd:lineID="11"> d=" M   654.39,   358.73  L   654.39,   129.26 
	
		<path style="stroke:#000000;stroke-width: 5.10 ;&st6;" d=" M   654.39,   358.73  L   654.39,   129.26  "/>
		<path style="stroke:#FFFFFF;stroke-width: 4.53 ;&st6;" d=" M   654.39,   358.73  L   654.39,   129.26  "/>
	</a>
	<a style="cursor:pointer;" ewd:lineID="12">
		<path style="stroke:#00A0C6;stroke-width: 5.10 ;&st6;" d=" M   713.88,   245.98  L   713.88,   358.73  "/>
	</a>
	<a style="cursor:pointer;" ewd:lineID="13">
		<path style="stroke:#00A0C6;stroke-width: 5.10 ;&st6;" d=" M   713.88,   231.25  L   713.88,    95.84  "/>
	</a>
	<a ewd:comment="2" style="cursor:pointer;" ewd:lineID="14"> d=" M   807.37,   316.80  L   807.37,   647.68  L  1402.27,   647.68  L  1402.27,   597.25 
	
		<path style="stroke:#000000;stroke-width: 5.10 ;&st6;" d=" M   807.37,   316.80  L   807.37,   647.68  L  1402.27,   647.68  L  1402.27,   597.25  "/>
		<path style="stroke:#FFFFFF;stroke-width: 4.53 ;&st6;" d=" M   807.37,   316.80  L   807.37,   647.68  L  1402.27,   647.68  L  1402.27,   597.25  "/>
	</a>
	<a ewd:comment="2" style="cursor:pointer;" ewd:lineID="15"> d=" M   807.37,   281.67  L   807.37,    95.84 
	
		<path style="stroke:#000000;stroke-width: 5.10 ;&st6;" d=" M   807.37,   281.67  L   807.37,    95.84  "/>
		<path style="stroke:#FFFFFF;stroke-width: 4.53 ;&st6;" d=" M   807.37,   281.67  L   807.37,    95.84  "/>
	</a>
	<a ewd:comment="3" style="cursor:pointer;" ewd:lineID="16"> d=" M   807.37,    95.84  L   807.37,   103.77  L   841.36,   137.76  L   934.84,   137.76  L   934.84,   290.74 
	
		<path style="stroke:#000000;stroke-width: 5.10 ;&st6;" d=" M   807.37,    95.84  L   807.37,   103.77  L   841.36,   137.76  L   934.84,   137.76  L   934.84,   290.74  "/>
		<path style="stroke:#FFFFFF;stroke-width: 4.53 ;&st6;" d=" M   807.37,    95.84  L   807.37,   103.77  L   841.36,   137.76  L   934.84,   137.76  L   934.84,   290.74  "/>
	</a>
	<a ewd:comment="2" style="cursor:pointer;" ewd:lineID="17">
		<path style="stroke:#56077D;stroke-width: 5.10 ;&st6;" d=" M   866.86,   316.80  L   866.86,   622.18  L  1342.78,   622.18  L  1342.78,   597.25  "/>
	</a>
	<a ewd:comment="2" style="cursor:pointer;" ewd:lineID="18">
		<path style="stroke:#FFE600;stroke-width: 5.10 ;&st6;" d=" M   866.86,   281.67  L   866.86,    95.84  "/>
	</a>
	<a ewd:comment="3" style="cursor:pointer;" ewd:lineID="19">
		<path style="stroke:#FFE600;stroke-width: 5.10 ;&st6;" d=" M   866.86,    95.84  L   866.86,   103.77  L   875.35,   112.27  L   968.84,   112.27  L   968.84,   290.74  "/>
	</a>
	<a ewd:comment="3" style="cursor:pointer;" ewd:lineID="20"> d=" M   934.84,   307.73  L   934.84,   528.70  L  1385.27,   528.70  L  1385.27,   503.20  L  1402.27,   486.20  L  1402.27,   478.27 
	
		<path style="stroke:#000000;stroke-width: 5.10 ;&st6;" d=" M   934.84,   307.73  L   934.84,   528.70  L  1385.27,   528.70  L  1385.27,   503.20  L  1402.27,   486.20  L  1402.27,   478.27  "/>
		<path style="stroke:#FFFFFF;stroke-width: 4.53 ;&st6;" d=" M   934.84,   307.73  L   934.84,   528.70  L  1385.27,   528.70  L  1385.27,   503.20  L  1402.27,   486.20  L  1402.27,   478.27  "/>
	</a>
	<a ewd:comment="3" style="cursor:pointer;" ewd:lineID="21">
		<path style="stroke:#008837;stroke-width: 5.10 ;&st6;" d=" M   968.84,   307.73  L   968.84,   503.20  L  1325.78,   503.20  L  1342.78,   486.20  L  1342.78,   478.27  "/>
	</a>
	<a style="cursor:pointer;" ewd:lineID="22">
		<path style="stroke:#FF0000;stroke-width: 5.10 ;&st6;" d=" M  1121.81,   103.77  L  1121.81,   137.76  "/>
	</a>
	<a ewd:comment="3" style="cursor:pointer;" ewd:lineID="23">
		<path style="stroke:#FFE600;stroke-width: 5.10 ;&st6;" d=" M  1206.80,   264.67  L  1206.80,   256.74  L  1215.30,   248.24  L  1257.79,   248.24  L  1257.79,   205.75  "/>
	</a>
	<a ewd:comment="2" style="cursor:pointer;" ewd:lineID="24">
		<path style="stroke:#FFE600;stroke-width: 5.10 ;&st6;" d=" M  1206.80,   205.75  L  1206.80,   264.67  "/>
	</a>
	<a ewd:comment="2" style="cursor:pointer;" ewd:lineID="25">
		<path style="stroke:#FF0000;stroke-width: 5.10 ;&st6;" d=" M  1206.80,   188.75  L  1206.80,   146.26  L  1181.30,   146.26  L  1181.30,   248.24  L  1121.81,   248.24  L  1121.81,   152.49  "/>
	</a>
	<a ewd:comment="3" style="cursor:pointer;" ewd:lineID="26">
		<path style="stroke:#FF0000;stroke-width: 5.10 ;&st6;" d=" M  1257.79,   188.75  L  1257.79,   129.26  L  1164.31,   129.26  L  1164.31,   231.25  L  1138.81,   231.25  L  1138.81,   171.76  L  1121.81,   154.76  L  1121.81,   152.49  "/>
	</a>
	<a style="cursor:pointer;" ewd:lineID="27">
		<path style="stroke:#000000;stroke-width: 5.10 ;&st6;" d=" M  1308.78,   103.77  L  1308.78,   264.67  "/>
	</a>
	<a ewd:comment="2" style="cursor:pointer;" ewd:lineID="28">
		<path style="stroke:#008837;stroke-width: 5.10 ;&st6;" d=" M  1342.78,   478.27  L  1342.78,   562.12  "/>
	</a>
	<a ewd:comment="2" style="cursor:pointer;" ewd:lineID="29"> d=" M  1402.27,   478.27  L  1402.27,   562.12 
	
		<path style="stroke:#000000;stroke-width: 5.10 ;&st6;" d=" M  1402.27,   478.27  L  1402.27,   562.12  "/>
		<path style="stroke:#FFFFFF;stroke-width: 4.53 ;&st6;" d=" M  1402.27,   478.27  L  1402.27,   562.12  "/>
	</a>
	<a style="cursor:pointer;" ewd:lineID="30">
		<path style="stroke:#992903;stroke-width: 5.10 ;&st6;" d=" M  1453.26,   681.67  L  1453.26,   478.27  "/>
	</a>
	<g ewd:figtype="conn" ewd:figID="1" ewd:code="G98">
		<path style="stroke-width: 0.85 ;&st7;  " d=" M   577.90,   503.20  L   577.90,   520.20  "/>
		<path style="stroke-width: 1.42 ;&st7;  " d=" M   569.40,   503.20  L   569.40,   520.20  L   586.40,   520.20  L   586.40,   503.20  L   569.40,   503.20  "/>
		<text style="&st18;" transform="matrix(&st16;  571.72  528.39 )">6</text>
		<text style="&st18;" transform="matrix(&st16;  571.72  499.51 )">4</text>
		<g ewd:figtype="title">
			<text style="&st18;" transform="matrix(&st17;  558.6  523.1 )">G98</text>
			<text style="&st18;" transform="matrix(&st17;  565.71  523.1 )" ewd:textID="15">No. 5 Junction Connector</text>
		</g>
	</g>
	<g ewd:figtype="conn" ewd:figID="2" ewd:code="G16">
		<path style="stroke-width: 0.85 ;&st7;  " d=" M  1229.46,   384.22  L  1235.13,   384.22  "/>
		<text style="&st18;" transform="matrix(&st16;  1259.99  407.44 )">CPU</text>
		<text style="&st18;" transform="matrix(&st16;  1209.38  281.93 )">B</text>
		<text style="&st18;" transform="matrix(&st16;  1345.36  465.52 )">CANH</text>
		<text style="&st18;" transform="matrix(&st16;  1404.85  465.52 )">CANL</text>
		<text style="&st18;" transform="matrix(&st16;  1455.84  465.52 )">ET</text>
		<text style="&st18;" transform="matrix(&st16;  1360.76  445.68 )">CAN I/F</text>
		<text style="&st18;" transform="matrix(&st16;  1309.93  431.52 )">5V+B</text>
		<text style="&st18;" transform="matrix(&st16;  1202.94  366.37 )">5V <tspan x="0 " dy="6.0">IC</tspan></text>
		<text style="&st18;" transform="matrix(&st16;  1363.41  408.86 )" ewd:textID="6">CAN <tspan x="0 " dy="6.0">Controller</tspan></text>
		<text style="&st18;" transform="matrix(&st16;  1448.7  377.69 )">I/F</text>
		<text style="&st18;" transform="matrix(&st16;  1444.13  343.7 )" ewd:textID="5">Buzzer</text>
		<text style="&st18;" transform="matrix(&st16;  1311.36  281.93 )">IG+</text>
		<path style="stroke-width: 0.28 ;&st9;  " d=" M  1240.79,   307.73  L  1249.29,   302.07  L  1249.29,   313.40  L  1240.79,   307.73  "/>
		<path style="stroke-width: 0.85 ;&st7;  " d=" M  1206.80,   307.73  L  1308.78,   307.73  L  1308.78,   273.74  "/>
		<path style="stroke-width: 0.85 ;&st7;  " d=" M  1205.61,   306.73  L  1205.33,   307.20  L  1205.24,   307.73  L  1205.33,   308.27  L  1205.61,   308.74  L  1206.02,   309.08  L  1206.53,   309.27  L  1207.07,   309.27  L  1207.58,   309.08  L  1207.99,   308.74  L  1208.26,   308.27  L  1208.36,   307.73  L  1208.26,   307.20  L  1207.99,   306.73  L  1207.58,   306.39  L  1207.07,   306.20  L  1206.53,   306.20  L  1206.02,   306.39  L  1205.61,   306.73  L  1206.00,   307.44  L  1206.00,   308.03  L  1206.37,   308.47  L  1206.95,   308.57  L  1207.45,   308.28  L  1207.65,   307.73  L  1207.45,   307.19  L  1206.95,   306.90  L  1206.37,   307.00  L  1206.80,   307.73  "/>
		<path style="stroke-width: 0.85 ;&st7;  " d=" M  1342.78,   452.21  L  1342.78,   469.21  "/>
		<path style="stroke-width: 0.85 ;&st7;  " d=" M  1230.88,   387.05  L  1233.71,   387.05  "/>
		<path style="stroke-width: 0.85 ;&st7;  " d=" M  1228.04,   381.39  L  1236.54,   381.39  "/>
		<path style="stroke-width: 0.85 ;&st7;  " d=" M  1223.80,   378.56  L  1240.79,   378.56  "/>
		<path style="stroke-width: 0.85 ;&st7;  " d=" M  1232.29,   374.31  L  1232.29,   378.56  "/>
		<path style="stroke-width: 0.85 ;&st7;  " d=" M  1232.29,   375.72  L  1232.29,   367.22  L  1215.30,   367.22  "/>
		<path style="stroke-width: 0.85 ;&st7;  " d=" M  1402.27,   452.21  L  1402.27,   469.21  "/>
		<path style="stroke-width: 0.85 ;&st7;  " d=" M  1206.80,   375.72  L  1206.80,   392.72  "/>
		<path style="stroke-width: 0.85 ;&st7;  " d=" M  1402.27,   418.22  L  1402.27,   435.21  "/>
		<path style="stroke-width: 1.42 ;&st7;  " d=" M  1334.28,   418.22  L  1334.28,   401.22  L  1410.76,   401.22  L  1410.76,   418.22  "/>
		<path style="stroke-width: 0.85 ;&st7;  " d=" M  1342.78,   418.22  L  1342.78,   435.21  "/>
		<path style="stroke-width: 1.42 ;&st7;  " d=" M  1334.28,   435.21  L  1334.28,   452.21  L  1410.76,   452.21  L  1410.76,   435.21  L  1334.28,   435.21  "/>
		<path style="stroke-width: 1.42 ;&st7;  " d=" M  1198.30,   392.72  L  1198.30,   418.22  L  1470.25,   418.22  L  1470.25,   392.72  L  1198.30,   392.72  "/>
		<path style="stroke-width: 0.28 ;&st9;  " d=" M  1206.80,   299.24  L  1201.13,   290.74  L  1212.46,   290.74  L  1206.80,   299.24  "/>
		<path style="stroke-width: 0.85 ;&st7;  " d=" M  1206.80,   273.74  L  1206.80,   358.73  "/>
		<path style="stroke-width: 1.42 ;&st7;  " d=" M  1198.30,   358.73  L  1198.30,   375.72  L  1215.30,   375.72  L  1215.30,   358.73  L  1198.30,   358.73  "/>
		<path style="stroke-width: 1.42 ;&st7;  " d=" M  1164.30,   273.74  L  1164.30,   469.21  L  1495.75,   469.21  L  1495.75,   273.74  L  1164.30,   273.74  "/>
		<path style="stroke-width: 0.85 ;&st7;  " d=" M  1453.26,   418.22  L  1453.26,   469.21  "/>
		<path style="stroke-width: 0.85 ;&st7;  " d=" M  1410.76,   443.71  L  1453.26,   443.71  "/>
		<path style="stroke-width: 0.85 ;&st7;  " d=" M  1452.06,   442.71  L  1451.79,   443.18  L  1451.70,   443.71  L  1451.79,   444.24  L  1452.06,   444.71  L  1452.48,   445.06  L  1452.98,   445.25  L  1453.53,   445.25  L  1454.04,   445.06  L  1454.45,   444.71  L  1454.72,   444.24  L  1454.81,   443.71  L  1454.72,   443.18  L  1454.45,   442.71  L  1454.04,   442.36  L  1453.53,   442.18  L  1452.98,   442.18  L  1452.48,   442.36  L  1452.06,   442.71  L  1452.46,   443.42  L  1452.46,   444.00  L  1452.83,   444.45  L  1453.40,   444.55  L  1453.91,   444.26  L  1454.11,   443.71  L  1453.91,   443.16  L  1453.40,   442.88  L  1452.83,   442.97  L  1453.26,   443.71  "/>
		<path style="stroke-width: 0.85 ;&st7;  " d=" M  1308.78,   435.21  L  1325.78,   435.21  "/>
		<path style="stroke-width: 1.42 ;&st7;  " d=" M  1436.26,   367.22  L  1436.26,   384.22  L  1470.25,   384.22  L  1470.25,   367.22  L  1436.26,   367.22  "/>
		<path style="stroke-width: 1.42 ;&st7;  " d=" M  1436.26,   333.23  L  1436.26,   350.23  L  1470.25,   350.23  L  1470.25,   333.23  L  1436.26,   333.23  "/>
		<path style="stroke-width: 0.85 ;&st7;  " d=" M  1453.26,   350.23  L  1453.26,   367.22  "/>
		<path style="stroke-width: 0.85 ;&st7;  " d=" M  1453.26,   384.22  L  1453.26,   392.72  "/>
		<path style="stroke-width: 0.85 ;&st7;  " d=" M  1334.28,   443.71  L  1317.28,   443.71  L  1317.28,   435.21  "/>
		<path style="stroke-width: 0.85 ;&st7;  " d=" M  1240.79,   311.98  L  1240.79,   303.48  "/>
		<path style="stroke-width: 0.85 ;&st7;  " d=" M  1211.05,   299.24  L  1202.55,   299.24  "/>
		<path style="stroke-width: 0.85 ;&st7;  " d=" M  1316.09,   434.21  L  1315.81,   434.68  L  1315.72,   435.21  L  1315.81,   435.75  L  1316.09,   436.22  L  1316.50,   436.56  L  1317.01,   436.75  L  1317.55,   436.75  L  1318.06,   436.56  L  1318.47,   436.22  L  1318.74,   435.75  L  1318.84,   435.21  L  1318.74,   434.68  L  1318.47,   434.21  L  1318.06,   433.86  L  1317.55,   433.68  L  1317.01,   433.68  L  1316.50,   433.86  L  1316.09,   434.21  L  1316.48,   434.92  L  1316.48,   435.50  L  1316.85,   435.95  L  1317.43,   436.05  L  1317.93,   435.76  L  1318.13,   435.21  L  1317.93,   434.67  L  1317.43,   434.38  L  1316.85,   434.48  L  1317.28,   435.21  "/>
		<text style="&st18;" transform="matrix(&st16;  1189.52  383.92 )">5V+B</text>
		<text style="&st18;" transform="matrix(&st16;  1390.47  475.71 )">31</text>
		<path style="stroke-width: 1.42 ;&st7;   " d=" M  1406.80,   473.74  C  1406.80    471.24   1404.77    469.21   1402.27    469.21  "/>
		<path style="stroke-width: 1.42 ;&st7;   " d=" M  1402.27,   469.21  C  1399.76    469.21   1397.73    471.24   1397.73    473.74  "/>
		<path style="stroke-width: 1.42 ;&st7;   " d=" M  1397.73,   473.74  C  1397.73    476.24   1399.76    478.27   1402.27    478.27  "/>
		<path style="stroke-width: 1.42 ;&st7;   " d=" M  1402.27,   478.27  C  1404.77    478.27   1406.80    476.24   1406.80    473.74  "/>
		<text style="&st18;" transform="matrix(&st16;  1399.96  475.71 )">A</text>
		<text style="&st18;" transform="matrix(&st16;  1330.98  475.71 )">32</text>
		<text style="&st18;" transform="matrix(&st16;  1340.47  475.71 )">A</text>
		<path style="stroke-width: 1.42 ;&st7;   " d=" M  1347.31,   473.74  C  1347.31    471.24   1345.28    469.21   1342.78    469.21  "/>
		<path style="stroke-width: 1.42 ;&st7;   " d=" M  1342.78,   469.21  C  1340.27    469.21   1338.24    471.24   1338.24    473.74  "/>
		<path style="stroke-width: 1.42 ;&st7;   " d=" M  1338.24,   473.74  C  1338.24    476.24   1340.27    478.27   1342.78    478.27  "/>
		<path style="stroke-width: 1.42 ;&st7;   " d=" M  1342.78,   478.27  C  1345.28    478.27   1347.31    476.24   1347.31    473.74  "/>
		<text style="&st18;" transform="matrix(&st16;  1195.0  271.18 )">40</text>
		<path style="stroke-width: 1.42 ;&st7;   " d=" M  1211.33,   269.21  C  1211.33    266.70   1209.30    264.67   1206.80    264.67  "/>
		<path style="stroke-width: 1.42 ;&st7;   " d=" M  1206.80,   264.67  C  1204.30    264.67   1202.27    266.70   1202.27    269.21  "/>
		<path style="stroke-width: 1.42 ;&st7;   " d=" M  1202.27,   269.21  C  1202.27    271.71   1204.30    273.74   1206.80    273.74  "/>
		<path style="stroke-width: 1.42 ;&st7;   " d=" M  1206.80,   273.74  C  1209.30    273.74   1211.33    271.71   1211.33    269.21  "/>
		<text style="&st18;" transform="matrix(&st16;  1204.49  271.18 )">A</text>
		<text style="&st18;" transform="matrix(&st16;  1296.99  271.18 )">39</text>
		<text style="&st18;" transform="matrix(&st16;  1306.48  271.18 )">A</text>
		<path style="stroke-width: 1.42 ;&st7;   " d=" M  1313.31,   269.21  C  1313.31    266.70   1311.28    264.67   1308.78    264.67  "/>
		<path style="stroke-width: 1.42 ;&st7;   " d=" M  1308.78,   264.67  C  1306.28    264.67   1304.25    266.70   1304.25    269.21  "/>
		<path style="stroke-width: 1.42 ;&st7;   " d=" M  1304.25,   269.21  C  1304.25    271.71   1306.28    273.74   1308.78    273.74  "/>
		<path style="stroke-width: 1.42 ;&st7;   " d=" M  1308.78,   273.74  C  1311.28    273.74   1313.31    271.71   1313.31    269.21  "/>
		<text style="&st18;" transform="matrix(&st16;  1441.46  475.71 )">21</text>
		<path style="stroke-width: 1.42 ;&st7;   " d=" M  1457.79,   473.74  C  1457.79    471.24   1455.76    469.21   1453.26    469.21  "/>
		<path style="stroke-width: 1.42 ;&st7;   " d=" M  1453.26,   469.21  C  1450.75    469.21   1448.72    471.24   1448.72    473.74  "/>
		<path style="stroke-width: 1.42 ;&st7;   " d=" M  1448.72,   473.74  C  1448.72    476.24   1450.75    478.27   1453.26    478.27  "/>
		<path style="stroke-width: 1.42 ;&st7;   " d=" M  1453.26,   478.27  C  1455.76    478.27   1457.79    476.24   1457.79    473.74  "/>
		<text style="&st18;" transform="matrix(&st16;  1450.95  475.71 )">A</text>
		<g ewd:figtype="title">
			<text style="&st18;" transform="matrix(&st17;  1503.36  463.61 )">G16(A)</text>
			<text style="&st18;" transform="matrix(&st17;  1510.47  463.61 )" ewd:textID="7">Combination Meter Assembly</text>
		</g>
	</g>
	<g ewd:figtype="rb" ewd:figID="3" ewd:code="FUSE5">
		<path style="stroke-width: 0.85 ;&st7;  " d=" M   161.47,    86.77  L   161.47,   103.77  "/>
		<path style="stroke-width: 1.42 ;&st7;  " d=" M   163.60,   112.27  L   159.35,   112.27  "/>
		<path style="stroke-width: 1.42 ;&st7;  " d=" M   163.60,   103.77  L   159.35,   103.77  "/>
		<path style="stroke-width: 1.42 ;&st7;   " d=" M   167.85,   108.02  C   167.85    105.67    165.94    103.77    163.60    103.77  "/>
		<path style="stroke-width: 1.42 ;&st7;   " d=" M   163.60,   112.27  C   165.94    112.27    167.85    110.36    167.85    108.02  "/>
		<path style="stroke-width: 1.42 ;&st7;   " d=" M   155.10,   108.02  C   155.10    110.36    157.00    112.27    159.35    112.27  "/>
		<path style="stroke-width: 1.42 ;&st7;   " d=" M   159.35,   103.77  C   157.00    103.77    155.10    105.67    155.10    108.02  "/>
		<path style="stroke-width: 0.28 ;&st9;  " d=" M   161.47,    98.87  L   158.64,    96.04  L   158.64,   100.29  L   161.47,   103.12  L   164.31,   100.29  L   164.31,    96.04  L   161.47,    98.87  "/>
		<text style="&st18;" transform="matrix(&st16;  153.43  40.58 )">(BAT)</text>
		<text style="&st18;" transform="matrix(&st16;  155.29  94.96 )">2</text>
		<text style="&st18;" transform="matrix(&st16;  159.67  109.99 )">1</text>
		<text style="&st18;" transform="matrix(&st16;  177.9  61.84 )">10A <tspan x="0 " dy="6.0">ECU-B </tspan><tspan x="0 " dy="6.0">NO.1</tspan></text>
		<path style="stroke-width: 0.85 ;&st7;  " d=" M   161.47,    78.27  L   161.47,    86.77  "/>
		<path style="stroke-width: 0.85 ;&st7;   " d=" M   162.89,    76.86  C   162.89     76.07    162.26     75.44    161.47     75.44  "/>
		<path style="stroke-width: 0.85 ;&st7;   " d=" M   161.47,    75.44  C   160.69     75.44    160.06     76.07    160.06     76.86  "/>
		<path style="stroke-width: 0.85 ;&st7;   " d=" M   160.06,    76.86  C   160.06     77.64    160.69     78.27    161.47     78.27  "/>
		<path style="stroke-width: 0.85 ;&st7;   " d=" M   161.47,    78.27  C   162.26     78.27    162.89     77.64    162.89     76.86  "/>
		<path style="stroke-width: 0.85 ;&st7;   " d=" M   162.89,    54.19  C   162.89     53.41    162.26     52.78    161.47     52.78  "/>
		<path style="stroke-width: 0.85 ;&st7;   " d=" M   161.47,    52.78  C   160.69     52.78    160.06     53.41    160.06     54.19  "/>
		<path style="stroke-width: 0.85 ;&st7;   " d=" M   160.06,    54.19  C   160.06     54.98    160.69     55.61    161.47     55.61  "/>
		<path style="stroke-width: 0.85 ;&st7;   " d=" M   161.47,    55.61  C   162.26     55.61    162.89     54.98    162.89     54.19  "/>
		<path style="stroke-width: 1.42 ;&st7;   " d=" M   161.47,    75.44  C   164.21     73.83    165.12     70.30    163.51     67.56  "/>
		<path style="stroke-width: 1.42 ;&st7;   " d=" M   163.51,    67.56  C   162.99     66.68    162.35     66.04    161.47     65.52  "/>
		<path style="stroke-width: 1.42 ;&st7;   " d=" M   161.47,    55.61  C   158.74     57.22    157.82     60.75    159.44     63.49  "/>
		<path style="stroke-width: 1.42 ;&st7;   " d=" M   159.44,    63.49  C   159.96     64.37    160.59     65.00    161.47     65.52  "/>
		<path style="stroke-width: 1.42 ;&st7;  " d=" M   148.73,    44.28  L   148.73,    86.77  L   174.22,    86.77  L   174.22,    44.28  L   148.73,    44.28  "/>
	</g>
	<g ewd:figtype="rb" ewd:figID="4" ewd:code="FUSE6">
		<text style="&st18;" transform="matrix(&st16;  1138.24  53.34 )">10A <tspan x="0 " dy="6.0">ECU-B </tspan><tspan x="0 " dy="6.0">NO.2</tspan></text>
		<text style="&st18;" transform="matrix(&st16;  1120.01  101.49 )">1</text>
		<text style="&st18;" transform="matrix(&st16;  1115.63  86.47 )">2</text>
		<text style="&st18;" transform="matrix(&st16;  1113.77  32.08 )">(BAT)</text>
		<path style="stroke-width: 0.28 ;&st9;  " d=" M  1121.81,    90.37  L  1118.98,    87.54  L  1118.98,    91.79  L  1121.81,    94.62  L  1124.64,    91.79  L  1124.64,    87.54  L  1121.81,    90.37  "/>
		<path style="stroke-width: 1.42 ;&st7;   " d=" M  1128.19,    99.52  C  1128.19     97.17   1126.28     95.27   1123.94     95.27  "/>
		<path style="stroke-width: 1.42 ;&st7;   " d=" M  1123.94,   103.77  C  1126.28    103.77   1128.19    101.87   1128.19     99.52  "/>
		<path style="stroke-width: 1.42 ;&st7;   " d=" M  1115.44,    99.52  C  1115.44    101.87   1117.34    103.77   1119.69    103.77  "/>
		<path style="stroke-width: 1.42 ;&st7;   " d=" M  1119.69,    95.27  C  1117.34     95.27   1115.44     97.17   1115.44     99.52  "/>
		<path style="stroke-width: 1.42 ;&st7;  " d=" M  1123.94,   103.77  L  1119.69,   103.77  "/>
		<path style="stroke-width: 1.42 ;&st7;  " d=" M  1123.94,    95.27  L  1119.69,    95.27  "/>
		<path style="stroke-width: 0.85 ;&st7;  " d=" M  1121.81,    69.77  L  1121.81,    95.27  "/>
		<path style="stroke-width: 1.42 ;&st7;  " d=" M  1134.56,    78.27  L  1134.56,    35.78  L  1109.06,    35.78  L  1109.06,    78.27  L  1134.56,    78.27  "/>
		<path style="stroke-width: 0.85 ;&st7;   " d=" M  1123.23,    68.36  C  1123.23     67.57   1122.59     66.94   1121.81     66.94  "/>
		<path style="stroke-width: 0.85 ;&st7;   " d=" M  1121.81,    66.94  C  1121.03     66.94   1120.40     67.57   1120.40     68.36  "/>
		<path style="stroke-width: 0.85 ;&st7;   " d=" M  1120.40,    68.36  C  1120.40     69.14   1121.03     69.77   1121.81     69.77  "/>
		<path style="stroke-width: 0.85 ;&st7;   " d=" M  1121.81,    69.77  C  1122.59     69.77   1123.23     69.14   1123.23     68.36  "/>
		<path style="stroke-width: 0.85 ;&st7;   " d=" M  1123.23,    45.69  C  1123.23     44.91   1122.59     44.28   1121.81     44.28  "/>
		<path style="stroke-width: 0.85 ;&st7;   " d=" M  1121.81,    44.28  C  1121.03     44.28   1120.40     44.91   1120.40     45.69  "/>
		<path style="stroke-width: 0.85 ;&st7;   " d=" M  1120.40,    45.69  C  1120.40     46.48   1121.03     47.11   1121.81     47.11  "/>
		<path style="stroke-width: 0.85 ;&st7;   " d=" M  1121.81,    47.11  C  1122.59     47.11   1123.23     46.48   1123.23     45.69  "/>
		<path style="stroke-width: 1.42 ;&st7;   " d=" M  1121.81,    66.94  C  1124.55     65.33   1125.46     61.80   1123.85     59.06  "/>
		<path style="stroke-width: 1.42 ;&st7;   " d=" M  1123.85,    59.06  C  1123.33     58.18   1122.69     57.55   1121.81     57.03  "/>
		<path style="stroke-width: 1.42 ;&st7;   " d=" M  1121.81,    47.11  C  1119.07     48.72   1118.16     52.25   1119.78     54.99  "/>
		<path style="stroke-width: 1.42 ;&st7;   " d=" M  1119.78,    54.99  C  1120.30     55.87   1120.93     56.51   1121.81     57.03  "/>
	</g>
	<g ewd:figtype="conn" ewd:figID="5" ewd:code="G93">
		<path style="stroke-width: 1.42 ;&st7;  " d=" M  1249.29,   188.75  L  1266.29,   188.75  L  1266.29,   205.75  L  1249.29,   205.75  L  1249.29,   188.75  "/>
		<path style="stroke-width: 0.85 ;&st7;  " d=" M  1257.79,   188.75  L  1257.79,   205.75  "/>
		<text style="&st18;" transform="matrix(&st16;  1248.5  213.94 )">12</text>
		<text style="&st18;" transform="matrix(&st16;  1248.5  185.06 )">15</text>
		<g ewd:figtype="title">
			<text style="&st18;" transform="matrix(&st17;  1273.9  208.65 )">G93</text>
			<text style="&st18;" transform="matrix(&st17;  1281.01  208.66 )" ewd:textID="12">No. 1 Junction Connector</text>
		</g>
	</g>
	<g ewd:figtype="conn" ewd:figID="6" ewd:code="G102">
		<path style="stroke-width: 1.42 ;&st7;  " d=" M  1198.30,   188.75  L  1215.30,   188.75  L  1215.30,   205.75  L  1198.30,   205.75  L  1198.30,   188.75  "/>
		<path style="stroke-width: 0.85 ;&st7;  " d=" M  1206.80,   188.75  L  1206.80,   205.75  "/>
		<text style="&st18;" transform="matrix(&st16;  1197.51  213.94 )">22</text>
		<text style="&st18;" transform="matrix(&st16;  1197.51  185.06 )">19</text>
		<g ewd:figtype="title">
			<text style="&st18;" transform="matrix(&st17;  1222.91  208.65 )">G102</text>
			<text style="&st18;" transform="matrix(&st17;  1230.01  208.66 )" ewd:textID="17">No. 7 <tspan x="0 " dy="6.0">Junction </tspan><tspan x="0 " dy="6.0">Connector</tspan></text>
		</g>
	</g>
	<g ewd:figtype="conn" ewd:figID="7" ewd:code="G7">
		<path style="stroke-width: 1.42 ;&st7;  " d=" M   569.40,   392.72  L   569.40,   358.73  L   586.40,   358.73  L   586.40,   392.72  L   569.40,   392.72  "/>
		<path style="stroke-width: 0.85 ;&st7;   " d=" M   579.32,   364.39  C   579.32    363.61    578.69    362.97    577.90    362.97  "/>
		<path style="stroke-width: 0.85 ;&st7;   " d=" M   577.90,   362.97  C   577.12    362.97    576.49    363.61    576.49    364.39  "/>
		<path style="stroke-width: 0.85 ;&st7;   " d=" M   576.49,   364.39  C   576.49    365.17    577.12    365.81    577.90    365.81  "/>
		<path style="stroke-width: 0.85 ;&st7;   " d=" M   577.90,   365.81  C   578.69    365.81    579.32    365.17    579.32    364.39  "/>
		<path style="stroke-width: 0.85 ;&st7;   " d=" M   579.32,   387.05  C   579.32    386.27    578.69    385.64    577.90    385.64  "/>
		<path style="stroke-width: 0.85 ;&st7;   " d=" M   577.90,   385.64  C   577.12    385.64    576.49    386.27    576.49    387.05  "/>
		<path style="stroke-width: 0.85 ;&st7;   " d=" M   576.49,   387.05  C   576.49    387.84    577.12    388.47    577.90    388.47  "/>
		<path style="stroke-width: 0.85 ;&st7;   " d=" M   577.90,   388.47  C   578.69    388.47    579.32    387.84    579.32    387.05  "/>
		<path style="stroke-width: 0.85 ;&st7;  " d=" M   577.90,   362.97  L   577.90,   358.73  "/>
		<path style="stroke-width: 0.85 ;&st7;  " d=" M   577.90,   392.72  L   577.90,   388.47  "/>
		<path style="stroke-width: 1.42 ;&st7;  " d=" M   577.90,   385.64  L   583.57,   362.97  "/>
		<text style="&st18;" transform="matrix(&st16;  571.72  400.91 )">2</text>
		<text style="&st18;" transform="matrix(&st16;  571.72  355.04 )">1</text>
		<g ewd:figtype="title">
			<text style="&st18;" transform="matrix(&st17;  558.6  395.62 )">G7</text>
			<text style="&st18;" transform="matrix(&st17;  565.71  395.63 )" ewd:textID="19">Un-Lock Warning Switch Assembly</text>
		</g>
	</g>
	<g ewd:figtype="conn" ewd:figID="8" ewd:code="M4">
		<path style="stroke-width: 1.42 ;&st7;  " d=" M   713.88,   385.64  L   719.55,   362.97  "/>
		<path style="stroke-width: 0.85 ;&st7;  " d=" M   713.88,   392.72  L   713.88,   388.47  "/>
		<path style="stroke-width: 0.85 ;&st7;  " d=" M   713.88,   362.97  L   713.88,   358.73  "/>
		<path style="stroke-width: 0.85 ;&st7;   " d=" M   715.30,   387.05  C   715.30    386.27    714.66    385.64    713.88    385.64  "/>
		<path style="stroke-width: 0.85 ;&st7;   " d=" M   713.88,   385.64  C   713.10    385.64    712.46    386.27    712.46    387.05  "/>
		<path style="stroke-width: 0.85 ;&st7;   " d=" M   712.46,   387.05  C   712.46    387.84    713.10    388.47    713.88    388.47  "/>
		<path style="stroke-width: 0.85 ;&st7;   " d=" M   713.88,   388.47  C   714.66    388.47    715.30    387.84    715.30    387.05  "/>
		<path style="stroke-width: 0.85 ;&st7;   " d=" M   715.30,   364.39  C   715.30    363.61    714.66    362.97    713.88    362.97  "/>
		<path style="stroke-width: 0.85 ;&st7;   " d=" M   713.88,   362.97  C   713.10    362.97    712.46    363.61    712.46    364.39  "/>
		<path style="stroke-width: 0.85 ;&st7;   " d=" M   712.46,   364.39  C   712.46    365.17    713.10    365.81    713.88    365.81  "/>
		<path style="stroke-width: 0.85 ;&st7;   " d=" M   713.88,   365.81  C   714.66    365.81    715.30    365.17    715.30    364.39  "/>
		<path style="stroke-width: 1.42 ;&st7;  " d=" M   722.38,   392.72  L   722.38,   358.73  L   705.38,   358.73  L   705.38,   392.72  L   722.38,   392.72  "/>
		<text style="&st18;" transform="matrix(&st16;  707.7  355.04 )">1</text>
		<g ewd:figtype="title">
			<text style="&st18;" transform="matrix(&st17;  737.1  395.63 )" ewd:textID="9">Front Door Courtesy Light Switch Assembly RH</text>
			<text style="&st18;" transform="matrix(&st17;  729.99  395.62 )">M4</text>
		</g>
	</g>
	<g ewd:figtype="conn" ewd:figID="9" ewd:code="N6">
		<path style="stroke-width: 1.42 ;&st7;  " d=" M   654.39,   385.64  L   660.06,   362.97  "/>
		<path style="stroke-width: 0.85 ;&st7;  " d=" M   654.39,   392.72  L   654.39,   388.47  "/>
		<path style="stroke-width: 0.85 ;&st7;  " d=" M   654.39,   362.97  L   654.39,   358.73  "/>
		<path style="stroke-width: 0.85 ;&st7;   " d=" M   655.81,   387.05  C   655.81    386.27    655.17    385.64    654.39    385.64  "/>
		<path style="stroke-width: 0.85 ;&st7;   " d=" M   654.39,   385.64  C   653.61    385.64    652.97    386.27    652.97    387.05  "/>
		<path style="stroke-width: 0.85 ;&st7;   " d=" M   652.97,   387.05  C   652.97    387.84    653.61    388.47    654.39    388.47  "/>
		<path style="stroke-width: 0.85 ;&st7;   " d=" M   654.39,   388.47  C   655.17    388.47    655.81    387.84    655.81    387.05  "/>
		<path style="stroke-width: 0.85 ;&st7;   " d=" M   655.81,   364.39  C   655.81    363.61    655.17    362.97    654.39    362.97  "/>
		<path style="stroke-width: 0.85 ;&st7;   " d=" M   654.39,   362.97  C   653.61    362.97    652.97    363.61    652.97    364.39  "/>
		<path style="stroke-width: 0.85 ;&st7;   " d=" M   652.97,   364.39  C   652.97    365.17    653.61    365.81    654.39    365.81  "/>
		<path style="stroke-width: 0.85 ;&st7;   " d=" M   654.39,   365.81  C   655.17    365.81    655.81    365.17    655.81    364.39  "/>
		<path style="stroke-width: 1.42 ;&st7;  " d=" M   662.89,   392.72  L   662.89,   358.73  L   645.89,   358.73  L   645.89,   392.72  L   662.89,   392.72  "/>
		<text style="&st18;" transform="matrix(&st16;  648.21  355.04 )">1</text>
		<g ewd:figtype="title">
			<text style="&st18;" transform="matrix(&st17;  677.61  395.63 )" ewd:textID="8">Front Door Courtesy Light Switch Assembly LH</text>
			<text style="&st18;" transform="matrix(&st17;  670.5  395.62 )">N6</text>
		</g>
	</g>
	<g ewd:figtype="conn" ewd:figID="10" ewd:code="G134">
		<path style="stroke-width: 1.42 ;&st7;  " d=" M   926.34,   307.73  L   977.34,   307.73  L   977.34,   290.74  L   926.34,   290.74  L   926.34,   307.73  "/>
		<path style="stroke-width: 0.85 ;&st7;  " d=" M   934.84,   290.74  L   934.84,   307.73  "/>
		<path style="stroke-width: 0.85 ;&st7;  " d=" M   968.84,   290.74  L   968.84,   307.73  "/>
		<text style="&st18;" transform="matrix(&st16;  925.56  287.05 )">16</text>
		<text style="&st18;" transform="matrix(&st16;  962.65  287.05 )">5</text>
		<text style="&st18;" transform="matrix(&st16;  925.56  315.93 )">20</text>
		<text style="&st18;" transform="matrix(&st16;  962.65  315.93 )">9</text>
		<g ewd:figtype="title">
			<text style="&st18;" transform="matrix(&st17;  984.95  310.63 )">G134</text>
			<text style="&st18;" transform="matrix(&st17;  992.05  310.64 )" ewd:textID="14">No. 4 CAN Junction <tspan x="0 " dy="6.0">Connector</tspan></text>
		</g>
	</g>
	<g ewd:figtype="conn" ewd:figID="11" ewd:code="G119,G123">
		<path style="stroke-width: 1.42 ;&st7;  " d=" M   798.87,   307.73  L   875.35,   307.73  L   875.35,   290.74  L   798.87,   290.74  L   798.87,   307.73  "/>
		<path style="stroke-width: 0.85 ;&st7;  " d=" M   807.36,   290.74  L   807.36,   307.73  "/>
		<path style="stroke-width: 0.85 ;&st7;  " d=" M   866.85,   290.74  L   866.85,   307.73  "/>
		<text style="&st18;" transform="matrix(&st16;  798.67  314.24 )">2</text>
		<path style="stroke-width: 1.42 ;&st7;   " d=" M   811.90,   312.27  C   811.90    309.76    809.87    307.73    807.37    307.73  "/>
		<path style="stroke-width: 1.42 ;&st7;   " d=" M   807.37,   307.73  C   804.86    307.73    802.83    309.76    802.83    312.27  "/>
		<path style="stroke-width: 1.42 ;&st7;   " d=" M   802.83,   312.27  C   802.83    314.77    804.86    316.80    807.37    316.80  "/>
		<path style="stroke-width: 1.42 ;&st7;   " d=" M   807.37,   316.80  C   809.87    316.80    811.90    314.77    811.90    312.27  "/>
		<text style="&st18;" transform="matrix(&st16;  805.18  314.24 )">B</text>
		<text style="&st18;" transform="matrix(&st16;  798.67  288.17 )">2</text>
		<text style="&st18;" transform="matrix(&st16;  805.25  288.17 )">F</text>
		<path style="stroke-width: 1.42 ;&st7;   " d=" M   811.90,   286.20  C   811.90    283.70    809.87    281.67    807.37    281.67  "/>
		<path style="stroke-width: 1.42 ;&st7;   " d=" M   807.37,   281.67  C   804.86    281.67    802.83    283.70    802.83    286.20  "/>
		<path style="stroke-width: 1.42 ;&st7;   " d=" M   802.83,   286.20  C   802.83    288.71    804.86    290.74    807.37    290.74  "/>
		<path style="stroke-width: 1.42 ;&st7;   " d=" M   807.37,   290.74  C   809.87    290.74    811.90    288.71    811.90    286.20  "/>
		<text style="&st18;" transform="matrix(&st16;  858.16  314.24 )">1</text>
		<text style="&st18;" transform="matrix(&st16;  864.67  314.24 )">B</text>
		<path style="stroke-width: 1.42 ;&st7;   " d=" M   871.39,   312.27  C   871.39    309.76    869.36    307.73    866.86    307.73  "/>
		<path style="stroke-width: 1.42 ;&st7;   " d=" M   866.86,   307.73  C   864.35    307.73    862.32    309.76    862.32    312.27  "/>
		<path style="stroke-width: 1.42 ;&st7;   " d=" M   862.32,   312.27  C   862.32    314.77    864.35    316.80    866.86    316.80  "/>
		<path style="stroke-width: 1.42 ;&st7;   " d=" M   866.86,   316.80  C   869.36    316.80    871.39    314.77    871.39    312.27  "/>
		<text style="&st18;" transform="matrix(&st16;  858.16  288.17 )">1</text>
		<path style="stroke-width: 1.42 ;&st7;   " d=" M   871.39,   286.20  C   871.39    283.70    869.36    281.67    866.86    281.67  "/>
		<path style="stroke-width: 1.42 ;&st7;   " d=" M   866.86,   281.67  C   864.35    281.67    862.32    283.70    862.32    286.20  "/>
		<path style="stroke-width: 1.42 ;&st7;   " d=" M   862.32,   286.20  C   862.32    288.71    864.35    290.74    866.86    290.74  "/>
		<path style="stroke-width: 1.42 ;&st7;   " d=" M   866.86,   290.74  C   869.36    290.74    871.39    288.71    871.39    286.20  "/>
		<text style="&st18;" transform="matrix(&st16;  864.74  288.17 )">F</text>
		<g ewd:figtype="title">
			<text style="&st18;" transform="matrix(&st17;  882.97  310.63 )">G119(B),G123(F)</text>
			<text style="&st18;" transform="matrix(&st17;  890.07  310.64 )" ewd:textID="11">No. 1 CAN Junction <tspan x="0 " dy="6.0">Connector</tspan></text>
		</g>
	</g>
	<g ewd:figtype="conn" ewd:figID="12" ewd:code="G128,G129">
		<path style="stroke-width: 1.42 ;&st7;  " d=" M  1334.28,   588.19  L  1410.76,   588.19  L  1410.76,   571.19  L  1334.28,   571.19  L  1334.28,   588.19  "/>
		<path style="stroke-width: 0.85 ;&st7;  " d=" M  1342.78,   571.19  L  1342.78,   588.19  "/>
		<path style="stroke-width: 0.85 ;&st7;  " d=" M  1402.27,   571.19  L  1402.27,   588.19  "/>
		<text style="&st18;" transform="matrix(&st16;  1393.57  594.69 )">2</text>
		<text style="&st18;" transform="matrix(&st16;  1399.84  594.69 )">C</text>
		<path style="stroke-width: 1.42 ;&st7;   " d=" M  1406.80,   592.72  C  1406.80    590.22   1404.77    588.19   1402.27    588.19  "/>
		<path style="stroke-width: 1.42 ;&st7;   " d=" M  1402.27,   588.19  C  1399.76    588.19   1397.73    590.22   1397.73    592.72  "/>
		<path style="stroke-width: 1.42 ;&st7;   " d=" M  1397.73,   592.72  C  1397.73    595.22   1399.76    597.25   1402.27    597.25  "/>
		<path style="stroke-width: 1.42 ;&st7;   " d=" M  1402.27,   597.25  C  1404.77    597.25   1406.80    595.22   1406.80    592.72  "/>
		<text style="&st18;" transform="matrix(&st16;  1334.08  594.69 )">1</text>
		<path style="stroke-width: 1.42 ;&st7;   " d=" M  1347.31,   592.72  C  1347.31    590.22   1345.28    588.19   1342.78    588.19  "/>
		<path style="stroke-width: 1.42 ;&st7;   " d=" M  1342.78,   588.19  C  1340.27    588.19   1338.24    590.22   1338.24    592.72  "/>
		<path style="stroke-width: 1.42 ;&st7;   " d=" M  1338.24,   592.72  C  1338.24    595.22   1340.27    597.25   1342.78    597.25  "/>
		<path style="stroke-width: 1.42 ;&st7;   " d=" M  1342.78,   597.25  C  1345.28    597.25   1347.31    595.22   1347.31    592.72  "/>
		<text style="&st18;" transform="matrix(&st16;  1340.35  594.69 )">C</text>
		<text style="&st18;" transform="matrix(&st16;  1334.08  568.63 )">1</text>
		<text style="&st18;" transform="matrix(&st16;  1340.59  568.63 )">B</text>
		<path style="stroke-width: 1.42 ;&st7;   " d=" M  1347.31,   566.66  C  1347.31    564.15   1345.28    562.12   1342.78    562.12  "/>
		<path style="stroke-width: 1.42 ;&st7;   " d=" M  1342.78,   562.12  C  1340.27    562.12   1338.24    564.15   1338.24    566.66  "/>
		<path style="stroke-width: 1.42 ;&st7;   " d=" M  1338.24,   566.66  C  1338.24    569.16   1340.27    571.19   1342.78    571.19  "/>
		<path style="stroke-width: 1.42 ;&st7;   " d=" M  1342.78,   571.19  C  1345.28    571.19   1347.31    569.16   1347.31    566.66  "/>
		<text style="&st18;" transform="matrix(&st16;  1393.57  568.63 )">2</text>
		<path style="stroke-width: 1.42 ;&st7;   " d=" M  1406.80,   566.66  C  1406.80    564.15   1404.77    562.12   1402.27    562.12  "/>
		<path style="stroke-width: 1.42 ;&st7;   " d=" M  1402.27,   562.12  C  1399.76    562.12   1397.73    564.15   1397.73    566.66  "/>
		<path style="stroke-width: 1.42 ;&st7;   " d=" M  1397.73,   566.66  C  1397.73    569.16   1399.76    571.19   1402.27    571.19  "/>
		<path style="stroke-width: 1.42 ;&st7;   " d=" M  1402.27,   571.19  C  1404.77    571.19   1406.80    569.16   1406.80    566.66  "/>
		<text style="&st18;" transform="matrix(&st16;  1400.08  568.63 )">B</text>
		<g ewd:figtype="title">
			<text style="&st18;" transform="matrix(&st17;  1418.38  591.09 )">G128(B),G129(C)</text>
			<text style="&st18;" transform="matrix(&st17;  1425.48  591.09 )" ewd:textID="13">No. 2 CAN Junction <tspan x="0 " dy="6.0">Connector</tspan></text>
		</g>
	</g>
	<g ewd:figtype="conn" ewd:figID="13" ewd:code="G100">
		<path style="stroke-width: 1.42 ;&st7;  " d=" M    76.49,   180.26  L    93.48,   180.26  L    93.48,   197.25  L    76.49,   197.25  L    76.49,   180.26  "/>
		<path style="stroke-width: 0.85 ;&st7;  " d=" M    84.99,   180.26  L    84.99,   197.25  "/>
		<text style="&st18;" transform="matrix(&st16;  75.7  176.57 )">12</text>
		<text style="&st18;" transform="matrix(&st16;  75.7  205.45 )">18</text>
		<g ewd:figtype="title">
			<text style="&st18;" transform="matrix(&st17;  101.1  200.15 )">G100</text>
			<text style="&st18;" transform="matrix(&st17;  108.2  200.16 )" ewd:textID="16">No. 6 <tspan x="0 " dy="6.0">Junction Connector</tspan></text>
		</g>
	</g>
	<g ewd:figtype="conn" ewd:figID="14" ewd:code="G105">
		<path style="stroke-width: 1.42 ;&st7;  " d=" M    17.00,   180.26  L    33.99,   180.26  L    33.99,   197.25  L    17.00,   197.25  L    17.00,   180.26  "/>
		<path style="stroke-width: 0.85 ;&st7;  " d=" M    25.50,   180.26  L    25.50,   197.25  "/>
		<text style="&st18;" transform="matrix(&st16;  16.21  176.57 )">10</text>
		<text style="&st18;" transform="matrix(&st16;  19.31  205.45 )">7</text>
		<g ewd:figtype="title">
			<text style="&st18;" transform="matrix(&st17;  41.61  200.15 )">G105</text>
			<text style="&st18;" transform="matrix(&st17;  48.71  200.16 )" ewd:textID="18">No. 10 <tspan x="0 " dy="6.0">Junction Connector</tspan></text>
		</g>
	</g>
	<g ewd:figtype="conn" ewd:figID="15" ewd:code="G93">
		<path style="stroke-width: 0.85 ;&st7;  " d=" M   577.90,   231.25  L   577.90,   248.24  "/>
		<path style="stroke-width: 1.42 ;&st7;  " d=" M   569.40,   231.25  L   586.40,   231.25  L   586.40,   248.24  L   569.40,   248.24  L   569.40,   231.25  "/>
		<text style="&st18;" transform="matrix(&st16;  571.72  227.56 )">1</text>
		<text style="&st18;" transform="matrix(&st16;  571.72  256.44 )">2</text>
		<g ewd:figtype="title">
			<text style="&st18;" transform="matrix(&st17;  601.12  251.15 )" ewd:textID="12">No. 1 Junction Connector</text>
			<text style="&st18;" transform="matrix(&st17;  594.01  251.14 )">G93</text>
		</g>
	</g>
	<g ewd:figtype="conn" ewd:figID="16" ewd:code="G78">
		<g ewd:lineID="10">
			<text style="&st18;" transform="matrix(&st16;  566.11  93.27 )">17</text>
			<path style="stroke-width: 1.42 ;&st7;   " d=" M   582.44,    91.30  C   582.44     88.80    580.41     86.77    577.90     86.77  "/>
			<path style="stroke-width: 1.42 ;&st7;   " d=" M   577.90,    86.77  C   575.40     86.77    573.37     88.80    573.37     91.30  "/>
			<path style="stroke-width: 1.42 ;&st7;   " d=" M   573.37,    91.30  C   573.37     93.81    575.40     95.84    577.90     95.84  "/>
			<path style="stroke-width: 1.42 ;&st7;   " d=" M   577.90,    95.84  C   580.41     95.84    582.44     93.81    582.44     91.30  "/>
			<text style="&st18;" transform="matrix(&st16;  575.6  93.27 )">A</text>
			<text style="&st18;" transform="matrix(&st16;  571.33  83.07 )">KSW</text>
		</g>
		<g ewd:lineID="13">
			<text style="&st18;" transform="matrix(&st16;  702.08  93.27 )">19</text>
			<path style="stroke-width: 1.42 ;&st7;   " d=" M   718.41,    91.30  C   718.41     88.80    716.38     86.77    713.88     86.77  "/>
			<path style="stroke-width: 1.42 ;&st7;   " d=" M   713.88,    86.77  C   711.38     86.77    709.35     88.80    709.35     91.30  "/>
			<path style="stroke-width: 1.42 ;&st7;   " d=" M   709.35,    91.30  C   709.35     93.81    711.38     95.84    713.88     95.84  "/>
			<path style="stroke-width: 1.42 ;&st7;   " d=" M   713.88,    95.84  C   716.38     95.84    718.41     93.81    718.41     91.30  "/>
			<text style="&st18;" transform="matrix(&st16;  711.58  93.27 )">A</text>
			<text style="&st18;" transform="matrix(&st16;  705.8  83.07 )">FRCY</text>
		</g>
		<g ewd:lineID="15,16">
			<text style="&st18;" transform="matrix(&st16;  795.57  93.27 )">13</text>
			<text style="&st18;" transform="matrix(&st16;  805.06  93.27 )">A</text>
			<path style="stroke-width: 1.42 ;&st7;   " d=" M   811.90,    91.30  C   811.90     88.80    809.87     86.77    807.37     86.77  "/>
			<path style="stroke-width: 1.42 ;&st7;   " d=" M   807.37,    86.77  C   804.86     86.77    802.83     88.80    802.83     91.30  "/>
			<path style="stroke-width: 1.42 ;&st7;   " d=" M   802.83,    91.30  C   802.83     93.81    804.86     95.84    807.37     95.84  "/>
			<path style="stroke-width: 1.42 ;&st7;   " d=" M   807.37,    95.84  C   809.87     95.84    811.90     93.81    811.90     91.30  "/>
			<text style="&st18;" transform="matrix(&st16;  799.01  83.07 )">CANL</text>
		</g>
		<g ewd:lineID="18,19">
			<text style="&st18;" transform="matrix(&st16;  855.06  93.27 )">14</text>
			<path style="stroke-width: 1.42 ;&st7;   " d=" M   871.39,    91.30  C   871.39     88.80    869.36     86.77    866.86     86.77  "/>
			<path style="stroke-width: 1.42 ;&st7;   " d=" M   866.86,    86.77  C   864.35     86.77    862.32     88.80    862.32     91.30  "/>
			<path style="stroke-width: 1.42 ;&st7;   " d=" M   862.32,    91.30  C   862.32     93.81    864.35     95.84    866.86     95.84  "/>
			<path style="stroke-width: 1.42 ;&st7;   " d=" M   866.86,    95.84  C   869.36     95.84    871.39     93.81    871.39     91.30  "/>
			<text style="&st18;" transform="matrix(&st16;  864.55  93.27 )">A</text>
			<text style="&st18;" transform="matrix(&st16;  858.08  83.07 )">CANH</text>
		</g>
		<path style="stroke-width: 1.42 ;&st7;  " d=" M   288.95,    44.28  L   288.95,    86.77  L   892.35,    86.77  L   892.35,    44.28  L   288.95,    44.28  "/>
		<g ewd:figtype="title">
			<text style="&st18;" transform="matrix(&st16;  311.03  33.47 )">G78(A)</text>
			<text style="&st18;" transform="matrix(&st16;  311.04  40.58 )" ewd:textID="10">Main Body ECU</text>
		</g>
		<g ewd:lineID="31">
			<text style="&st18;" transform="matrix(&st16;  299.3  83.07 )">ACC</text>
			<text style="&st18;" transform="matrix(&st16;  340.09  83.07 )">BECU</text>
			<text style="&st18;" transform="matrix(&st16;  404.58  83.07 )">IG</text>
			<text style="&st18;" transform="matrix(&st16;  459.22  83.07 )">GND1</text>
		</g>
		<g ewd:lineID="32">
			<text style="&st18;" transform="matrix(&st16;  646.35  83.07 )">FLCY</text>
		</g>
	</g>
	<g ewd:figtype="jb" ewd:figID="19" ewd:code="3">
		<text style="&st18;" transform="matrix(&st16;  1302.6  86.47 )">2</text>
		<path style="stroke-width: 1.42 ;&st7;  " d=" M  1310.91,   103.77  L  1306.66,   103.77  "/>
		<text style="&st18;" transform="matrix(&st16;  1303.57  32.08 )">(IG)</text>
		<text style="&st18;" transform="matrix(&st16;  1295.17  101.49 )">36</text>
		<text style="&st18;" transform="matrix(&st16;  1304.85  101.49 )">3D</text>
		<text style="&st18;" transform="matrix(&st16;  1325.21  56.17 )">5A <tspan x="0 " dy="6.0">METER</tspan></text>
		<path style="stroke-width: 1.42 ;&st7;  " d=" M  1321.53,    78.27  L  1321.53,    35.78  L  1296.03,    35.78  L  1296.03,    78.27  L  1321.53,    78.27  "/>
		<path style="stroke-width: 0.28 ;&st9;  " d=" M  1308.78,    90.37  L  1305.95,    87.54  L  1305.95,    91.79  L  1308.78,    94.62  L  1311.61,    91.79  L  1311.61,    87.54  L  1308.78,    90.37  "/>
		<path style="stroke-width: 1.42 ;&st7;   " d=" M  1308.78,    47.11  C  1306.04     48.72   1305.13     52.25   1306.74     54.99  "/>
		<path style="stroke-width: 1.42 ;&st7;   " d=" M  1306.74,    54.99  C  1307.26     55.87   1307.90     56.51   1308.78     57.03  "/>
		<path style="stroke-width: 0.85 ;&st7;   " d=" M  1310.20,    45.69  C  1310.20     44.91   1309.56     44.28   1308.78     44.28  "/>
		<path style="stroke-width: 0.85 ;&st7;   " d=" M  1308.78,    44.28  C  1308.00     44.28   1307.36     44.91   1307.36     45.69  "/>
		<path style="stroke-width: 0.85 ;&st7;   " d=" M  1307.36,    45.69  C  1307.36     46.48   1308.00     47.11   1308.78     47.11  "/>
		<path style="stroke-width: 0.85 ;&st7;   " d=" M  1308.78,    47.11  C  1309.56     47.11   1310.20     46.48   1310.20     45.69  "/>
		<path style="stroke-width: 0.85 ;&st7;   " d=" M  1310.20,    68.36  C  1310.20     67.57   1309.56     66.94   1308.78     66.94  "/>
		<path style="stroke-width: 0.85 ;&st7;   " d=" M  1308.78,    66.94  C  1308.00     66.94   1307.36     67.57   1307.36     68.36  "/>
		<path style="stroke-width: 0.85 ;&st7;   " d=" M  1307.36,    68.36  C  1307.36     69.14   1308.00     69.77   1308.78     69.77  "/>
		<path style="stroke-width: 0.85 ;&st7;   " d=" M  1308.78,    69.77  C  1309.56     69.77   1310.20     69.14   1310.20     68.36  "/>
		<path style="stroke-width: 1.42 ;&st7;   " d=" M  1302.41,    99.52  C  1302.41    101.87   1304.31    103.77   1306.66    103.77  "/>
		<path style="stroke-width: 1.42 ;&st7;   " d=" M  1310.91,   103.77  C  1313.25    103.77   1315.16    101.87   1315.16     99.52  "/>
		<path style="stroke-width: 1.42 ;&st7;   " d=" M  1315.16,    99.52  C  1315.16     97.17   1313.25     95.27   1310.91     95.27  "/>
		<path style="stroke-width: 1.42 ;&st7;   " d=" M  1308.78,    66.94  C  1311.52     65.33   1312.43     61.80   1310.82     59.06  "/>
		<path style="stroke-width: 1.42 ;&st7;   " d=" M  1310.82,    59.06  C  1310.30     58.18   1309.66     57.55   1308.78     57.03  "/>
		<path style="stroke-width: 0.85 ;&st7;  " d=" M  1308.78,    69.77  L  1308.78,    95.27  "/>
		<path style="stroke-width: 1.42 ;&st7;  " d=" M  1310.91,    95.27  L  1306.66,    95.27  "/>
		<path style="stroke-width: 1.42 ;&st7;   " d=" M  1306.66,    95.27  C  1304.31     95.27   1302.41     97.17   1302.41     99.52  "/>
	</g>
	<g ewd:figtype="jb" ewd:figID="20" ewd:code="3">
		<path style="stroke-width: 1.42 ;&st7;  " d=" M   656.52,   120.77  L   652.27,   120.77  "/>
		<path style="stroke-width: 1.42 ;&st7;  " d=" M   656.52,   129.26  L   652.27,   129.26  "/>
		<path style="stroke-width: 1.42 ;&st7;   " d=" M   652.27,   120.77  C   649.92    120.77    648.02    122.67    648.02    125.01  "/>
		<path style="stroke-width: 1.42 ;&st7;   " d=" M   648.02,   125.01  C   648.02    127.36    649.92    129.26    652.27    129.26  "/>
		<path style="stroke-width: 1.42 ;&st7;   " d=" M   656.52,   129.26  C   658.86    129.26    660.76    127.36    660.76    125.01  "/>
		<path style="stroke-width: 1.42 ;&st7;   " d=" M   660.76,   125.01  C   660.76    122.67    658.86    120.77    656.52    120.77  "/>
		<path style="stroke-width: 0.28 ;&st9;  " d=" M   654.39,   115.87  L   651.56,   113.04  L   651.56,   117.29  L   654.39,   120.12  L   657.22,   117.29  L   657.22,   113.04  L   654.39,   115.87  "/>
		<path style="stroke-width: 0.85 ;&st7;  " d=" M   654.39,    86.77  L   654.39,   120.77  "/>
		<text style="&st18;" transform="matrix(&st16;  648.21  94.96 )">2</text>
		<text style="&st18;" transform="matrix(&st16;  650.73  126.98 )">3E</text>
		<text style="&st18;" transform="matrix(&st16;  640.78  126.98 )">40</text>
	</g>
	<g ewd:figtype="jb" ewd:figID="21" ewd:code="3">
		<path style="stroke-width: 0.85 ;&st7;  " d=" M    84.99,    69.77  L    84.99,    78.27  "/>
		<path style="stroke-width: 1.42 ;&st7;  " d=" M    87.11,    95.27  L    82.86,    95.27  "/>
		<path style="stroke-width: 1.42 ;&st7;  " d=" M    87.11,   103.77  L    82.86,   103.77  "/>
		<path style="stroke-width: 0.85 ;&st7;  " d=" M    84.99,    78.27  L    84.99,    95.27  "/>
		<path style="stroke-width: 1.42 ;&st7;   " d=" M    84.99,    47.11  C    82.25     48.72     81.34     52.25     82.95     54.99  "/>
		<path style="stroke-width: 1.42 ;&st7;   " d=" M    82.95,    54.99  C    83.47     55.87     84.10     56.51     84.99     57.03  "/>
		<path style="stroke-width: 1.42 ;&st7;   " d=" M    84.99,    66.94  C    87.72     65.33     88.64     61.80     87.02     59.06  "/>
		<path style="stroke-width: 1.42 ;&st7;   " d=" M    87.02,    59.06  C    86.50     58.18     85.87     57.55     84.99     57.03  "/>
		<path style="stroke-width: 0.85 ;&st7;   " d=" M    86.40,    45.69  C    86.40     44.91     85.77     44.28     84.99     44.28  "/>
		<path style="stroke-width: 0.85 ;&st7;   " d=" M    84.99,    44.28  C    84.20     44.28     83.57     44.91     83.57     45.69  "/>
		<path style="stroke-width: 0.85 ;&st7;   " d=" M    83.57,    45.69  C    83.57     46.48     84.20     47.11     84.99     47.11  "/>
		<path style="stroke-width: 0.85 ;&st7;   " d=" M    84.99,    47.11  C    85.77     47.11     86.40     46.48     86.40     45.69  "/>
		<path style="stroke-width: 0.85 ;&st7;   " d=" M    86.40,    68.36  C    86.40     67.57     85.77     66.94     84.99     66.94  "/>
		<path style="stroke-width: 0.85 ;&st7;   " d=" M    84.99,    66.94  C    84.20     66.94     83.57     67.57     83.57     68.36  "/>
		<path style="stroke-width: 0.85 ;&st7;   " d=" M    83.57,    68.36  C    83.57     69.14     84.20     69.77     84.99     69.77  "/>
		<path style="stroke-width: 0.85 ;&st7;   " d=" M    84.99,    69.77  C    85.77     69.77     86.40     69.14     86.40     68.36  "/>
		<path style="stroke-width: 1.42 ;&st7;   " d=" M    82.86,    95.27  C    80.51     95.27     78.61     97.17     78.61     99.52  "/>
		<path style="stroke-width: 1.42 ;&st7;   " d=" M    78.61,    99.52  C    78.61    101.87     80.51    103.77     82.86    103.77  "/>
		<path style="stroke-width: 1.42 ;&st7;   " d=" M    87.11,   103.77  C    89.46    103.77     91.36    101.87     91.36     99.52  "/>
		<path style="stroke-width: 1.42 ;&st7;   " d=" M    91.36,    99.52  C    91.36     97.17     89.46     95.27     87.11     95.27  "/>
		<path style="stroke-width: 0.28 ;&st9;  " d=" M    84.99,    90.37  L    82.15,    87.54  L    82.15,    91.79  L    84.99,    94.62  L    87.82,    91.79  L    87.82,    87.54  L    84.99,    90.37  "/>
		<path style="stroke-width: 1.42 ;&st7;  " d=" M    72.24,    35.78  L    72.24,    78.27  L    97.73,    78.27  L    97.73,    35.78  L    72.24,    35.78  "/>
		<text style="&st18;" transform="matrix(&st16;  101.41  53.34 )">5A <tspan x="0 " dy="6.0">ECU-IG </tspan><tspan x="0 " dy="6.0">NO.2</tspan></text>
		<text style="&st18;" transform="matrix(&st16;  81.01  101.49 )">3C</text>
		<text style="&st18;" transform="matrix(&st16;  71.38  101.49 )">15</text>
		<text style="&st18;" transform="matrix(&st16;  78.8  86.47 )">2</text>
		<text style="&st18;" transform="matrix(&st16;  79.77  32.08 )">(IG)</text>
	</g>
	<g ewd:figtype="jb" ewd:figID="22" ewd:code="3">
		<path style="stroke-width: 1.42 ;&st7;  " d=" M   350.57,   137.76  L   346.32,   137.76  "/>
		<path style="stroke-width: 1.42 ;&st7;  " d=" M   350.57,   129.26  L   346.32,   129.26  "/>
		<path style="stroke-width: 1.42 ;&st7;   " d=" M   354.82,   133.51  C   354.82    131.17    352.91    129.26    350.57    129.26  "/>
		<path style="stroke-width: 1.42 ;&st7;   " d=" M   350.57,   137.76  C   352.91    137.76    354.82    135.86    354.82    133.51  "/>
		<path style="stroke-width: 1.42 ;&st7;   " d=" M   342.07,   133.51  C   342.07    135.86    343.97    137.76    346.32    137.76  "/>
		<path style="stroke-width: 1.42 ;&st7;   " d=" M   346.32,   129.26  C   343.97    129.26    342.07    131.17    342.07    133.51  "/>
		<path style="stroke-width: 1.42 ;&st7;   " d=" M   229.46,    55.61  C   226.72     57.22    225.81     60.75    227.42     63.49  "/>
		<path style="stroke-width: 1.42 ;&st7;   " d=" M   227.42,    63.49  C   227.94     64.37    228.58     65.00    229.46     65.52  "/>
		<path style="stroke-width: 1.42 ;&st7;   " d=" M   229.46,    75.44  C   232.20     73.83    233.11     70.30    231.50     67.56  "/>
		<path style="stroke-width: 1.42 ;&st7;   " d=" M   231.50,    67.56  C   230.98     66.68    230.34     66.04    229.46     65.52  "/>
		<path style="stroke-width: 0.85 ;&st7;   " d=" M   230.88,    54.19  C   230.88     53.41    230.24     52.78    229.46     52.78  "/>
		<path style="stroke-width: 0.85 ;&st7;   " d=" M   229.46,    52.78  C   228.68     52.78    228.05     53.41    228.05     54.19  "/>
		<path style="stroke-width: 0.85 ;&st7;   " d=" M   228.05,    54.19  C   228.05     54.98    228.68     55.61    229.46     55.61  "/>
		<path style="stroke-width: 0.85 ;&st7;   " d=" M   229.46,    55.61  C   230.24     55.61    230.88     54.98    230.88     54.19  "/>
		<path style="stroke-width: 0.85 ;&st7;   " d=" M   230.88,    76.86  C   230.88     76.07    230.24     75.44    229.46     75.44  "/>
		<path style="stroke-width: 0.85 ;&st7;   " d=" M   229.46,    75.44  C   228.68     75.44    228.05     76.07    228.05     76.86  "/>
		<path style="stroke-width: 0.85 ;&st7;   " d=" M   228.05,    76.86  C   228.05     77.64    228.68     78.27    229.46     78.27  "/>
		<path style="stroke-width: 0.85 ;&st7;   " d=" M   229.46,    78.27  C   230.24     78.27    230.88     77.64    230.88     76.86  "/>
		<path style="stroke-width: 0.85 ;&st7;  " d=" M   348.44,   129.83  L   348.44,    86.77  "/>
		<path style="stroke-width: 0.28 ;&st9;  " d=" M   348.44,   124.37  L   345.61,   121.54  L   345.61,   125.79  L   348.44,   128.62  L   351.27,   125.79  L   351.27,   121.54  L   348.44,   124.37  "/>
		<path style="stroke-width: 1.42 ;&st7;  " d=" M   216.71,    44.28  L   216.71,    86.77  L   242.21,    86.77  L   242.21,    44.28  L   216.71,    44.28  "/>
		<path style="stroke-width: 0.85 ;&st7;  " d=" M   229.46,    78.27  L   229.46,    86.77  "/>
		<path style="stroke-width: 0.85 ;&st7;  " d=" M   229.46,    86.77  L   229.46,   129.26  L   305.95,   129.26  L   305.95,    86.77  "/>
		<text style="&st18;" transform="matrix(&st16;  334.83  135.48 )">16</text>
		<text style="&st18;" transform="matrix(&st16;  344.7  135.48 )">3B</text>
		<text style="&st18;" transform="matrix(&st16;  339.16  94.96 )">30</text>
		<text style="&st18;" transform="matrix(&st16;  245.89  64.67 )">7.5A <tspan x="0 " dy="6.0">ACC</tspan></text>
		<text style="&st18;" transform="matrix(&st16;  223.28  94.96 )">2</text>
		<text style="&st18;" transform="matrix(&st16;  220.95  40.58 )">(ACC)</text>
		<text style="&st18;" transform="matrix(&st16;  296.66  94.96 )">29</text>
		<path style="stroke-width: 1.42 ;&st7;  " d=" M   410.06,   129.26  L   405.81,   129.26  "/>
		<path style="stroke-width: 1.42 ;&st7;  " d=" M   410.06,   137.76  L   405.81,   137.76  "/>
		<path style="stroke-width: 1.42 ;&st7;   " d=" M   405.81,   129.26  C   403.46    129.26    401.56    131.17    401.56    133.51  "/>
		<path style="stroke-width: 1.42 ;&st7;   " d=" M   401.56,   133.51  C   401.56    135.86    403.46    137.76    405.81    137.76  "/>
		<path style="stroke-width: 1.42 ;&st7;   " d=" M   410.06,   137.76  C   412.40    137.76    414.31    135.86    414.31    133.51  "/>
		<path style="stroke-width: 1.42 ;&st7;   " d=" M   414.31,   133.51  C   414.31    131.17    412.40    129.26    410.06    129.26  "/>
		<path style="stroke-width: 0.28 ;&st9;  " d=" M   407.93,   124.37  L   405.10,   121.54  L   405.10,   125.79  L   407.93,   128.62  L   410.76,   125.79  L   410.76,   121.54  L   407.93,   124.37  "/>
		<path style="stroke-width: 0.85 ;&st7;  " d=" M   407.93,    86.77  L   407.93,   129.26  "/>
		<text style="&st18;" transform="matrix(&st16;  404.0  135.48 )">3D</text>
		<text style="&st18;" transform="matrix(&st16;  394.32  135.48 )">40</text>
		<text style="&st18;" transform="matrix(&st16;  398.65  94.96 )">32</text>
		<path style="stroke-width: 1.42 ;&st7;  " d=" M   469.55,   129.26  L   465.30,   129.26  "/>
		<path style="stroke-width: 1.42 ;&st7;  " d=" M   469.55,   137.76  L   465.30,   137.76  "/>
		<path style="stroke-width: 1.42 ;&st7;   " d=" M   465.30,   129.26  C   462.95    129.26    461.05    131.17    461.05    133.51  "/>
		<path style="stroke-width: 1.42 ;&st7;   " d=" M   461.05,   133.51  C   461.05    135.86    462.95    137.76    465.30    137.76  "/>
		<path style="stroke-width: 1.42 ;&st7;   " d=" M   469.55,   137.76  C   471.89    137.76    473.80    135.86    473.80    133.51  "/>
		<path style="stroke-width: 1.42 ;&st7;   " d=" M   473.80,   133.51  C   473.80    131.17    471.89    129.26    469.55    129.26  "/>
		<path style="stroke-width: 0.28 ;&st9;  " d=" M   467.42,   124.37  L   464.59,   121.54  L   464.59,   125.79  L   467.42,   128.62  L   470.25,   125.79  L   470.25,   121.54  L   467.42,   124.37  "/>
		<path style="stroke-width: 0.85 ;&st7;  " d=" M   467.42,    86.77  L   467.42,   129.26  "/>
		<text style="&st18;" transform="matrix(&st16;  463.49  135.48 )">3D</text>
		<text style="&st18;" transform="matrix(&st16;  456.91  135.48 )">9</text>
		<text style="&st18;" transform="matrix(&st16;  458.14  94.96 )">11</text>
	</g>
	<g ewd:figtype="w2w" ewd:figID="23" ewd:code="GM2">
		<path style="stroke-width: 1.42 ;&st7;  " d=" M   718.13,   248.81  L   713.88,   244.56  L   709.63,   248.81  "/>
		<path style="stroke-width: 1.42 ;&st7;  " d=" M   718.13,   245.41  L   713.88,   241.16  L   709.63,   245.41  "/>
		<text style="&st18;" transform="matrix(&st16;  698.15  237.47 )">18</text>
	</g>
	<g ewd:figtype="w2w" ewd:figID="24" ewd:code="AG1">
		<text style="&st18;" transform="matrix(&st16;  1106.08  143.98 )">17</text>
		<path style="stroke-width: 1.42 ;&st7;  " d=" M  1126.06,   155.33  L  1121.81,   151.08  L  1117.56,   155.33  "/>
		<path style="stroke-width: 1.42 ;&st7;  " d=" M  1126.06,   151.93  L  1121.81,   147.68  L  1117.56,   151.93  "/>
	</g>
	<g ewd:figtype="gp" ewd:figID="25" ewd:code="GA">
		<path style="stroke-width: 0.85 ;&st7;  " d=" M   464.59,   707.17  L   470.25,   707.17  "/>
		<path style="stroke-width: 0.85 ;&st7;  " d=" M   463.17,   704.33  L   471.67,   704.33  "/>
		<path style="stroke-width: 0.85 ;&st7;  " d=" M   466.01,   710.00  L   468.84,   710.00  "/>
		<path style="stroke-width: 0.85 ;&st7;  " d=" M   458.92,   701.50  L   475.92,   701.50  "/>
		<path style="stroke-width: 0.85 ;&st7;  " d=" M   467.42,   697.25  L   467.42,   701.50  "/>
	</g>
	<g ewd:figtype="gp" ewd:figID="26" ewd:code="GD">
		<path style="stroke-width: 0.85 ;&st7;  " d=" M   575.07,   707.17  L   580.74,   707.17  "/>
		<path style="stroke-width: 0.85 ;&st7;  " d=" M   573.65,   704.33  L   582.15,   704.33  "/>
		<path style="stroke-width: 0.85 ;&st7;  " d=" M   576.49,   710.00  L   579.32,   710.00  "/>
		<path style="stroke-width: 0.85 ;&st7;  " d=" M   569.40,   701.50  L   586.40,   701.50  "/>
		<path style="stroke-width: 0.85 ;&st7;  " d=" M   577.90,   697.25  L   577.90,   701.50  "/>
	</g>
	<g ewd:figtype="gp" ewd:figID="27" ewd:code="GA">
		<path style="stroke-width: 0.85 ;&st7;  " d=" M  1453.26,   697.25  L  1453.26,   701.50  "/>
		<path style="stroke-width: 0.85 ;&st7;  " d=" M  1444.76,   701.50  L  1461.76,   701.50  "/>
		<path style="stroke-width: 0.85 ;&st7;  " d=" M  1449.01,   704.33  L  1457.51,   704.33  "/>
		<path style="stroke-width: 0.85 ;&st7;  " d=" M  1450.42,   707.17  L  1456.09,   707.17  "/>
		<path style="stroke-width: 0.85 ;&st7;  " d=" M  1451.84,   710.00  L  1454.67,   710.00  "/>
	</g>
	<g ewd:figtype="annex" ewd:figID="33" ewd:code=" ">
		<path style="stroke-width: 0.85 ;&st7;  " d=" M   711.05,   406.88  L   716.71,   406.88  "/>
		<path style="stroke-width: 0.85 ;&st7;  " d=" M   712.46,   409.72  L   715.30,   409.72  "/>
		<path style="stroke-width: 0.85 ;&st7;  " d=" M   709.63,   404.05  L   718.13,   404.05  "/>
		<path style="stroke-width: 0.85 ;&st7;  " d=" M   713.88,   392.72  L   713.88,   401.22  "/>
		<path style="stroke-width: 0.85 ;&st7;  " d=" M   705.38,   401.22  L   722.38,   401.22  "/>
	</g>
	<g ewd:figtype="annex" ewd:figID="34" ewd:code=" ">
		<path style="stroke-width: 0.85 ;&st7;  " d=" M   650.14,   404.05  L   658.64,   404.05  "/>
		<path style="stroke-width: 0.85 ;&st7;  " d=" M   652.97,   409.72  L   655.81,   409.72  "/>
		<path style="stroke-width: 0.85 ;&st7;  " d=" M   645.89,   401.22  L   662.89,   401.22  "/>
		<path style="stroke-width: 0.85 ;&st7;  " d=" M   654.39,   392.72  L   654.39,   401.22  "/>
		<path style="stroke-width: 0.85 ;&st7;  " d=" M   651.56,   406.88  L   657.22,   406.88  "/>
	</g>
	<g ewd:code="2" ewd:figID="38" ewd:comment="3" ewd:figtype="comment">
		<text style="&st18;" transform="matrix(&st16;  47.59  360.69 )" ewd:textID="1">* 2 :Except *3</text>
	</g>
	<g ewd:code="4" ewd:figID="39" ewd:comment="" ewd:figtype="comment">
		<text style="&st18;" transform="matrix(&st16;  47.59  386.19 )" ewd:textID="3">* 4 :Before Nov. 2013 Production</text>
	</g>
	<g ewd:code="2" ewd:figID="35" ewd:comment="3" ewd:figtype="comment">
		<text style="&st18;" transform="matrix(&st16;  1330.87  165.23 )" ewd:textID="1">* 2 :Except *3</text>
	</g>
	<g ewd:code="3" ewd:figID="36" ewd:comment="" ewd:figtype="comment">
		<text style="&st18;" transform="matrix(&st16;  1330.87  173.73 )" ewd:textID="2">* 3 :USA 4WD Manual Air Conditioning 4 Speaker <tspan x="14.17" dy="8.49">w/o Parking Assist(Intuitive Parking Assist)</tspan></text>
	</g>
	<g ewd:code="3" ewd:figID="37" ewd:comment="" ewd:figtype="comment">
		<text style="&st18;" transform="matrix(&st16;  47.59  369.19 )" ewd:textID="2">* 3 :USA 4WD Manual Air Conditioning 4 Speaker <tspan x="14.16" dy="8.5">w/o Parking Assist(Intuitive Parking Assist)</tspan></text>
	</g>
	<g ewd:code="5" ewd:figID="40" ewd:comment="" ewd:figtype="comment">
		<text style="&st18;" transform="matrix(&st16;  47.59  394.69 )" ewd:textID="4">* 5 :From Nov. 2013 Production</text>
	</g>
	<text style="&st18;" transform="matrix(&st17;  1254.09  232.94 )">Y</text>
	<text style="&st18;" transform="matrix(&st17;  1265.43  235.96 )">(*3)</text>
	<text style="&st18;" transform="matrix(&st17;  1254.09  164.87 )">R</text>
	<text style="&st18;" transform="matrix(&st17;  1265.43  167.97 )">(*3)</text>
	<text style="&st18;" transform="matrix(&st17;  1203.1  164.87 )">R</text>
	<text style="&st18;" transform="matrix(&st17;  1214.43  167.97 )">(*2)</text>
	<text style="&st18;" transform="matrix(&st17;  1449.56  549.24 )">BR</text>
	<text style="&st18;" transform="matrix(&st17;  1305.09  224.44 )">B</text>
	<text style="&st18;" transform="matrix(&st17;  1118.12  122.38 )">R</text>
	<text style="&st18;" transform="matrix(&st17;  1214.43  235.96 )">(*2)</text>
	<text style="&st18;" transform="matrix(&st17;  1203.1  232.94 )">Y</text>
	<text style="&st18;" transform="matrix(&st17;  574.21  458.16 )">W-B</text>
	<text style="&st18;" transform="matrix(&st16;  744.46  33.47 )">G78(A)</text>
	<text style="&st18;" transform="matrix(&st17;  574.21  585.64 )">W-B</text>
	<text style="&st18;" transform="matrix(&st17;  574.21  190.37 )">R</text>
	<text style="&st18;" transform="matrix(&st17;  574.21  293.98 )">SB</text>
	<path style="stroke-width: 1.42 ;&st7;  " d=" M  1130.31,   146.26  L  1121.81,   146.26  "/>
	<text style="&st18;" transform="matrix(&st16;  295.34  193.56 )">R</text>
	<text style="&st18;" transform="matrix(&st17;  803.67  191.22 )">W</text>
	<text style="&st18;" transform="matrix(&st17;  863.16  190.44 )">Y</text>
	<text style="&st18;" transform="matrix(&st17;  1339.08  547.65 )">G</text>
	<text style="&st18;" transform="matrix(&st17;  803.67  378.19 )">W</text>
	<text style="&st18;" transform="matrix(&st17;  863.16  377.53 )">V</text>
	<text style="&st18;" transform="matrix(&st17;  1398.57  548.16 )">W</text>
	<text style="&st18;" transform="matrix(&st17;  650.69  191.22 )">W</text>
	<text style="&st18;" transform="matrix(&st17;  710.18  190.33 )">L</text>
	<path style="stroke-width: 1.42 ;&st7;  " d=" M   722.38,   239.75  L   713.88,   239.75  "/>
	<text style="&st18;" transform="matrix(&st17;  710.18  292.31 )">L</text>
	<text style="&st18;" transform="matrix(&st16;  744.47  40.58 )" ewd:textID="10">Main Body ECU</text>
	<text style="&st18;" transform="matrix(&st16;  1059.36  643.98 )">W</text>
	<text style="&st18;" transform="matrix(&st16;  1008.37  643.98 )">W</text>
	<text style="&st18;" transform="matrix(&st16;  1060.02  618.48 )">V</text>
	<text style="&st18;" transform="matrix(&st16;  1009.03  618.48 )">V</text>
	<text style="&st18;" transform="matrix(&st17;  404.24  232.82 )">L</text>
	<text style="&st18;" transform="matrix(&st17;  415.57  244.03 )">(*5,*4 *2)</text>
	<text style="&st18;" transform="matrix(&st17;  429.73  232.82 )">L</text>
	<text style="&st18;" transform="matrix(&st17;  441.06  239.99 )">(*3 *4)</text>
	<text style="&st18;" transform="matrix(&st17;  81.29  148.22 )">G</text>
	<text style="&st18;" transform="matrix(&st17;  92.62  159.04 )">(*5,*4 *2)</text>
	<text style="&st18;" transform="matrix(&st17;  21.8  148.22 )">G</text>
	<text style="&st18;" transform="matrix(&st17;  33.13  155.01 )">(*3 *4)</text>
	<text style="&st18;" transform="matrix(&st17;  931.15  191.22 )">W</text>
	<text style="&st18;" transform="matrix(&st17;  942.48  193.47 )">(*3)</text>
	<text style="&st18;" transform="matrix(&st17;  965.14  190.44 )">Y</text>
	<text style="&st18;" transform="matrix(&st17;  976.47  193.47 )">(*3)</text>
	<text style="&st18;" transform="matrix(&st17;  931.15  378.19 )">W</text>
	<text style="&st18;" transform="matrix(&st17;  942.48  380.44 )">(*3)</text>
	<text style="&st18;" transform="matrix(&st17;  965.14  377.68 )">G</text>
	<text style="&st18;" transform="matrix(&st17;  976.47  380.44 )">(*3)</text>
	<text style="&st18;" transform="matrix(&st16;  1008.37  525.0 )">W</text>
	<text style="&st18;" transform="matrix(&st16;  1006.12  510.84 )">(*3)</text>
	<text style="&st18;" transform="matrix(&st16;  1008.87  499.5 )">G</text>
	<text style="&st18;" transform="matrix(&st16;  1006.12  536.33 )">(*3)</text>
	<text style="&st18;" transform="matrix(&st16;  1059.36  525.0 )">W</text>
	<text style="&st18;" transform="matrix(&st16;  1057.11  510.84 )">(*3)</text>
	<text style="&st18;" transform="matrix(&st16;  1059.86  499.5 )">G</text>
	<text style="&st18;" transform="matrix(&st16;  1057.11  536.33 )">(*3)</text>
	<text style="&st18;" transform="matrix(&st17;  815.0  380.44 )">(*2)</text>
	<text style="&st18;" transform="matrix(&st17;  874.49  380.44 )">(*2)</text>
	<text style="&st18;" transform="matrix(&st17;  874.49  193.47 )">(*2)</text>
	<text style="&st18;" transform="matrix(&st17;  815.0  193.47 )">(*2)</text>
	<text style="&st18;" transform="matrix(&st16;  1006.12  629.82 )">(*2)</text>
	<text style="&st18;" transform="matrix(&st16;  1006.12  655.31 )">(*2)</text>
	<text style="&st18;" transform="matrix(&st16;  1057.11  655.31 )">(*2)</text>
	<text style="&st18;" transform="matrix(&st16;  1057.11  629.82 )">(*2)</text>
	<text style="&st18;" transform="matrix(&st17;  1350.41  550.41 )">(*2)</text>
	<text style="&st18;" transform="matrix(&st17;  1409.9  550.41 )">(*2)</text>
	<text style="&st18;" transform="matrix(&st17;  463.73  237.2 )">W-B</text>
	<a ewd:figtype="w2w" style="cursor:pointer;" ewd:pinNo="18" ewd:code="GM2" ewd:figID="23">
		<path style="&st2;" d=" M   722.38,   231.25  L   705.38,   231.25  L   705.38,   239.75  L   722.38,   239.75  L   722.38,   231.25 "/>
		<text style="&st8;" transform="matrix(&st16;  707.82  237.62 )"><tspan x="0" style="&st18;" y="0">GM2</tspan></text>
	</a>
	<a ewd:figtype="w2w" style="cursor:pointer;" ewd:pinNo="17" ewd:code="AG1" ewd:figID="24">
		<path style="&st2;" d=" M  1130.31,   137.76  L  1113.31,   137.76  L  1113.31,   146.26  L  1130.31,   146.26  L  1130.31,   137.76 "/>
		<text style="&st8;" transform="matrix(&st16;  1116.17  144.13 )"><tspan x="0" style="&st18;" y="0">AG1</tspan></text>
	</a>
	<a ewd:figtype="gp" style="cursor:pointer;" ewd:code="GA" ewd:figID="25">
		<path style="&st2;" d=" M   456.80,   681.67  L   478.05,   681.67  L   467.42,   697.25  L   456.80,   681.67 "/>
		<text style="&st8;" transform="matrix(&st16;  463.28  689.46 )"><tspan x="0" style="&st18;" y="0">GA</tspan></text>
	</a>
	<a ewd:figtype="gp" style="cursor:pointer;" ewd:code="GD" ewd:figID="26">
		<path style="&st2;" d=" M   567.28,   681.67  L   588.53,   681.67  L   577.90,   697.25  L   567.28,   681.67 "/>
		<text style="&st8;" transform="matrix(&st16;  573.69  689.46 )"><tspan x="0" style="&st18;" y="0">GD</tspan></text>
	</a>
	<a ewd:figtype="gp" style="cursor:pointer;" ewd:code="GA" ewd:figID="27">
		<path style="&st2;" d=" M  1442.63,   681.67  L  1463.88,   681.67  L  1453.26,   697.25  L  1442.63,   681.67 "/>
		<text style="&st8;" transform="matrix(&st16;  1449.12  689.46 )"><tspan x="0" style="&st18;" y="0">GA</tspan></text>
	</a>
</g>
</svg>