﻿<?xml version="1.0" encoding="utf-8"?>
<!DOCTYPE svg PUBLIC "-//W3C//DTD SVG 1.0//EN" "http://www.w3.org/TR/2001/REC-SVG-20010904/DTD/svg10.dtd"[
	<!ENTITY ns_flows "http://ns.adobe.com/Flows/1.0/">
	<!ENTITY ns_svg "http://www.w3.org/2000/svg">
	<!ENTITY ns_xlink "http://www.w3.org/1999/xlink">
	<!ENTITY st0 "font-size:7px;font-family:'MS-PGothic';adobe-font-script:japanese;">
	<!ENTITY st1 "font-size:6px;font-family:'ArialMT';">
	<!-- White fill  -->
	<!ENTITY st2 "fill:#FFFFFF;stroke:#000000; stroke-width:1.41;stroke-linecap:round;stroke-linejoin:round;">
	<!-- Yellow fill  -->
	<!ENTITY st3 "fill:#FFFFCC;stroke:#FFFFCC; stroke-width:0.1;stroke-linecap:round;stroke-linejoin:round;">
	<!-- Gray fill  -->
	<!ENTITY st4 "fill:#CCCCCC;stroke:#CCCCCC; stroke-width:0.1;stroke-linecap:round;stroke-linejoin:round;">
	<!-- Light-blue fill -->
	<!ENTITY st5 "fill:#CCECF4;stroke:#000000; stroke-width:1.133;stroke-linecap:round;stroke-linejoin:round;">
	<!ENTITY st6 "fill:none;stroke-linecap:butt; stroke-linejoin:round;">
	<!ENTITY st7 "fill:none;stroke:#000000;stroke-linecap:round;stroke-linejoin:round;">
	<!ENTITY st8 "enable-background:new    ;">
	<!-- Black fill -->
	<!ENTITY st9 "fill:#000000;stroke:#000000; stroke-linecap:round;stroke-linejoin:round;">
	<!-- SRS note   -->
	<!ENTITY st10 "font-size:9px;font-family:'ArialMT';">
	<!ENTITY st11 "font-size:9px;font-family:'Svg Symbol';">
	<!ENTITY st12 "font-size:6px;font-family:'Svg Symbol';">
	<!ENTITY st13 "fill:none;stroke:#ff0000;stroke-linecap:round;stroke-linejoin:round;">
	<!-- Yellow fill  -->
	<!ENTITY st14 "fill:#FFFF00;stroke:#FFFF00; stroke-width:0.1;stroke-linecap:round;stroke-linejoin:round;">
	<!ENTITY st15 "font-size:6px;font-family:'MS-PGothic';adobe-font-script:japanese;">
	<!ENTITY st16 "1.00 0.00 0.00 1.00">
	<!ENTITY st17 "0.00 -1.00 1.00 0.00">
	<!ENTITY st18 "font-size:6px;font-family:'Arial';">
	<!ENTITY st19 "font-size:9px;font-family:'Arial';">
	<!ENTITY st20 "font-size:6px;font-family:'MS-PGothic','MS PGothic';adobe-font-script:japanese;">
	<!ENTITY st21 "font-size:7px;font-family:'MS-PGothic','MS PGothic';adobe-font-script:japanese;">
	<!ATTLIST svg
		xmlns:ewd CDATA #FIXED "http://shcl.co.jp/ewd"
		xmlns:a CDATA #FIXED "http://ns.adobe.com/AdobeSVGViewerExtensions/3.0/"
		ewd:ver CDATA #IMPLIED
	>
	<!ATTLIST a
		ewd:lineID CDATA #IMPLIED
		ewd:groupID CDATA #IMPLIED
		ewd:figtype CDATA #IMPLIED
		ewd:code CDATA #IMPLIED
		ewd:figID CDATA #IMPLIED
		ewd:pinNo CDATA #IMPLIED
		ewd:comment CDATA #IMPLIED >
	<!ATTLIST g
		ewd:lineID CDATA #IMPLIED
		ewd:groupID CDATA #IMPLIED
		ewd:figtype CDATA #IMPLIED
		ewd:code CDATA #IMPLIED
		ewd:figID CDATA #IMPLIED
		ewd:pinNo CDATA #IMPLIED
		ewd:comment CDATA #IMPLIED >
	<!ATTLIST text
		ewd:textID CDATA #IMPLIED >
	<!ATTLIST title
		ewd:textID CDATA #IMPLIED >
]>
<!-- Generator: Shintec Hozumi YS   -->
<svg onload="call_execInitLoadProc_svg('system')" style="overflow:visible;  enable-background:new 0 0 1365.397 710.000" viewBox="0 0 1365.397 710.000" height="710.000" width="1365.397" xml:space="preserve" ewd:ver="2.1.2.5" xmlns="&ns_svg;" xmlns:a="http://ns.adobe.com/AdobeSVGViewerExtensions/3.0/" xmlns:ewd="http://shcl.co.jp/ewd" xmlns:xlink="&ns_xlink;"><script type="text/javascript" xlink:href="../../../../../system/js/ewd/fig/svgfig.js" xmlns:xlink="http://www.w3.org/1999/xlink" />
<g id="ewd_top"><a ewd:figtype="conn" style="cursor:pointer;" ewd:code="G108" ewd:figID="1"><path style="fill:#CCECF4;stroke:#000000; stroke-width:1.33; stroke-linecap:round;stroke-linejoin:round; " d=" M   798.87,   537.20  L   798.87,   554.19  L   815.86,   554.19  L   815.86,   537.20  L   798.87,   537.20 " /><title ewd:textID="7">No. 13 Junction Connector</title></a><a ewd:figtype="conn" style="cursor:pointer;" ewd:code="G110" ewd:figID="2"><path style="fill:#CCECF4;stroke:#000000; stroke-width:1.33; stroke-linecap:round;stroke-linejoin:round; " d=" M    76.49,   554.19  L    93.48,   554.19  L    93.48,   571.19  L    76.49,   571.19  L    76.49,   554.19 " /><title ewd:textID="8">No. 14 Junction Connector</title></a><a ewd:figtype="conn" style="cursor:pointer;" ewd:code="B36" ewd:figID="3"><path style="fill:#CCECF4;stroke:#000000; stroke-width:1.33; stroke-linecap:round;stroke-linejoin:round; " d=" M    42.49,   214.25  L    42.49,   248.24  L    93.48,   248.24  L    93.48,   214.25  L    42.49,   214.25 " /><title ewd:textID="9">Park/Neutral Position Switch Assembly</title></a><a ewd:figtype="conn" style="cursor:pointer;" ewd:code="G43" ewd:figID="4"><path style="fill:#CCECF4;stroke:#000000; stroke-width:1.33; stroke-linecap:round;stroke-linejoin:round; " d=" M   246.46,   248.24  L   246.46,   290.74  L   416.43,   290.74  L   416.43,   248.24  L   246.46,   248.24 " /><title ewd:textID="15">Telltale Light Assembly</title></a><a ewd:figtype="conn" style="cursor:pointer;" ewd:code="G98" ewd:figID="5"><path style="fill:#CCECF4;stroke:#000000; stroke-width:1.33; stroke-linecap:round;stroke-linejoin:round; " d=" M   798.87,   613.68  L   815.86,   613.68  L   815.86,   630.68  L   798.87,   630.68  L   798.87,   613.68 " /><title ewd:textID="5">No. 5 Junction Connector</title></a><a ewd:figtype="conn" style="cursor:pointer;" ewd:code="G34" ewd:figID="6"><path style="fill:#CCECF4;stroke:#000000; stroke-width:1.33; stroke-linecap:round;stroke-linejoin:round; " d=" M   654.39,   630.68  L   654.39,   579.69  L   688.38,   579.69  L   688.38,   630.68  L   654.39,   630.68 " /><title ewd:textID="3">No. 1 Clearance Warning Buzzer</title></a><a ewd:figtype="conn" style="cursor:pointer;" ewd:code="G94" ewd:figID="7"><path style="fill:#CCECF4;stroke:#000000; stroke-width:1.33; stroke-linecap:round;stroke-linejoin:round; " d=" M   671.39,   290.74  L   688.38,   290.74  L   688.38,   307.73  L   671.39,   307.73  L   671.39,   290.74 " /><title ewd:textID="4">No. 2 Junction Connector</title></a><a ewd:figtype="conn" style="cursor:pointer;" ewd:code="G103" ewd:figID="8"><path style="fill:#CCECF4;stroke:#000000; stroke-width:1.33; stroke-linecap:round;stroke-linejoin:round; " d=" M   671.39,   367.22  L   688.38,   367.22  L   688.38,   384.22  L   671.39,   384.22  L   671.39,   367.22 " /><title ewd:textID="6">No. 8 Junction Connector</title></a><a ewd:figtype="conn" style="cursor:pointer;" ewd:code="S3" ewd:figID="9"><path style="fill:#CCECF4;stroke:#000000; stroke-width:1.33; stroke-linecap:round;stroke-linejoin:round; " d=" M   883.85,   282.24  L   883.85,   324.73  L  1215.30,   324.73  L  1215.30,   282.24  L   883.85,   282.24 " /><title ewd:textID="10">Rear No. 1 Ultrasonic Sensor Center LH</title></a><a ewd:figtype="conn" style="cursor:pointer;" ewd:code="S4" ewd:figID="10"><path style="fill:#CCECF4;stroke:#000000; stroke-width:1.33; stroke-linecap:round;stroke-linejoin:round; " d=" M   747.88,   163.26  L   747.88,   205.75  L  1002.83,   205.75  L  1002.83,   163.26  L   747.88,   163.26 " /><title ewd:textID="12">Rear No. 1 Ultrasonic Sensor LH</title></a><a ewd:figtype="conn" style="cursor:pointer;" ewd:code="S1" ewd:figID="11"><path style="fill:#CCECF4;stroke:#000000; stroke-width:1.33; stroke-linecap:round;stroke-linejoin:round; " d=" M  1232.29,   282.24  L  1232.29,   324.73  L  1351.27,   324.73  L  1351.27,   282.24  L  1232.29,   282.24 " /><title ewd:textID="13">Rear No. 1 Ultrasonic Sensor RH</title></a><a ewd:figtype="conn" style="cursor:pointer;" ewd:code="S2" ewd:figID="12"><path style="fill:#CCECF4;stroke:#000000; stroke-width:1.33; stroke-linecap:round;stroke-linejoin:round; " d=" M  1096.32,   163.26  L  1096.32,   205.75  L  1351.27,   205.75  L  1351.27,   163.26  L  1096.32,   163.26 " /><title ewd:textID="11">Rear No. 1 Ultrasonic Sensor Center RH</title></a><a ewd:figtype="conn" style="cursor:pointer;" ewd:code="G33" ewd:figID="13"><path style="fill:#CCECF4;stroke:#000000; stroke-width:1.33; stroke-linecap:round;stroke-linejoin:round; " d=" M   246.46,   443.71  L   246.46,   486.20  L   866.86,   486.20  L   866.86,   443.71  L   246.46,   443.71 " /><title ewd:textID="2">Clearance Warning ECU Assembly</title></a><a ewd:figtype="rb" style="cursor:pointer;" ewd:code="FUSE36" ewd:figID="14"><path style="fill:#CCECF4;stroke:#000000; stroke-width:0; stroke-linecap:round;stroke-linejoin:round; " d=" M   539.66,    35.78  L   539.66,    78.27  L   565.16,    78.27  L   565.16,    35.78  L   539.66,    35.78 " /></a><a ewd:figtype="jb" style="cursor:pointer;" ewd:code="3" ewd:figID="16"><path style="&st4; " d=" M   246.46,    35.78  L   246.46,   103.77  L   314.45,   103.77  L   314.45,    35.78  L   246.46,    35.78  " /></a><a ewd:figtype="jb" style="cursor:pointer;" ewd:code="3" ewd:figID="17"><path style="&st4; " d=" M    50.99,    35.78  L    50.99,   103.77  L   118.98,   103.77  L   118.98,    35.78  L    50.99,    35.78  " /></a><a ewd:figtype="jb" style="cursor:pointer;" ewd:code="3" ewd:figID="18"><path style="&st4; " d=" M    67.99,   443.71  L    67.99,   494.70  L    93.48,   494.70  L    93.48,   443.71  L    67.99,   443.71  " /></a><a ewd:figtype="jb" style="cursor:pointer;" ewd:code="3" ewd:figID="19"><path style="&st4; " d=" M   526.91,   137.76  L   526.91,   324.73  L   654.39,   324.73  L   654.39,   231.25  L   722.38,   231.25  L   722.38,   137.76  L   526.91,   137.76  " /></a><a ewd:figtype="jb" style="cursor:pointer;" ewd:code="1" ewd:figID="20"><path style="&st4; " d=" M   535.41,    95.27  L   535.41,   103.77  L   560.91,   103.77  L   560.91,    95.27  L   535.41,    95.27  " /></a><a ewd:figtype="fuse" style="cursor:pointer;" ewd:code="FUSE46" ewd:figID="34"><path style="&st7; stroke-width:0;" d=" M    55.24,    35.78  L    55.24,    78.27  L    80.74,    78.27  L    80.74,    35.78  L    55.24,    35.78 " /></a><a ewd:figtype="fuse" style="cursor:pointer;" ewd:code="FUSE53" ewd:figID="35"><path style="&st7; stroke-width:0;" d=" M   250.71,    35.78  L   250.71,    78.27  L   276.20,    78.27  L   276.20,    35.78  L   250.71,    35.78 " /></a><a ewd:figtype="fuse" style="cursor:pointer;" ewd:code="FUSE36" ewd:figID="36"><path style="&st7; stroke-width:0;" d=" M   539.66,    35.78  L   539.66,    78.27  L   565.16,    78.27  L   565.16,    35.78  L   539.66,    35.78 " /></a><a ewd:figtype="fuse" style="cursor:pointer;" ewd:code="FUSE50" ewd:figID="37"><path style="&st7; stroke-width:0;" d=" M   667.14,   163.26  L   667.14,   205.75  L   692.63,   205.75  L   692.63,   163.26  L   667.14,   163.26 " /></a><a style="cursor:pointer;" ewd:lineID="1"><path style="stroke:#008837;stroke-width: 5.10 ;&st6;" d=" M    67.99,   146.26  L    67.99,   214.25  " /></a><a style="cursor:pointer;" ewd:lineID="2"><path style="stroke:#008837;stroke-width: 5.10 ;&st6;" d=" M    67.99,   103.77  L    67.99,   131.53  " /></a><a style="cursor:pointer;" ewd:lineID="3"><path style="stroke:#56077D;stroke-width: 5.10 ;&st6;" d=" M    84.99,   571.19  L    84.99,   656.18  L   263.46,   656.18  L   263.46,   486.20  " /></a><a style="cursor:pointer;" ewd:lineID="4"><path style="stroke:#FF0000;stroke-width: 5.10 ;&st6;" d=" M    84.99,   494.70  L    84.99,   554.19  " /></a><a style="cursor:pointer;" ewd:lineID="5"><path style="stroke:#FF0000;stroke-width: 5.10 ;&st6;" d=" M    84.99,   407.45  L    84.99,   443.71  " /></a><a style="cursor:pointer;" ewd:lineID="6"><path style="stroke:#FF0000;stroke-width: 5.10 ;&st6;" d=" M    84.99,   316.23  L    84.99,   392.72  " /></a><a style="cursor:pointer;" ewd:lineID="7"><path style="stroke:#FF0000;stroke-width: 5.10 ;&st6;" d=" M    84.99,   248.24  L    84.99,   299.24  " /></a><a style="cursor:pointer;" ewd:lineID="8"><path style="stroke:#008837;stroke-width: 5.10 ;&st6;" d=" M   263.46,   290.74  L   263.46,   443.71  " /></a><a style="cursor:pointer;" ewd:lineID="9"><path style="stroke:#00A0C6;stroke-width: 5.10 ;&st6;" d=" M   263.46,   103.77  L   263.46,   248.24  " /></a><a style="cursor:pointer;" ewd:lineID="10"><path style="stroke:#992903;stroke-width: 5.10 ;&st6;" d=" M   297.45,   290.74  L   297.45,   443.71  " /></a><a style="cursor:pointer;" ewd:lineID="11"><path style="stroke:#56077D;stroke-width: 5.10 ;&st6;" d=" M   331.44,   290.74  L   331.44,   443.71  " /></a><a style="cursor:pointer;" ewd:lineID="12"><path style="stroke:#F668B2;stroke-width: 5.10 ;&st6;" d=" M   365.44,   290.74  L   365.44,   443.71  " /></a><a style="cursor:pointer;" ewd:lineID="13"><path style="stroke:#00A0C6;stroke-width: 5.10 ;&st6;" d=" M   399.43,   290.74  L   399.43,   443.71  " /></a><a style="cursor:pointer;" ewd:lineID="14"> d=" M   552.41,   137.76  L   552.41,   103.77 
	
		<path style="stroke:#000000;stroke-width: 5.10 ;&st6;" d=" M   552.41,   137.76  L   552.41,   103.77  " /><path style="stroke:#FFFFFF;stroke-width: 4.53 ;&st6;" d=" M   552.41,   137.76  L   552.41,   103.77  " /></a><a style="cursor:pointer;" ewd:lineID="15"><path style="stroke:#999999;stroke-width: 5.10 ;&st6;" d=" M   637.39,   486.20  L   637.39,   664.67  L   679.89,   664.67  L   679.89,   630.68  " /></a><a style="cursor:pointer;" ewd:lineID="16"><path style="stroke:#7FC97F;stroke-width: 5.10 ;&st6;" d=" M   679.89,   486.20  L   679.89,   579.69  " /></a><a style="cursor:pointer;" ewd:lineID="17"><path style="stroke:#992903;stroke-width: 5.10 ;&st6;" d=" M   679.89,   384.22  L   679.89,   443.71  " /></a><a style="cursor:pointer;" ewd:lineID="18"><path style="stroke:#999999;stroke-width: 5.10 ;&st6;" d=" M   679.89,   307.73  L   679.89,   367.22  " /></a><a style="cursor:pointer;" ewd:lineID="19"><path style="stroke:#000000;stroke-width: 5.10 ;&st6;" d=" M   679.89,   231.25  L   679.89,   290.74  " /></a><a style="cursor:pointer;" ewd:lineID="20"><path style="stroke:#F668B2;stroke-width: 5.10 ;&st6;" d=" M   764.87,   443.71  L   764.87,   384.22  " /></a><a style="cursor:pointer;" ewd:lineID="21"><path style="stroke:#F668B2;stroke-width: 5.10 ;&st6;" d=" M   764.87,   369.49  L   764.87,   322.46  " /></a><a style="cursor:pointer;" ewd:lineID="22"><path style="stroke:#F668B2;stroke-width: 5.10 ;&st6;" d=" M   764.87,   271.47  L   764.87,   307.73  " /></a><a style="cursor:pointer;" ewd:lineID="23"><path style="stroke:#F668B2;stroke-width: 5.10 ;&st6;" d=" M   764.87,   205.75  L   764.87,   256.74  " /></a><a style="cursor:pointer;" ewd:lineID="24"><path style="stroke:#000000;stroke-width: 5.10 ;&st6;" d=" M   807.37,   630.68  L   807.37,   681.67  " /><path style="stroke:#FFFFFF;stroke-width: 4.53 ;&st6;" d=" M   807.37,   630.68  L   807.37,   681.67  " /><path style="stroke:#000000;stroke-width: 1.13 ;&st6;" d=" M   807.37,   630.68  L   807.37,   681.67  " /></a><a style="cursor:pointer;" ewd:lineID="25"><path style="stroke:#000000;stroke-width: 5.10 ;&st6;" d=" M   807.37,   554.19  L   807.37,   613.68  " /><path style="stroke:#FFFFFF;stroke-width: 4.53 ;&st6;" d=" M   807.37,   554.19  L   807.37,   613.68  " /><path style="stroke:#000000;stroke-width: 1.13 ;&st6;" d=" M   807.37,   554.19  L   807.37,   613.68  " /></a><a style="cursor:pointer;" ewd:lineID="26"><path style="stroke:#000000;stroke-width: 5.10 ;&st6;" d=" M   807.37,   537.20  L   807.37,   486.20  " /><path style="stroke:#FFFFFF;stroke-width: 4.53 ;&st6;" d=" M   807.37,   537.20  L   807.37,   486.20  " /><path style="stroke:#000000;stroke-width: 1.13 ;&st6;" d=" M   807.37,   537.20  L   807.37,   486.20  " /></a><a style="cursor:pointer;" ewd:lineID="27"><path style="stroke:#FF0000;stroke-width: 5.10 ;&st6;" d=" M   807.37,   443.71  L   807.37,   384.22  " /></a><a style="cursor:pointer;" ewd:lineID="28"><path style="stroke:#FF0000;stroke-width: 5.10 ;&st6;" d=" M   807.37,   369.49  L   807.37,   322.46  " /></a><a style="cursor:pointer;" ewd:lineID="29"><path style="stroke:#FF0000;stroke-width: 5.10 ;&st6;" d=" M   807.37,   271.47  L   807.37,   307.73  " /></a><a style="cursor:pointer;" ewd:lineID="30"><path style="stroke:#FF0000;stroke-width: 5.10 ;&st6;" d=" M   807.37,   205.75  L   807.37,   256.74  " /></a><a style="cursor:pointer;" ewd:lineID="31"> d=" M   849.86,   443.71  L   849.86,   384.22 
	
		<path style="stroke:#000000;stroke-width: 5.10 ;&st6;" d=" M   849.86,   443.71  L   849.86,   384.22  " /><path style="stroke:#FFFFFF;stroke-width: 4.53 ;&st6;" d=" M   849.86,   443.71  L   849.86,   384.22  " /></a><a style="cursor:pointer;" ewd:lineID="32"> d=" M   849.86,   369.21  L   849.86,   322.75 
	
		<path style="stroke:#000000;stroke-width: 5.10 ;&st6;" d=" M   849.86,   369.21  L   849.86,   322.75  " /><path style="stroke:#FFFFFF;stroke-width: 4.53 ;&st6;" d=" M   849.86,   369.21  L   849.86,   322.75  " /></a><a style="cursor:pointer;" ewd:lineID="33"> d=" M   849.86,   271.76  L   849.86,   307.73 
	
		<path style="stroke:#000000;stroke-width: 5.10 ;&st6;" d=" M   849.86,   271.76  L   849.86,   307.73  " /><path style="stroke:#FFFFFF;stroke-width: 4.53 ;&st6;" d=" M   849.86,   271.76  L   849.86,   307.73  " /></a><a style="cursor:pointer;" ewd:lineID="34"> d=" M   849.86,   205.75  L   849.86,   256.74 
	
		<path style="stroke:#000000;stroke-width: 5.10 ;&st6;" d=" M   849.86,   205.75  L   849.86,   256.74  " /><path style="stroke:#FFFFFF;stroke-width: 4.53 ;&st6;" d=" M   849.86,   205.75  L   849.86,   256.74  " /></a><a style="cursor:pointer;" ewd:lineID="35"><path style="stroke:#008837;stroke-width: 5.10 ;&st6;" d=" M   900.85,   205.75  L   900.85,   282.24  " /></a><a style="cursor:pointer;" ewd:lineID="36"><path style="stroke:#000000;stroke-width: 5.10 ;&st6;" d=" M   943.34,   205.75  L   943.34,   282.24  " /></a><a style="cursor:pointer;" ewd:lineID="37"><path style="stroke:#00A0C6;stroke-width: 5.10 ;&st6;" d=" M   985.84,   205.75  L   985.84,   282.24  " /></a><a style="cursor:pointer;" ewd:lineID="38"><path style="stroke:#008837;stroke-width: 5.10 ;&st6;" d=" M  1113.31,   205.75  L  1113.31,   282.24  " /></a><a style="cursor:pointer;" ewd:lineID="39"><path style="stroke:#000000;stroke-width: 5.10 ;&st6;" d=" M  1155.81,   205.75  L  1155.81,   282.24  " /></a><a style="cursor:pointer;" ewd:lineID="40"><path style="stroke:#00A0C6;stroke-width: 5.10 ;&st6;" d=" M  1198.30,   205.75  L  1198.30,   282.24  " /></a><a style="cursor:pointer;" ewd:lineID="41"><path style="stroke:#000000;stroke-width: 5.10 ;&st6;" d=" M  1249.29,   205.75  L  1249.29,   282.24  " /></a><a style="cursor:pointer;" ewd:lineID="42"><path style="stroke:#000000;stroke-width: 5.10 ;&st6;" d=" M  1291.78,   205.75  L  1291.78,   282.24  " /></a><a style="cursor:pointer;" ewd:lineID="43"><path style="stroke:#00A0C6;stroke-width: 5.10 ;&st6;" d=" M  1334.28,   205.75  L  1334.28,   282.24  " /></a><a ewd:figtype="w2w" style="cursor:pointer;" ewd:pinNo="8" ewd:code="BA1" ewd:figID="21"><path style="&st2;" d=" M    76.49,   137.76  L    59.49,   137.76  L    59.49,   146.26  L    76.49,   146.26  L    76.49,   137.76 " /><text style="&st8;" transform="matrix(&st16;  62.61  144.13 )"><tspan x="0" style="&st18;" y="0">BA1</tspan></text></a><a ewd:figtype="w2w" style="cursor:pointer;" ewd:pinNo="4" ewd:code="BA1" ewd:figID="22"><path style="&st2;" d=" M    93.48,   392.72  L    76.49,   392.72  L    76.49,   401.22  L    93.48,   401.22  L    93.48,   392.72 " /><text style="&st8;" transform="matrix(&st16;  79.61  399.09 )"><tspan x="0" style="&st18;" y="0">BA1</tspan></text></a><a ewd:figtype="w2w" style="cursor:pointer;" ewd:pinNo="17" ewd:code="GN4" ewd:figID="23"><path style="&st2;" d=" M   773.37,   375.72  L   756.37,   375.72  L   756.37,   384.22  L   773.37,   384.22  L   773.37,   375.72 " /><text style="&st8;" transform="matrix(&st16;  759.23  382.09 )"><tspan x="0" style="&st18;" y="0">GN4</tspan></text></a><a ewd:figtype="w2w" style="cursor:pointer;" ewd:pinNo="4" ewd:code="RN2" ewd:figID="24"><path style="&st2;" d=" M   773.37,   307.73  L   756.37,   307.73  L   756.37,   316.23  L   773.37,   316.23  L   773.37,   307.73 " /><text style="&st8;" transform="matrix(&st16;  759.57  314.1 )"><tspan x="0" style="&st18;" y="0">RN2</tspan></text></a><a ewd:figtype="w2w" style="cursor:pointer;" ewd:pinNo="5" ewd:code="SR1" ewd:figID="25"><path style="&st2;" d=" M   773.37,   256.74  L   756.37,   256.74  L   756.37,   265.24  L   773.37,   265.24  L   773.37,   256.74 " /><text style="&st8;" transform="matrix(&st16;  760.06  263.11 )"><tspan x="0" style="&st18;" y="0">SR1</tspan></text></a><a ewd:figtype="w2w" style="cursor:pointer;" ewd:pinNo="16" ewd:code="GN4" ewd:figID="26"><path style="&st2;" d=" M   815.86,   375.72  L   798.87,   375.72  L   798.87,   384.22  L   815.86,   384.22  L   815.86,   375.72 " /><text style="&st8;" transform="matrix(&st16;  801.72  382.09 )"><tspan x="0" style="&st18;" y="0">GN4</tspan></text></a><a ewd:figtype="w2w" style="cursor:pointer;" ewd:pinNo="3" ewd:code="RN2" ewd:figID="27"><path style="&st2;" d=" M   815.86,   307.73  L   798.87,   307.73  L   798.87,   316.23  L   815.86,   316.23  L   815.86,   307.73 " /><text style="&st8;" transform="matrix(&st16;  802.06  314.1 )"><tspan x="0" style="&st18;" y="0">RN2</tspan></text></a><a ewd:figtype="w2w" style="cursor:pointer;" ewd:pinNo="6" ewd:code="SR1" ewd:figID="28"><path style="&st2;" d=" M   815.86,   256.74  L   798.87,   256.74  L   798.87,   265.24  L   815.86,   265.24  L   815.86,   256.74 " /><text style="&st8;" transform="matrix(&st16;  802.55  263.11 )"><tspan x="0" style="&st18;" y="0">SR1</tspan></text></a><a ewd:figtype="w2w" style="cursor:pointer;" ewd:pinNo="18" ewd:code="GN4" ewd:figID="29"><path style="&st2;" d=" M   858.36,   375.72  L   841.36,   375.72  L   841.36,   384.22  L   858.36,   384.22  L   858.36,   375.72 " /><text style="&st8;" transform="matrix(&st16;  844.21  382.09 )"><tspan x="0" style="&st18;" y="0">GN4</tspan></text></a><a ewd:figtype="w2w" style="cursor:pointer;" ewd:pinNo="5" ewd:code="RN2" ewd:figID="30"><path style="&st2;" d=" M   858.36,   307.73  L   841.36,   307.73  L   841.36,   316.23  L   858.36,   316.23  L   858.36,   307.73 " /><text style="&st8;" transform="matrix(&st16;  844.55  314.1 )"><tspan x="0" style="&st18;" y="0">RN2</tspan></text></a><a ewd:figtype="w2w" style="cursor:pointer;" ewd:pinNo="2" ewd:code="SR1" ewd:figID="31"><path style="&st2;" d=" M   858.36,   256.74  L   841.36,   256.74  L   841.36,   265.24  L   858.36,   265.24  L   858.36,   256.74 " /><text style="&st8;" transform="matrix(&st16;  845.04  263.11 )"><tspan x="0" style="&st18;" y="0">SR1</tspan></text></a><a ewd:figtype="gp" style="cursor:pointer;" ewd:code="GD" ewd:figID="32"><path style="&st2;" d=" M   796.74,   681.67  L   817.99,   681.67  L   807.37,   697.25  L   796.74,   681.67 " /><text style="&st8;" transform="matrix(&st16;  803.15  689.46 )"><tspan x="0" style="&st18;" y="0">GD</tspan></text></a><a ewd:figtype="sp" style="cursor:pointer;" ewd:code="SP28" ewd:figID="33"><path style="&st2;" d=" M    80.74,   299.24  L    89.24,   299.24  L    93.48,   303.48  L    93.48,   311.98  L    89.24,   316.23  L    80.74,   316.23  L    76.49,   311.98  L    76.49,   303.48  L    80.74,   299.24 " /></a></g></svg>