﻿<?xml version="1.0" encoding="utf-8"?>
<!DOCTYPE svg PUBLIC "-//W3C//DTD SVG 1.0//EN" "http://www.w3.org/TR/2001/REC-SVG-20010904/DTD/svg10.dtd"[
	<!ENTITY ns_flows "http://ns.adobe.com/Flows/1.0/">
	<!ENTITY ns_svg "http://www.w3.org/2000/svg">
	<!ENTITY ns_xlink "http://www.w3.org/1999/xlink">
	<!ENTITY st0 "font-size:7px;font-family:'MS-PGothic';adobe-font-script:japanese;">
	<!ENTITY st1 "font-size:6px;font-family:'ArialMT';">
	<!-- White fill  -->
	<!ENTITY st2 "fill:#FFFFFF;stroke:#000000; stroke-width:1.41;stroke-linecap:round;stroke-linejoin:round;">
	<!-- Yellow fill  -->
	<!ENTITY st3 "fill:#FFFFCC;stroke:#FFFFCC; stroke-width:0.1;stroke-linecap:round;stroke-linejoin:round;">
	<!-- Gray fill  -->
	<!ENTITY st4 "fill:#CCCCCC;stroke:#CCCCCC; stroke-width:0.1;stroke-linecap:round;stroke-linejoin:round;">
	<!-- Light-blue fill -->
	<!ENTITY st5 "fill:#CCECF4;stroke:#000000; stroke-width:1.133;stroke-linecap:round;stroke-linejoin:round;">
	<!ENTITY st6 "fill:none;stroke-linecap:butt; stroke-linejoin:round;">
	<!ENTITY st7 "fill:none;stroke:#000000;stroke-linecap:round;stroke-linejoin:round;">
	<!ENTITY st8 "enable-background:new    ;">
	<!-- Black fill -->
	<!ENTITY st9 "fill:#000000;stroke:#000000; stroke-linecap:round;stroke-linejoin:round;">
	<!-- SRS note   -->
	<!ENTITY st10 "font-size:9px;font-family:'ArialMT';">
	<!ENTITY st11 "font-size:9px;font-family:'Svg Symbol';">
	<!ENTITY st12 "font-size:6px;font-family:'Svg Symbol';">
	<!ENTITY st13 "fill:none;stroke:#ff0000;stroke-linecap:round;stroke-linejoin:round;">
	<!-- Yellow fill  -->
	<!ENTITY st14 "fill:#FFFF00;stroke:#FFFF00; stroke-width:0.1;stroke-linecap:round;stroke-linejoin:round;">
	<!ENTITY st15 "font-size:6px;font-family:'MS-PGothic';adobe-font-script:japanese;">
	<!ENTITY st16 "1.00 0.00 0.00 1.00">
	<!ENTITY st17 "0.00 -1.00 1.00 0.00">
	<!ENTITY st18 "font-size:6px;font-family:'Arial';">
	<!ENTITY st19 "font-size:9px;font-family:'Arial';">
	<!ENTITY st20 "font-size:6px;font-family:'MS-PGothic','MS PGothic';adobe-font-script:japanese;">
	<!ENTITY st21 "font-size:7px;font-family:'MS-PGothic','MS PGothic';adobe-font-script:japanese;">
	<!ATTLIST svg
		xmlns:ewd CDATA #FIXED "http://shcl.co.jp/ewd"
		xmlns:a CDATA #FIXED "http://ns.adobe.com/AdobeSVGViewerExtensions/3.0/"
		ewd:ver CDATA #IMPLIED
	>
	<!ATTLIST a
		ewd:lineID CDATA #IMPLIED
		ewd:groupID CDATA #IMPLIED
		ewd:figtype CDATA #IMPLIED
		ewd:code CDATA #IMPLIED
		ewd:figID CDATA #IMPLIED
		ewd:pinNo CDATA #IMPLIED
		ewd:comment CDATA #IMPLIED >
	<!ATTLIST g
		ewd:lineID CDATA #IMPLIED
		ewd:groupID CDATA #IMPLIED
		ewd:figtype CDATA #IMPLIED
		ewd:code CDATA #IMPLIED
		ewd:figID CDATA #IMPLIED
		ewd:pinNo CDATA #IMPLIED
		ewd:comment CDATA #IMPLIED >
	<!ATTLIST text
		ewd:textID CDATA #IMPLIED >
	<!ATTLIST title
		ewd:textID CDATA #IMPLIED >
]>
<!-- Generator: Shintec Hozumi YS   -->
<svg onload="call_execInitLoadProc_svg('system')" style="overflow:visible;  enable-background:new 0 0 4660.594 710.000" viewBox="0 0 4660.594 710.000" height="710.000" width="4660.594" xml:space="preserve" ewd:ver="2.1.2.5" xmlns="&ns_svg;" xmlns:a="http://ns.adobe.com/AdobeSVGViewerExtensions/3.0/" xmlns:ewd="http://shcl.co.jp/ewd" xmlns:xlink="&ns_xlink;">
<text style="&st18;" transform="matrix(&st17;  574.21  343.22 )">P</text><text style="&st18;" transform="matrix(&st17;  616.7  343.34 )">R</text><text style="&st18;" transform="matrix(&st17;  659.19  343.3 )">L</text><text style="&st18;" transform="matrix(&st17;  786.67  343.42 )">B</text><text style="&st18;" transform="matrix(&st17;  744.18  343.34 )">R</text><text style="&st18;" transform="matrix(&st17;  701.69  343.69 )">G</text><text style="&st18;" transform="matrix(&st16;  744.46  254.44 )">U18(A),U19(B)</text><text style="&st18;" transform="matrix(&st16;  744.47  261.54 )" ewd:textID="22">Multiplex Network Door ECU</text><text style="&st18;" transform="matrix(&st17;  863.16  377.68 )">G</text><text style="&st18;" transform="matrix(&st17;  905.65  378.19 )">W</text><text style="&st18;" transform="matrix(&st17;  863.16  326.69 )">G</text><path style="stroke-width: 1.42 ;&st7;  " d=" M   917.85,   350.23  L   909.35,   350.23  " /><text style="&st18;" transform="matrix(&st17;  905.65  327.2 )">W</text><path style="stroke-width: 1.42 ;&st7;  " d=" M   858.36,   588.19  L   866.86,   588.19  " /><path style="stroke-width: 1.42 ;&st7;  " d=" M   900.85,   588.19  L   909.35,   588.19  " /><text style="&st18;" transform="matrix(&st17;  863.16  496.39 )">B</text><text style="&st18;" transform="matrix(&st17;  905.65  497.17 )">W</text><text style="&st18;" transform="matrix(&st17;  874.49  499.42 )">(*2)</text><text style="&st18;" transform="matrix(&st17;  916.98  499.42 )">(*2)</text><text style="&st18;" transform="matrix(&st17;  948.14  538.88 )">B</text><text style="&st18;" transform="matrix(&st17;  959.48  541.91 )">(*1)</text><text style="&st18;" transform="matrix(&st17;  982.14  539.66 )">W</text><text style="&st18;" transform="matrix(&st17;  993.47  541.91 )">(*1)</text><text style="&st18;" transform="matrix(&st17;  948.14  471.01 )">V</text><text style="&st18;" transform="matrix(&st17;  959.48  473.92 )">(*1)</text><text style="&st18;" transform="matrix(&st17;  982.14  471.67 )">W</text><text style="&st18;" transform="matrix(&st17;  993.47  473.92 )">(*1)</text><text style="&st18;" transform="matrix(&st17;  863.16  615.37 )">B</text><text style="&st18;" transform="matrix(&st17;  905.65  616.15 )">W</text><path style="stroke-width: 1.42 ;&st7;  " d=" M   875.35,   350.23  L   866.86,   350.23  " /><g ewd:figtype="conn" ewd:figID="9" ewd:code="U20"><path style="stroke-width: 1.42 ;&st7;  " d=" M   560.91,   384.22  L   807.36,   384.22  L   807.36,   418.22  L   560.91,   418.22  L   560.91,   384.22  " /><g ewd:lineID="17"><text style="&st18;" transform="matrix(&st16;  571.72  380.53 )">4</text><text style="&st18;" transform="matrix(&st16;  570.21  391.86 )">DSG2</text></g><g ewd:lineID="18"><text style="&st18;" transform="matrix(&st16;  614.21  380.53 )">6</text><text style="&st18;" transform="matrix(&st16;  613.36  391.86 )">DS22</text></g><g ewd:lineID="19"><text style="&st18;" transform="matrix(&st16;  656.7  380.53 )">5</text><text style="&st18;" transform="matrix(&st16;  655.85  391.86 )">DS12</text></g><g ewd:lineID="20"><text style="&st18;" transform="matrix(&st16;  699.2  380.53 )">3</text><text style="&st18;" transform="matrix(&st16;  697.84  391.86 )">DSV2</text></g><g ewd:lineID="21"><text style="&st18;" transform="matrix(&st16;  741.69  380.53 )">2</text><text style="&st18;" transform="matrix(&st16;  740.45  391.86 )">BD-2</text></g><g ewd:lineID="22"><text style="&st18;" transform="matrix(&st16;  784.18  380.53 )">1</text><text style="&st18;" transform="matrix(&st16;  782.95  391.86 )">BD+2</text></g><g ewd:figtype="title"><text style="&st18;" transform="matrix(&st16;  574.49  425.83 )">U20</text><text style="&st18;" transform="matrix(&st16;  574.5  432.93 )" ewd:textID="44">Power Back Door Unit Assembly Set RH</text></g></g><g ewd:figtype="conn" ewd:figID="10" ewd:code="N32"><path style="stroke-width: 1.42 ;&st7;  " d=" M   858.36,   418.22  L   917.85,   418.22  L   917.85,   392.72  L   858.36,   392.72  L   858.36,   418.22  " /><path style="stroke-width: 0.85 ;&st7;  " d=" M   909.35,   392.72  L   909.35,   418.22  " /><path style="stroke-width: 0.85 ;&st7;  " d=" M   866.85,   392.72  L   866.85,   418.22  " /><text style="&st18;" transform="matrix(&st16;  857.57  426.41 )">10</text><text style="&st18;" transform="matrix(&st16;  860.67  389.03 )">8</text><text style="&st18;" transform="matrix(&st16;  900.06  426.41 )">21</text><text style="&st18;" transform="matrix(&st16;  900.06  389.03 )">19</text><g ewd:figtype="title"><text style="&st18;" transform="matrix(&st17;  932.56  421.12 )" ewd:textID="29">No. 6 CAN <tspan x="0 " dy="6.0">Junction Connector</tspan></text><text style="&st18;" transform="matrix(&st17;  925.46  421.11 )">N32</text></g></g><g ewd:figtype="conn" ewd:figID="11" ewd:code="N30"><path style="stroke-width: 1.42 ;&st7;  " d=" M   943.34,   494.70  L   994.33,   494.70  L   994.33,   511.70  L   943.34,   511.70  L   943.34,   494.70  " /><path style="stroke-width: 0.85 ;&st7;  " d=" M   951.84,   494.70  L   951.84,   511.70  " /><path style="stroke-width: 0.85 ;&st7;  " d=" M   985.83,   494.70  L   985.83,   511.70  " /><text style="&st18;" transform="matrix(&st16;  945.66  519.89 )">1</text><text style="&st18;" transform="matrix(&st16;  945.66  491.01 )">2</text><text style="&st18;" transform="matrix(&st16;  979.65  519.89 )">7</text><text style="&st18;" transform="matrix(&st16;  979.65  491.01 )">8</text><g ewd:figtype="title"><text style="&st18;" transform="matrix(&st17;  1009.05  514.61 )" ewd:textID="27">No. 5 CAN Junction Connector</text><text style="&st18;" transform="matrix(&st17;  1001.95  514.6 )">N30</text></g></g><g ewd:figtype="conn" ewd:figID="25" ewd:code="U18,U19"><g ewd:lineID="17"><text style="&st18;" transform="matrix(&st16;  569.21  305.74 )">2</text><text style="&st18;" transform="matrix(&st16;  575.6  305.74 )">A</text><path style="stroke-width: 1.42 ;&st7;   " d=" M   582.44,   303.77  C   582.44    301.26    580.41    299.24    577.90    299.24  " /><path style="stroke-width: 1.42 ;&st7;   " d=" M   577.90,   299.24  C   575.40    299.24    573.37    301.26    573.37    303.77  " /><path style="stroke-width: 1.42 ;&st7;   " d=" M   573.37,   303.77  C   573.37    306.27    575.40    308.30    577.90    308.30  " /><path style="stroke-width: 1.42 ;&st7;   " d=" M   577.90,   308.30  C   580.41    308.30    582.44    306.27    582.44    303.77  " /><text style="&st18;" transform="matrix(&st16;  570.21  295.54 )">DSG2</text></g><g ewd:lineID="18"><text style="&st18;" transform="matrix(&st16;  608.6  305.74 )">25</text><path style="stroke-width: 1.42 ;&st7;   " d=" M   624.93,   303.77  C   624.93    301.26    622.90    299.24    620.40    299.24  " /><path style="stroke-width: 1.42 ;&st7;   " d=" M   620.40,   299.24  C   617.89    299.24    615.86    301.26    615.86    303.77  " /><path style="stroke-width: 1.42 ;&st7;   " d=" M   615.86,   303.77  C   615.86    306.27    617.89    308.30    620.40    308.30  " /><path style="stroke-width: 1.42 ;&st7;   " d=" M   620.40,   308.30  C   622.90    308.30    624.93    306.27    624.93    303.77  " /><text style="&st18;" transform="matrix(&st16;  618.09  305.74 )">A</text><text style="&st18;" transform="matrix(&st16;  613.36  295.54 )">DS22</text></g><g ewd:lineID="19"><text style="&st18;" transform="matrix(&st16;  651.09  305.74 )">26</text><path style="stroke-width: 1.42 ;&st7;   " d=" M   667.42,   303.77  C   667.42    301.26    665.39    299.24    662.89    299.24  " /><path style="stroke-width: 1.42 ;&st7;   " d=" M   662.89,   299.24  C   660.39    299.24    658.36    301.26    658.36    303.77  " /><path style="stroke-width: 1.42 ;&st7;   " d=" M   658.36,   303.77  C   658.36    306.27    660.39    308.30    662.89    308.30  " /><path style="stroke-width: 1.42 ;&st7;   " d=" M   662.89,   308.30  C   665.39    308.30    667.42    306.27    667.42    303.77  " /><text style="&st18;" transform="matrix(&st16;  660.58  305.74 )">A</text><text style="&st18;" transform="matrix(&st16;  655.85  295.54 )">DS12</text></g><g ewd:lineID="20"><text style="&st18;" transform="matrix(&st16;  696.69  305.74 )">3</text><text style="&st18;" transform="matrix(&st16;  703.08  305.74 )">A</text><path style="stroke-width: 1.42 ;&st7;   " d=" M   709.91,   303.77  C   709.91    301.26    707.89    299.24    705.38    299.24  " /><path style="stroke-width: 1.42 ;&st7;   " d=" M   705.38,   299.24  C   702.88    299.24    700.85    301.26    700.85    303.77  " /><path style="stroke-width: 1.42 ;&st7;   " d=" M   700.85,   303.77  C   700.85    306.27    702.88    308.30    705.38    308.30  " /><path style="stroke-width: 1.42 ;&st7;   " d=" M   705.38,   308.30  C   707.89    308.30    709.91    306.27    709.91    303.77  " /><text style="&st18;" transform="matrix(&st16;  697.84  295.54 )">DSV2</text></g><g ewd:lineID="21"><text style="&st18;" transform="matrix(&st16;  739.18  305.74 )">1</text><path style="stroke-width: 1.42 ;&st7;   " d=" M   752.41,   303.77  C   752.41    301.26    750.38    299.24    747.88    299.24  " /><path style="stroke-width: 1.42 ;&st7;   " d=" M   747.88,   299.24  C   745.37    299.24    743.34    301.26    743.34    303.77  " /><path style="stroke-width: 1.42 ;&st7;   " d=" M   743.34,   303.77  C   743.34    306.27    745.37    308.30    747.88    308.30  " /><path style="stroke-width: 1.42 ;&st7;   " d=" M   747.88,   308.30  C   750.38    308.30    752.41    306.27    752.41    303.77  " /><text style="&st18;" transform="matrix(&st16;  745.69  305.74 )">B</text><text style="&st18;" transform="matrix(&st16;  740.45  295.54 )">BD-2</text></g><g ewd:lineID="22"><text style="&st18;" transform="matrix(&st16;  781.67  305.74 )">2</text><path style="stroke-width: 1.42 ;&st7;   " d=" M   794.90,   303.77  C   794.90    301.26    792.87    299.24    790.37    299.24  " /><path style="stroke-width: 1.42 ;&st7;   " d=" M   790.37,   299.24  C   787.86    299.24    785.84    301.26    785.84    303.77  " /><path style="stroke-width: 1.42 ;&st7;   " d=" M   785.84,   303.77  C   785.84    306.27    787.86    308.30    790.37    308.30  " /><path style="stroke-width: 1.42 ;&st7;   " d=" M   790.37,   308.30  C   792.87    308.30    794.90    306.27    794.90    303.77  " /><text style="&st18;" transform="matrix(&st16;  788.18  305.74 )">B</text><text style="&st18;" transform="matrix(&st16;  782.95  295.54 )">BD+2</text></g><g ewd:lineID="28"><text style="&st18;" transform="matrix(&st16;  855.06  305.74 )">13</text><text style="&st18;" transform="matrix(&st16;  864.55  305.74 )">A</text><path style="stroke-width: 1.42 ;&st7;   " d=" M   871.39,   303.77  C   871.39    301.26    869.36    299.24    866.86    299.24  " /><path style="stroke-width: 1.42 ;&st7;   " d=" M   866.86,   299.24  C   864.35    299.24    862.32    301.26    862.32    303.77  " /><path style="stroke-width: 1.42 ;&st7;   " d=" M   862.32,   303.77  C   862.32    306.27    864.35    308.30    866.86    308.30  " /><path style="stroke-width: 1.42 ;&st7;   " d=" M   866.86,   308.30  C   869.36    308.30    871.39    306.27    871.39    303.77  " /><text style="&st18;" transform="matrix(&st16;  858.58  295.54 )">CANP</text></g><g ewd:lineID="34"><text style="&st18;" transform="matrix(&st16;  897.55  305.74 )">14</text><text style="&st18;" transform="matrix(&st16;  907.04  305.74 )">A</text><path style="stroke-width: 1.42 ;&st7;   " d=" M   913.88,   303.77  C   913.88    301.26    911.85    299.24    909.35    299.24  " /><path style="stroke-width: 1.42 ;&st7;   " d=" M   909.35,   299.24  C   906.84    299.24    904.82    301.26    904.82    303.77  " /><path style="stroke-width: 1.42 ;&st7;   " d=" M   904.82,   303.77  C   904.82    306.27    906.84    308.30    909.35    308.30  " /><path style="stroke-width: 1.42 ;&st7;   " d=" M   909.35,   308.30  C   911.85    308.30    913.88    306.27    913.88    303.77  " /><text style="&st18;" transform="matrix(&st16;  900.76  295.54 )">CANN</text></g></g><g ewd:figtype="w2w" ewd:figID="61" ewd:code="GN2"><path style="stroke-width: 1.42 ;&st7;  " d=" M   871.10,   582.52  L   866.85,   586.77  L   862.61,   582.52  " /><path style="stroke-width: 1.42 ;&st7;  " d=" M   862.61,   579.12  L   866.85,   583.37  L   871.10,   579.12  " /><text style="&st18;" transform="matrix(&st16;  854.22  594.41 )">2</text></g><g ewd:figtype="w2w" ewd:figID="62" ewd:code="UN1"><text style="&st18;" transform="matrix(&st16;  854.22  347.95 )">2</text><path style="stroke-width: 1.42 ;&st7;  " d=" M   871.10,   355.89  L   866.85,   351.64  L   862.61,   355.89  " /><path style="stroke-width: 1.42 ;&st7;  " d=" M   871.10,   359.29  L   866.85,   355.04  L   862.61,   359.29  " /></g><g ewd:figtype="w2w" ewd:figID="63" ewd:code="GN2"><path style="stroke-width: 1.42 ;&st7;  " d=" M   905.10,   579.12  L   909.35,   583.37  L   913.60,   579.12  " /><path style="stroke-width: 1.42 ;&st7;  " d=" M   913.60,   582.52  L   909.35,   586.77  L   905.10,   582.52  " /><text style="&st18;" transform="matrix(&st16;  896.72  594.41 )">3</text></g><g ewd:figtype="w2w" ewd:figID="64" ewd:code="UN1"><path style="stroke-width: 1.42 ;&st7;  " d=" M   913.60,   359.29  L   909.35,   355.04  L   905.10,   359.29  " /><path style="stroke-width: 1.42 ;&st7;  " d=" M   913.60,   355.89  L   909.35,   351.64  L   905.10,   355.89  " /><text style="&st18;" transform="matrix(&st16;  893.61  347.95 )">13</text></g><g ewd:code="2" ewd:figID="121" ewd:comment="" ewd:figtype="comment"><text style="&st18;" transform="matrix(&st16;  650.99  615.65 )" ewd:textID="2">* 2 :w/o Power Seat</text></g><g ewd:code="1" ewd:figID="122" ewd:comment="" ewd:figtype="comment"><text style="&st18;" transform="matrix(&st16;  650.99  607.15 )" ewd:textID="1">* 1 :w/ Power Seat</text></g></svg>