﻿<?xml version="1.0" encoding="utf-8"?>
<!DOCTYPE svg PUBLIC "-//W3C//DTD SVG 1.0//EN" "http://www.w3.org/TR/2001/REC-SVG-20010904/DTD/svg10.dtd"[
	<!ENTITY ns_flows "http://ns.adobe.com/Flows/1.0/">
	<!ENTITY ns_svg "http://www.w3.org/2000/svg">
	<!ENTITY ns_xlink "http://www.w3.org/1999/xlink">
	<!ENTITY st0 "font-size:7px;font-family:'MS-PGothic';adobe-font-script:japanese;">
	<!ENTITY st1 "font-size:6px;font-family:'ArialMT';">
	<!-- White fill  -->
	<!ENTITY st2 "fill:#FFFFFF;stroke:#000000; stroke-width:1.41;stroke-linecap:round;stroke-linejoin:round;">
	<!-- Yellow fill  -->
	<!ENTITY st3 "fill:#FFFFCC;stroke:#FFFFCC; stroke-width:0.1;stroke-linecap:round;stroke-linejoin:round;">
	<!-- Gray fill  -->
	<!ENTITY st4 "fill:#CCCCCC;stroke:#CCCCCC; stroke-width:0.1;stroke-linecap:round;stroke-linejoin:round;">
	<!-- Light-blue fill -->
	<!ENTITY st5 "fill:#CCECF4;stroke:#000000; stroke-width:1.133;stroke-linecap:round;stroke-linejoin:round;">
	<!ENTITY st6 "fill:none;stroke-linecap:butt; stroke-linejoin:round;">
	<!ENTITY st7 "fill:none;stroke:#000000;stroke-linecap:round;stroke-linejoin:round;">
	<!ENTITY st8 "enable-background:new    ;">
	<!-- Black fill -->
	<!ENTITY st9 "fill:#000000;stroke:#000000; stroke-linecap:round;stroke-linejoin:round;">
	<!-- SRS note   -->
	<!ENTITY st10 "font-size:9px;font-family:'ArialMT';">
	<!ENTITY st11 "font-size:9px;font-family:'Svg Symbol';">
	<!ENTITY st12 "font-size:6px;font-family:'Svg Symbol';">
	<!ENTITY st13 "fill:none;stroke:#ff0000;stroke-linecap:round;stroke-linejoin:round;">
	<!-- Yellow fill  -->
	<!ENTITY st14 "fill:#FFFF00;stroke:#FFFF00; stroke-width:0.1;stroke-linecap:round;stroke-linejoin:round;">
	<!ENTITY st15 "font-size:6px;font-family:'MS-PGothic';adobe-font-script:japanese;">
	<!ENTITY st16 "1.00 0.00 0.00 1.00">
	<!ENTITY st17 "0.00 -1.00 1.00 0.00">
	<!ENTITY st18 "font-size:6px;font-family:'Arial';">
	<!ENTITY st19 "font-size:9px;font-family:'Arial';">
	<!ENTITY st20 "font-size:6px;font-family:'MS-PGothic','MS PGothic';adobe-font-script:japanese;">
	<!ENTITY st21 "font-size:7px;font-family:'MS-PGothic','MS PGothic';adobe-font-script:japanese;">
	<!ATTLIST svg
		xmlns:ewd CDATA #FIXED "http://shcl.co.jp/ewd"
		xmlns:a CDATA #FIXED "http://ns.adobe.com/AdobeSVGViewerExtensions/3.0/"
		ewd:ver CDATA #IMPLIED
	>
	<!ATTLIST a
		ewd:lineID CDATA #IMPLIED
		ewd:groupID CDATA #IMPLIED
		ewd:figtype CDATA #IMPLIED
		ewd:code CDATA #IMPLIED
		ewd:figID CDATA #IMPLIED
		ewd:pinNo CDATA #IMPLIED
		ewd:comment CDATA #IMPLIED >
	<!ATTLIST g
		ewd:lineID CDATA #IMPLIED
		ewd:groupID CDATA #IMPLIED
		ewd:figtype CDATA #IMPLIED
		ewd:code CDATA #IMPLIED
		ewd:figID CDATA #IMPLIED
		ewd:pinNo CDATA #IMPLIED
		ewd:comment CDATA #IMPLIED >
	<!ATTLIST text
		ewd:textID CDATA #IMPLIED >
	<!ATTLIST title
		ewd:textID CDATA #IMPLIED >
]>
<!-- Generator: Shintec Hozumi YS   -->
<svg onload="call_execInitLoadProc_svg('system')" style="overflow:visible;  enable-background:new 0 0 7723.822 710.000" viewBox="0 0 7723.822 710.000" height="710.000" width="7723.822" xml:space="preserve" ewd:ver="2.1.2.5" xmlns="&ns_svg;" xmlns:a="http://ns.adobe.com/AdobeSVGViewerExtensions/3.0/" xmlns:ewd="http://shcl.co.jp/ewd" xmlns:xlink="&ns_xlink;">
<text style="&st18;" transform="matrix(&st16;  5937.1  40.58 )" ewd:textID="37">Main Body ECU</text><text style="&st18;" transform="matrix(&st16;  5937.09  33.47 )">G78(A),G79(B)</text><path style="stroke-width: 1.42 ;&st7;  " d=" M  5864.02,   146.26  L  5855.52,   146.26  " /><text style="&st18;" transform="matrix(&st17;  5962.31  574.74 )">BR</text><text style="&st18;" transform="matrix(&st17;  5914.15  193.47 )">(*6)</text><text style="&st18;" transform="matrix(&st17;  5902.82  190.37 )">R</text><text style="&st18;" transform="matrix(&st17;  5863.16  193.47 )">(*5)</text><text style="&st18;" transform="matrix(&st17;  5851.83  190.37 )">R</text><text style="&st18;" transform="matrix(&st17;  5863.16  269.95 )">(*5)</text><text style="&st18;" transform="matrix(&st17;  5851.83  266.93 )">Y</text><text style="&st18;" transform="matrix(&st17;  5817.83  215.86 )">R</text><text style="&st18;" transform="matrix(&st17;  5987.8  232.94 )">B</text><text style="&st18;" transform="matrix(&st17;  5914.15  269.95 )">(*6)</text><text style="&st18;" transform="matrix(&st17;  5902.82  266.93 )">Y</text><text style="&st18;" transform="matrix(&st17;  5919.81  573.65 )">W</text><text style="&st18;" transform="matrix(&st17;  5931.15  575.9 )">(*6)</text><text style="&st18;" transform="matrix(&st16;  5674.09  567.49 )">W</text><text style="&st18;" transform="matrix(&st16;  5722.83  578.82 )">(*5)</text><text style="&st18;" transform="matrix(&st16;  5725.58  542.0 )">G</text><text style="&st18;" transform="matrix(&st16;  5722.83  553.33 )">(*5)</text><text style="&st18;" transform="matrix(&st16;  5725.08  618.48 )">W</text><text style="&st18;" transform="matrix(&st16;  5722.83  629.82 )">(*6)</text><text style="&st18;" transform="matrix(&st16;  5725.58  592.99 )">G</text><text style="&st18;" transform="matrix(&st16;  5722.83  604.32 )">(*6)</text><text style="&st18;" transform="matrix(&st16;  5725.08  567.49 )">W</text><text style="&st18;" transform="matrix(&st16;  5671.84  604.32 )">(*6)</text><text style="&st18;" transform="matrix(&st16;  5674.59  592.99 )">G</text><text style="&st18;" transform="matrix(&st16;  5671.84  629.82 )">(*6)</text><text style="&st18;" transform="matrix(&st16;  5674.09  618.48 )">W</text><text style="&st18;" transform="matrix(&st16;  5671.84  553.33 )">(*5)</text><text style="&st18;" transform="matrix(&st16;  5674.59  542.0 )">G</text><text style="&st18;" transform="matrix(&st16;  5671.84  578.82 )">(*5)</text><text style="&st18;" transform="matrix(&st16;  5723.72  643.98 )">GR</text><text style="&st18;" transform="matrix(&st16;  5722.83  655.31 )">(*1)</text><text style="&st18;" transform="matrix(&st16;  5671.84  655.31 )">(*1)</text><text style="&st18;" transform="matrix(&st16;  5672.73  643.98 )">GR</text><g ewd:figtype="conn" ewd:figID="50" ewd:code="G102"><path style="stroke-width: 1.42 ;&st7;  " d=" M  5898.01,   222.75  L  5915.01,   222.75  L  5915.01,   239.75  L  5898.01,   239.75  L  5898.01,   222.75  " /><path style="stroke-width: 0.85 ;&st7;  " d=" M  5906.51,   222.75  L  5906.51,   239.75  " /><text style="&st18;" transform="matrix(&st16;  5897.23  247.94 )">22</text><text style="&st18;" transform="matrix(&st16;  5897.23  219.06 )">19</text><g ewd:figtype="title"><text style="&st18;" transform="matrix(&st17;  5922.62  242.64 )">G102</text><text style="&st18;" transform="matrix(&st17;  5929.73  242.65 )" ewd:textID="48">No. 7 <tspan x="0 " dy="6.0">Junction Connector</tspan></text></g></g><g ewd:figtype="conn" ewd:figID="51" ewd:code="G93"><path style="stroke-width: 1.42 ;&st7;  " d=" M  5847.02,   222.75  L  5864.02,   222.75  L  5864.02,   239.75  L  5847.02,   239.75  L  5847.02,   222.75  " /><path style="stroke-width: 0.85 ;&st7;  " d=" M  5855.52,   222.75  L  5855.52,   239.75  " /><text style="&st18;" transform="matrix(&st16;  5846.24  247.94 )">12</text><text style="&st18;" transform="matrix(&st16;  5846.24  219.06 )">15</text><g ewd:figtype="title"><text style="&st18;" transform="matrix(&st17;  5878.74  242.65 )" ewd:textID="40">No. 1 <tspan x="0 " dy="6.0">Junction Connector</tspan></text><text style="&st18;" transform="matrix(&st17;  5871.63  242.64 )">G93</text></g></g><g ewd:figtype="rb" ewd:figID="52" ewd:code="FUSE6"><path style="stroke-width: 0.85 ;&st7;  " d=" M  5770.54,   163.26  L  5770.54,   188.75  " /><path style="stroke-width: 1.42 ;&st7;  " d=" M  5772.66,   197.25  L  5768.41,   197.25  " /><path style="stroke-width: 1.42 ;&st7;  " d=" M  5772.66,   188.75  L  5768.41,   188.75  " /><path style="stroke-width: 1.42 ;&st7;   " d=" M  5776.91,   193.00  C  5776.91    190.66   5775.01    188.75   5772.66    188.75  " /><path style="stroke-width: 1.42 ;&st7;   " d=" M  5772.66,   197.25  C  5775.01    197.25   5776.91    195.35   5776.91    193.00  " /><path style="stroke-width: 1.42 ;&st7;   " d=" M  5764.16,   193.00  C  5764.16    195.35   5766.06    197.25   5768.41    197.25  " /><path style="stroke-width: 1.42 ;&st7;   " d=" M  5768.41,   188.75  C  5766.06    188.75   5764.16    190.66   5764.16    193.00  " /><path style="stroke-width: 0.28 ;&st9;  " d=" M  5770.53,   183.86  L  5767.70,   181.03  L  5767.70,   185.28  L  5770.53,   188.11  L  5773.37,   185.28  L  5773.37,   181.03  L  5770.53,   183.86  " /><text style="&st18;" transform="matrix(&st16;  5786.96  146.83 )">10A <tspan x="0 " dy="6.0">ECU-B </tspan><tspan x="0 " dy="6.0">NO.2</tspan></text><text style="&st18;" transform="matrix(&st16;  5768.74  194.97 )">1</text><text style="&st18;" transform="matrix(&st16;  5764.35  179.95 )">2</text><text style="&st18;" transform="matrix(&st16;  5762.49  125.57 )">(BAT)</text><path style="stroke-width: 0.85 ;&st7;   " d=" M  5771.95,   161.84  C  5771.95    161.06   5771.32    160.43   5770.54    160.43  " /><path style="stroke-width: 0.85 ;&st7;   " d=" M  5770.54,   160.43  C  5769.75    160.43   5769.12    161.06   5769.12    161.84  " /><path style="stroke-width: 0.85 ;&st7;   " d=" M  5769.12,   161.84  C  5769.12    162.62   5769.75    163.26   5770.54    163.26  " /><path style="stroke-width: 0.85 ;&st7;   " d=" M  5770.54,   163.26  C  5771.32    163.26   5771.95    162.62   5771.95    161.84  " /><path style="stroke-width: 0.85 ;&st7;   " d=" M  5771.95,   139.18  C  5771.95    138.40   5771.32    137.76   5770.54    137.76  " /><path style="stroke-width: 0.85 ;&st7;   " d=" M  5770.54,   137.76  C  5769.75    137.76   5769.12    138.40   5769.12    139.18  " /><path style="stroke-width: 0.85 ;&st7;   " d=" M  5769.12,   139.18  C  5769.12    139.96   5769.75    140.60   5770.54    140.60  " /><path style="stroke-width: 0.85 ;&st7;   " d=" M  5770.54,   140.60  C  5771.32    140.60   5771.95    139.96   5771.95    139.18  " /><path style="stroke-width: 1.42 ;&st7;   " d=" M  5770.54,   160.43  C  5773.27    158.81   5774.19    155.28   5772.57    152.55  " /><path style="stroke-width: 1.42 ;&st7;   " d=" M  5772.57,   152.55  C  5772.05    151.67   5771.42    151.03   5770.54    150.51  " /><path style="stroke-width: 1.42 ;&st7;   " d=" M  5770.54,   140.60  C  5767.80    142.21   5766.89    145.74   5768.50    148.47  " /><path style="stroke-width: 1.42 ;&st7;   " d=" M  5768.50,   148.47  C  5769.02    149.36   5769.65    149.99   5770.54    150.51  " /><path style="stroke-width: 1.42 ;&st7;  " d=" M  5783.28,   171.76  L  5783.28,   129.26  L  5757.79,   129.26  L  5757.79,   171.76  L  5783.28,   171.76  " /></g><g ewd:figtype="conn" ewd:figID="53" ewd:code="G16,G17"><path style="stroke-width: 0.85 ;&st7;  " d=" M  5872.52,   345.98  L  5872.52,   337.48  " /><path style="stroke-width: 0.85 ;&st7;  " d=" M  5859.77,   333.23  L  5851.27,   333.23  " /><path style="stroke-width: 1.42 ;&st7;  " d=" M  5949.00,   358.73  L  5983.00,   358.73  L  5983.00,   375.72  L  5949.00,   375.72  L  5949.00,   358.73  " /><path style="stroke-width: 0.85 ;&st7;  " d=" M  5966.00,   401.22  L  5966.00,   418.22  " /><path style="stroke-width: 1.42 ;&st7;  " d=" M  5949.00,   384.22  L  5983.00,   384.22  L  5983.00,   401.22  L  5949.00,   401.22  L  5949.00,   384.22  " /><path style="stroke-width: 0.28 ;&st9;  " d=" M  5872.52,   341.73  L  5881.01,   336.06  L  5881.01,   347.39  L  5872.52,   341.73  " /><path style="stroke-width: 0.85 ;&st7;  " d=" M  5855.52,   341.73  L  5991.50,   341.73  L  5991.50,   307.73  " /><path style="stroke-width: 0.85 ;&st7;  " d=" M  5854.33,   340.73  L  5854.05,   341.20  L  5853.96,   341.73  L  5854.05,   342.26  L  5854.33,   342.73  L  5854.74,   343.08  L  5855.25,   343.26  L  5855.79,   343.26  L  5856.30,   343.08  L  5856.71,   342.73  L  5856.98,   342.26  L  5857.08,   341.73  L  5856.98,   341.20  L  5856.71,   340.73  L  5856.30,   340.38  L  5855.79,   340.19  L  5855.25,   340.19  L  5854.74,   340.38  L  5854.33,   340.73  L  5854.72,   341.44  L  5854.72,   342.02  L  5855.09,   342.46  L  5855.67,   342.56  L  5856.17,   342.28  L  5856.37,   341.73  L  5856.17,   341.18  L  5855.67,   340.89  L  5855.09,   340.99  L  5855.52,   341.73  " /><path style="stroke-width: 0.85 ;&st7;  " d=" M  5923.51,   477.71  L  5923.51,   520.20  " /><path style="stroke-width: 0.85 ;&st7;  " d=" M  5888.10,   404.05  L  5890.93,   404.05  " /><path style="stroke-width: 0.85 ;&st7;  " d=" M  5886.68,   401.22  L  5892.35,   401.22  " /><path style="stroke-width: 0.85 ;&st7;  " d=" M  5885.26,   398.39  L  5893.76,   398.39  " /><path style="stroke-width: 0.85 ;&st7;  " d=" M  5881.01,   395.55  L  5898.01,   395.55  " /><path style="stroke-width: 0.85 ;&st7;  " d=" M  5889.51,   391.30  L  5889.51,   395.55  " /><path style="stroke-width: 0.85 ;&st7;  " d=" M  5889.51,   392.72  L  5889.51,   384.22  L  5864.02,   384.22  " /><path style="stroke-width: 0.85 ;&st7;  " d=" M  5855.52,   477.71  L  5855.52,   520.20  " /><path style="stroke-width: 0.85 ;&st7;  " d=" M  5855.52,   392.72  L  5855.52,   418.22  " /><path style="stroke-width: 0.85 ;&st7;  " d=" M  5923.51,   443.71  L  5923.51,   460.71  " /><path style="stroke-width: 1.42 ;&st7;  " d=" M  5847.02,   443.71  L  5847.02,   426.71  L  5932.01,   426.71  L  5932.01,   443.71  " /><path style="stroke-width: 0.85 ;&st7;  " d=" M  5855.52,   443.71  L  5855.52,   460.71  " /><path style="stroke-width: 1.42 ;&st7;  " d=" M  5847.02,   460.71  L  5847.02,   477.71  L  5932.01,   477.71  L  5932.01,   460.71  L  5847.02,   460.71  " /><path style="stroke-width: 0.28 ;&st9;  " d=" M  5855.52,   333.23  L  5849.85,   324.73  L  5861.18,   324.73  L  5855.52,   333.23  " /><path style="stroke-width: 0.85 ;&st7;  " d=" M  5855.52,   307.73  L  5855.52,   375.72  " /><path style="stroke-width: 1.42 ;&st7;  " d=" M  5847.02,   375.72  L  5847.02,   392.72  L  5864.02,   392.72  L  5864.02,   375.72  L  5847.02,   375.72  " /><path style="stroke-width: 1.42 ;&st7;  " d=" M  5813.03,   307.73  L  5813.03,   520.20  L  6186.96,   520.20  L  6186.96,   307.73  L  5813.03,   307.73  " /><path style="stroke-width: 0.85 ;&st7;  " d=" M  5966.00,   443.71  L  5966.00,   520.20  " /><path style="stroke-width: 0.85 ;&st7;  " d=" M  5847.02,   469.21  L  5830.02,   469.21  L  5830.02,   435.21  " /><path style="stroke-width: 0.85 ;&st7;  " d=" M  5932.01,   469.21  L  5966.00,   469.21  " /><path style="stroke-width: 0.85 ;&st7;  " d=" M  5964.81,   468.20  L  5964.54,   468.67  L  5964.44,   469.21  L  5964.54,   469.74  L  5964.81,   470.21  L  5965.22,   470.56  L  5965.73,   470.74  L  5966.27,   470.74  L  5966.78,   470.56  L  5967.19,   470.21  L  5967.47,   469.74  L  5967.56,   469.21  L  5967.47,   468.67  L  5967.19,   468.20  L  5966.78,   467.86  L  5966.27,   467.67  L  5965.73,   467.67  L  5965.22,   467.86  L  5964.81,   468.20  L  5965.20,   468.92  L  5965.20,   469.50  L  5965.58,   469.94  L  5966.15,   470.04  L  5966.65,   469.75  L  5966.85,   469.21  L  5966.65,   468.66  L  5966.15,   468.37  L  5965.58,   468.47  L  5966.00,   469.21  " /><path style="stroke-width: 1.42 ;&st7;  " d=" M  5847.02,   443.71  L  6033.99,   443.71  L  6033.99,   418.22  L  5847.02,   418.22  L  5847.02,   443.71  " /><path style="stroke-width: 0.85 ;&st7;  " d=" M  5821.52,   435.21  L  5838.52,   435.21  " /><path style="stroke-width: 0.85 ;&st7;  " d=" M  5828.83,   434.21  L  5828.56,   434.68  L  5828.47,   435.21  L  5828.56,   435.75  L  5828.83,   436.22  L  5829.24,   436.56  L  5829.75,   436.75  L  5830.29,   436.75  L  5830.80,   436.56  L  5831.22,   436.22  L  5831.49,   435.75  L  5831.58,   435.21  L  5831.49,   434.68  L  5831.22,   434.21  L  5830.80,   433.86  L  5830.29,   433.68  L  5829.75,   433.68  L  5829.24,   433.86  L  5828.83,   434.21  L  5829.22,   434.92  L  5829.22,   435.50  L  5829.60,   435.95  L  5830.17,   436.05  L  5830.67,   435.76  L  5830.87,   435.21  L  5830.67,   434.67  L  5830.17,   434.38  L  5829.60,   434.48  L  5830.02,   435.21  " /><path style="stroke-width: 0.85 ;&st7;  " d=" M  5966.00,   375.72  L  5966.00,   384.22  " /><text style="&st18;" transform="matrix(&st16;  5961.45  394.69 )">I/F</text><text style="&st18;" transform="matrix(&st16;  5877.75  471.18 )">CAN I/F</text><text style="&st18;" transform="matrix(&st16;  5976.7  432.93 )">CPU</text><text style="&st18;" transform="matrix(&st16;  5858.11  315.93 )">B</text><text style="&st18;" transform="matrix(&st16;  5994.08  315.93 )">IG+</text><text style="&st18;" transform="matrix(&st16;  5926.09  516.51 )">CANL</text><text style="&st18;" transform="matrix(&st16;  5858.1  516.51 )">CANH</text><text style="&st18;" transform="matrix(&st16;  5968.59  516.51 )">ET</text><text style="&st18;" transform="matrix(&st16;  5876.16  434.36 )" ewd:textID="18">CAN <tspan x="0 " dy="6.0">Controller</tspan></text><text style="&st18;" transform="matrix(&st16;  5851.67  383.36 )">5V <tspan x="0 " dy="6.0">IC</tspan></text><text style="&st18;" transform="matrix(&st16;  5822.68  431.52 )">5V+B</text><text style="&st18;" transform="matrix(&st16;  5956.87  369.19 )" ewd:textID="17">Buzzer</text><text style="&st18;" transform="matrix(&st16;  5838.25  400.91 )">5V+B</text><path style="stroke-width: 0.85 ;&st7;  " d=" M  6109.36,   416.27  L  6116.72,   412.02  " /><path style="stroke-width: 0.85 ;&st7;  " d=" M  6114.71,   408.55  L  6107.35,   412.80  " /><path style="stroke-width: 0.85 ;&st7;  " d=" M  6106.23,   418.22  L  6097.73,   418.22  " /><path style="stroke-width: 0.85 ;&st7;  " d=" M  6075.36,   416.27  L  6082.72,   412.02  " /><path style="stroke-width: 0.85 ;&st7;  " d=" M  6080.72,   408.55  L  6073.36,   412.80  " /><path style="stroke-width: 0.85 ;&st7;  " d=" M  6072.24,   418.22  L  6063.74,   418.22  " /><path style="stroke-width: 0.85 ;&st7;  " d=" M  6116.71,   412.02  L  6114.38,   415.06  L  6112.91,   412.52  L  6116.71,   412.02  L  6115.43,   412.76  L  6114.45,   414.04  L  6113.83,   412.97  L  6115.43,   412.76  L  6114.79,   413.13  L  6114.48,   413.54  L  6114.28,   413.20  L  6114.79,   413.13  " /><path style="stroke-width: 0.85 ;&st7;  " d=" M  6114.71,   408.55  L  6112.38,   411.59  L  6110.91,   409.05  L  6114.71,   408.55  L  6113.43,   409.29  L  6112.44,   410.58  L  6111.82,   409.50  L  6113.43,   409.29  L  6112.79,   409.66  L  6112.48,   410.07  L  6112.28,   409.73  L  6112.79,   409.66  " /><path style="stroke-width: 0.28 ;&st9;  " d=" M  6101.98,   418.22  L  6096.31,   409.72  L  6107.64,   409.72  L  6101.98,   418.22  " /><path style="stroke-width: 0.85 ;&st7;  " d=" M  6082.72,   412.02  L  6080.39,   415.06  L  6078.92,   412.52  L  6082.72,   412.02  L  6081.44,   412.76  L  6080.45,   414.04  L  6079.83,   412.97  L  6081.44,   412.76  L  6080.80,   413.13  L  6080.48,   413.54  L  6080.29,   413.20  L  6080.80,   413.13  " /><path style="stroke-width: 0.85 ;&st7;  " d=" M  6080.72,   408.55  L  6078.38,   411.59  L  6076.92,   409.05  L  6080.72,   408.55  L  6079.43,   409.29  L  6078.45,   410.58  L  6077.83,   409.50  L  6079.43,   409.29  L  6078.79,   409.66  L  6078.48,   410.07  L  6078.29,   409.73  L  6078.79,   409.66  " /><path style="stroke-width: 0.28 ;&st9;  " d=" M  6067.98,   418.22  L  6062.32,   409.72  L  6073.65,   409.72  L  6067.98,   418.22  " /><path style="stroke-width: 0.85 ;&st7;  " d=" M  6067.98,   435.21  L  6067.98,   401.22  L  6065.15,   399.80  L  6070.82,   396.97  L  6065.15,   394.14  L  6070.82,   391.30  L  6065.15,   388.47  L  6070.82,   385.64  L  6067.98,   384.22  L  6067.98,   358.73  L  6135.97,   358.73  " /><path style="stroke-width: 1.42 ;&st7;  " d=" M  6127.47,   426.71  L  6127.47,   443.71  L  6169.97,   443.71  L  6169.97,   426.71  L  6127.47,   426.71  " /><path style="stroke-width: 0.85 ;&st7;  " d=" M  6135.97,   460.71  L  6135.97,   443.71  " /><path style="stroke-width: 1.42 ;&st7;  " d=" M  6016.99,   460.71  L  6016.99,   477.71  L  6144.47,   477.71  L  6144.47,   460.71  L  6016.99,   460.71  " /><path style="stroke-width: 0.85 ;&st7;  " d=" M  6025.49,   443.71  L  6025.49,   460.71  " /><path style="stroke-width: 0.85 ;&st7;  " d=" M  6066.57,   452.21  L  6069.40,   452.21  " /><path style="stroke-width: 0.85 ;&st7;  " d=" M  6065.15,   449.38  L  6070.82,   449.38  " /><path style="stroke-width: 0.85 ;&st7;  " d=" M  6063.73,   446.54  L  6072.23,   446.54  " /><path style="stroke-width: 0.85 ;&st7;  " d=" M  6059.48,   443.71  L  6076.48,   443.71  " /><path style="stroke-width: 0.85 ;&st7;  " d=" M  6067.98,   435.21  L  6067.98,   443.71  " /><path style="stroke-width: 0.85 ;&st7;  " d=" M  6066.79,   434.21  L  6066.52,   434.68  L  6066.43,   435.21  L  6066.52,   435.75  L  6066.79,   436.22  L  6067.20,   436.56  L  6067.71,   436.75  L  6068.25,   436.75  L  6068.76,   436.56  L  6069.18,   436.22  L  6069.45,   435.75  L  6069.54,   435.21  L  6069.45,   434.68  L  6069.18,   434.21  L  6068.76,   433.86  L  6068.25,   433.68  L  6067.71,   433.68  L  6067.20,   433.86  L  6066.79,   434.21  L  6067.18,   434.92  L  6067.18,   435.50  L  6067.56,   435.95  L  6068.13,   436.05  L  6068.64,   435.76  L  6068.83,   435.21  L  6068.64,   434.67  L  6068.13,   434.38  L  6067.56,   434.48  L  6067.98,   435.21  " /><path style="stroke-width: 0.85 ;&st7;  " d=" M  6067.98,   435.21  L  6101.98,   435.21  " /><text style="&st18;" transform="matrix(&st17;  6094.32  424.92 )" ewd:textID="64">Turn RH</text><text style="&st18;" transform="matrix(&st17;  6060.33  424.88 )" ewd:textID="63">Turn LH</text><text style="&st18;" transform="matrix(&st16;  6076.18  471.18 )">I/F</text><text style="&st18;" transform="matrix(&st16;  6144.17  437.18 )">I/F</text><path style="stroke-width: 0.85 ;&st7;  " d=" M  6160.28,   374.72  L  6160.00,   375.19  L  6159.91,   375.72  L  6160.00,   376.26  L  6160.28,   376.73  L  6160.69,   377.07  L  6161.20,   377.26  L  6161.74,   377.26  L  6162.25,   377.07  L  6162.66,   376.73  L  6162.93,   376.26  L  6163.03,   375.72  L  6162.93,   375.19  L  6162.66,   374.72  L  6162.25,   374.37  L  6161.74,   374.19  L  6161.20,   374.19  L  6160.69,   374.37  L  6160.28,   374.72  L  6160.67,   375.43  L  6160.67,   376.01  L  6161.04,   376.46  L  6161.62,   376.56  L  6162.12,   376.27  L  6162.32,   375.72  L  6162.12,   375.18  L  6161.62,   374.89  L  6161.04,   374.99  L  6161.47,   375.72  " /><path style="stroke-width: 0.85 ;&st7;  " d=" M  6134.78,   357.72  L  6134.51,   358.19  L  6134.41,   358.73  L  6134.51,   359.26  L  6134.78,   359.73  L  6135.19,   360.07  L  6135.70,   360.26  L  6136.24,   360.26  L  6136.75,   360.07  L  6137.16,   359.73  L  6137.44,   359.26  L  6137.53,   358.73  L  6137.44,   358.19  L  6137.16,   357.72  L  6136.75,   357.38  L  6136.24,   357.19  L  6135.70,   357.19  L  6135.19,   357.38  L  6134.78,   357.72  L  6135.17,   358.43  L  6135.17,   359.02  L  6135.55,   359.46  L  6136.12,   359.56  L  6136.62,   359.27  L  6136.82,   358.73  L  6136.62,   358.18  L  6136.12,   357.89  L  6135.55,   357.99  L  6135.97,   358.73  " /><path style="stroke-width: 0.85 ;&st7;  " d=" M  6135.97,   307.73  L  6135.97,   426.71  " /><path style="stroke-width: 0.85 ;&st7;  " d=" M  6161.47,   307.73  L  6161.47,   426.71  " /><text style="&st18;" transform="matrix(&st16;  6164.05  315.93 )">LR</text><text style="&st18;" transform="matrix(&st16;  6138.56  315.93 )">LL</text><path style="stroke-width: 0.85 ;&st7;  " d=" M  6101.98,   435.21  L  6101.98,   401.22  L  6099.15,   399.80  L  6104.81,   396.97  L  6099.15,   394.14  L  6104.81,   391.30  L  6099.15,   388.47  L  6104.81,   385.64  L  6101.98,   384.22  L  6101.98,   375.72  L  6161.47,   375.72  " /><text style="&st18;" transform="matrix(&st16;  5911.71  526.7 )">31</text><text style="&st18;" transform="matrix(&st16;  5921.21  526.7 )">A</text><path style="stroke-width: 1.42 ;&st7;   " d=" M  5928.04,   524.73  C  5928.04    522.23   5926.01    520.20   5923.51    520.20  " /><path style="stroke-width: 1.42 ;&st7;   " d=" M  5923.51,   520.20  C  5921.01    520.20   5918.98    522.23   5918.98    524.73  " /><path style="stroke-width: 1.42 ;&st7;   " d=" M  5918.98,   524.73  C  5918.98    527.23   5921.01    529.26   5923.51    529.26  " /><path style="stroke-width: 1.42 ;&st7;   " d=" M  5923.51,   529.26  C  5926.01    529.26   5928.04    527.23   5928.04    524.73  " /><text style="&st18;" transform="matrix(&st16;  5843.73  526.7 )">32</text><text style="&st18;" transform="matrix(&st16;  5853.22  526.7 )">A</text><path style="stroke-width: 1.42 ;&st7;   " d=" M  5860.05,   524.73  C  5860.05    522.23   5858.02    520.20   5855.52    520.20  " /><path style="stroke-width: 1.42 ;&st7;   " d=" M  5855.52,   520.20  C  5853.02    520.20   5850.99    522.23   5850.99    524.73  " /><path style="stroke-width: 1.42 ;&st7;   " d=" M  5850.99,   524.73  C  5850.99    527.23   5853.02    529.26   5855.52    529.26  " /><path style="stroke-width: 1.42 ;&st7;   " d=" M  5855.52,   529.26  C  5858.02    529.26   5860.05    527.23   5860.05    524.73  " /><text style="&st18;" transform="matrix(&st16;  5843.73  305.17 )">40</text><text style="&st18;" transform="matrix(&st16;  5853.22  305.17 )">A</text><path style="stroke-width: 1.42 ;&st7;   " d=" M  5860.05,   303.20  C  5860.05    300.70   5858.02    298.67   5855.52    298.67  " /><path style="stroke-width: 1.42 ;&st7;   " d=" M  5855.52,   298.67  C  5853.02    298.67   5850.99    300.70   5850.99    303.20  " /><path style="stroke-width: 1.42 ;&st7;   " d=" M  5850.99,   303.20  C  5850.99    305.70   5853.02    307.73   5855.52    307.73  " /><path style="stroke-width: 1.42 ;&st7;   " d=" M  5855.52,   307.73  C  5858.02    307.73   5860.05    305.70   5860.05    303.20  " /><text style="&st18;" transform="matrix(&st16;  5954.21  526.7 )">21</text><text style="&st18;" transform="matrix(&st16;  5963.7  526.7 )">A</text><path style="stroke-width: 1.42 ;&st7;   " d=" M  5970.54,   524.73  C  5970.54    522.23   5968.51    520.20   5966.00    520.20  " /><path style="stroke-width: 1.42 ;&st7;   " d=" M  5966.00,   520.20  C  5963.50    520.20   5961.47    522.23   5961.47    524.73  " /><path style="stroke-width: 1.42 ;&st7;   " d=" M  5961.47,   524.73  C  5961.47    527.23   5963.50    529.26   5966.00    529.26  " /><path style="stroke-width: 1.42 ;&st7;   " d=" M  5966.00,   529.26  C  5968.51    529.26   5970.54    527.23   5970.54    524.73  " /><text style="&st18;" transform="matrix(&st16;  5979.7  305.17 )">39</text><path style="stroke-width: 1.42 ;&st7;   " d=" M  5996.03,   303.20  C  5996.03    300.70   5994.00    298.67   5991.50    298.67  " /><path style="stroke-width: 1.42 ;&st7;   " d=" M  5991.50,   298.67  C  5989.00    298.67   5986.97    300.70   5986.97    303.20  " /><path style="stroke-width: 1.42 ;&st7;   " d=" M  5986.97,   303.20  C  5986.97    305.70   5989.00    307.73   5991.50    307.73  " /><path style="stroke-width: 1.42 ;&st7;   " d=" M  5991.50,   307.73  C  5994.00    307.73   5996.03    305.70   5996.03    303.20  " /><text style="&st18;" transform="matrix(&st16;  5989.19  305.17 )">A</text><text style="&st18;" transform="matrix(&st16;  6124.18  305.17 )">13</text><path style="stroke-width: 1.42 ;&st7;   " d=" M  6140.51,   303.20  C  6140.51    300.70   6138.48    298.67   6135.97    298.67  " /><path style="stroke-width: 1.42 ;&st7;   " d=" M  6135.97,   298.67  C  6133.47    298.67   6131.44    300.70   6131.44    303.20  " /><path style="stroke-width: 1.42 ;&st7;   " d=" M  6131.44,   303.20  C  6131.44    305.70   6133.47    307.73   6135.97    307.73  " /><path style="stroke-width: 1.42 ;&st7;   " d=" M  6135.97,   307.73  C  6138.48    307.73   6140.51    305.70   6140.51    303.20  " /><text style="&st18;" transform="matrix(&st16;  6133.79  305.17 )">B</text><text style="&st18;" transform="matrix(&st16;  6152.78  305.17 )">7</text><path style="stroke-width: 1.42 ;&st7;   " d=" M  6166.00,   303.20  C  6166.00    300.70   6163.97    298.67   6161.47    298.67  " /><path style="stroke-width: 1.42 ;&st7;   " d=" M  6161.47,   298.67  C  6158.97    298.67   6156.94    300.70   6156.94    303.20  " /><path style="stroke-width: 1.42 ;&st7;   " d=" M  6156.94,   303.20  C  6156.94    305.70   6158.97    307.73   6161.47    307.73  " /><path style="stroke-width: 1.42 ;&st7;   " d=" M  6161.47,   307.73  C  6163.97    307.73   6166.00    305.70   6166.00    303.20  " /><text style="&st18;" transform="matrix(&st16;  6159.28  305.17 )">B</text><g ewd:figtype="title"><text style="&st18;" transform="matrix(&st17;  6194.58  523.1 )">G16(A),G17(B)</text><text style="&st18;" transform="matrix(&st17;  6201.68  523.1 )" ewd:textID="20">Combination Meter Assembly</text></g></g><g ewd:figtype="jb" ewd:figID="89" ewd:code="3"><path style="stroke-width: 1.42 ;&st7;  " d=" M  5993.62,   197.25  L  5989.37,   197.25  " /><path style="stroke-width: 0.85 ;&st7;  " d=" M  5991.50,   163.26  L  5991.50,   188.75  " /><path style="stroke-width: 1.42 ;&st7;  " d=" M  5993.62,   188.75  L  5989.37,   188.75  " /><path style="stroke-width: 1.42 ;&st7;   " d=" M  5997.87,   193.00  C  5997.87    190.66   5995.97    188.75   5993.62    188.75  " /><path style="stroke-width: 1.42 ;&st7;   " d=" M  5993.62,   197.25  C  5995.97    197.25   5997.87    195.35   5997.87    193.00  " /><path style="stroke-width: 1.42 ;&st7;   " d=" M  5985.12,   193.00  C  5985.12    195.35   5987.03    197.25   5989.37    197.25  " /><path style="stroke-width: 1.42 ;&st7;   " d=" M  5989.37,   188.75  C  5987.03    188.75   5985.12    190.66   5985.12    193.00  " /><path style="stroke-width: 0.85 ;&st7;   " d=" M  5992.92,   161.84  C  5992.92    161.06   5992.28    160.43   5991.50    160.43  " /><path style="stroke-width: 0.85 ;&st7;   " d=" M  5991.50,   160.43  C  5990.72    160.43   5990.08    161.06   5990.08    161.84  " /><path style="stroke-width: 0.85 ;&st7;   " d=" M  5990.08,   161.84  C  5990.08    162.62   5990.72    163.26   5991.50    163.26  " /><path style="stroke-width: 0.85 ;&st7;   " d=" M  5991.50,   163.26  C  5992.28    163.26   5992.92    162.62   5992.92    161.84  " /><path style="stroke-width: 0.85 ;&st7;   " d=" M  5992.92,   139.18  C  5992.92    138.40   5992.28    137.76   5991.50    137.76  " /><path style="stroke-width: 0.85 ;&st7;   " d=" M  5991.50,   137.76  C  5990.72    137.76   5990.08    138.40   5990.08    139.18  " /><path style="stroke-width: 0.85 ;&st7;   " d=" M  5990.08,   139.18  C  5990.08    139.96   5990.72    140.60   5991.50    140.60  " /><path style="stroke-width: 0.85 ;&st7;   " d=" M  5991.50,   140.60  C  5992.28    140.60   5992.92    139.96   5992.92    139.18  " /><path style="stroke-width: 1.42 ;&st7;   " d=" M  5991.50,   160.43  C  5994.24    158.81   5995.15    155.28   5993.54    152.55  " /><path style="stroke-width: 1.42 ;&st7;   " d=" M  5993.54,   152.55  C  5993.02    151.67   5992.38    151.03   5991.50    150.51  " /><path style="stroke-width: 1.42 ;&st7;   " d=" M  5991.50,   140.60  C  5988.76    142.21   5987.85    145.74   5989.46    148.47  " /><path style="stroke-width: 1.42 ;&st7;   " d=" M  5989.46,   148.47  C  5989.98    149.36   5990.62    149.99   5991.50    150.51  " /><path style="stroke-width: 0.28 ;&st9;  " d=" M  5991.50,   183.86  L  5988.66,   181.03  L  5988.66,   185.28  L  5991.50,   188.11  L  5994.33,   185.28  L  5994.33,   181.03  L  5991.50,   183.86  " /><path style="stroke-width: 1.42 ;&st7;  " d=" M  6004.24,   171.76  L  6004.24,   129.26  L  5978.75,   129.26  L  5978.75,   171.76  L  6004.24,   171.76  " /><text style="&st18;" transform="matrix(&st16;  6007.92  149.65 )">5A <tspan x="0 " dy="6.0">METER</tspan></text><text style="&st18;" transform="matrix(&st16;  5987.57  194.97 )">3D</text><text style="&st18;" transform="matrix(&st16;  5977.89  194.97 )">36</text><text style="&st18;" transform="matrix(&st16;  5986.29  125.57 )">(IG)</text><text style="&st18;" transform="matrix(&st16;  5985.31  179.95 )">2</text></g><g ewd:figtype="w2w" ewd:figID="115" ewd:code="AG1"><path style="stroke-width: 1.42 ;&st7;  " d=" M  5859.77,   155.33  L  5855.52,   151.08  L  5851.27,   155.33  " /><path style="stroke-width: 1.42 ;&st7;  " d=" M  5859.77,   151.93  L  5855.52,   147.68  L  5851.27,   151.93  " /><text style="&st18;" transform="matrix(&st16;  5839.79  143.98 )">17</text></g><g ewd:figtype="gp" ewd:figID="127" ewd:code="GA"><path style="stroke-width: 0.85 ;&st7;  " d=" M  5964.58,   710.00  L  5967.42,   710.00  " /><path style="stroke-width: 0.85 ;&st7;  " d=" M  5963.17,   707.17  L  5968.83,   707.17  " /><path style="stroke-width: 0.85 ;&st7;  " d=" M  5961.75,   704.33  L  5970.25,   704.33  " /><path style="stroke-width: 0.85 ;&st7;  " d=" M  5957.50,   701.50  L  5974.50,   701.50  " /><path style="stroke-width: 0.85 ;&st7;  " d=" M  5966.00,   697.25  L  5966.00,   701.50  " /></g><g ewd:code="5" ewd:figID="189" ewd:comment="" ewd:figtype="comment"><text style="&st18;" transform="matrix(&st16;  5520.67  131.23 )" ewd:textID="7">* 5 :USA 4WD Manual Air Conditioning <tspan x="14.17" dy="8.5">4 Speaker w/o Parking Assist</tspan></text><text style="&st18;" transform="matrix(&st16;  5534.84  148.23 )" ewd:textID="1">(Intuitive Parking Assist)</text></g><g ewd:code="1" ewd:figID="191" ewd:comment="" ewd:figtype="comment"><text style="&st18;" transform="matrix(&st16;  5520.67  122.73 )" ewd:textID="3">* 1 :w/ Smart Key System</text></g><g ewd:code="6" ewd:figID="190" ewd:comment="5" ewd:figtype="comment"><text style="&st18;" transform="matrix(&st16;  5520.67  156.73 )" ewd:textID="9">* 6 :Except *5</text></g></svg>