﻿<?xml version="1.0" encoding="utf-8"?>
<!DOCTYPE svg PUBLIC "-//W3C//DTD SVG 1.0//EN" "http://www.w3.org/TR/2001/REC-SVG-20010904/DTD/svg10.dtd"[
	<!ENTITY ns_flows "http://ns.adobe.com/Flows/1.0/">
	<!ENTITY ns_svg "http://www.w3.org/2000/svg">
	<!ENTITY ns_xlink "http://www.w3.org/1999/xlink">
	<!ENTITY st0 "font-size:7px;font-family:'MS-PGothic';adobe-font-script:japanese;">
	<!ENTITY st1 "font-size:6px;font-family:'ArialMT';">
	<!-- White fill  -->
	<!ENTITY st2 "fill:#FFFFFF;stroke:#000000; stroke-width:1.41;stroke-linecap:round;stroke-linejoin:round;">
	<!-- Yellow fill  -->
	<!ENTITY st3 "fill:#FFFFCC;stroke:#FFFFCC; stroke-width:0.1;stroke-linecap:round;stroke-linejoin:round;">
	<!-- Gray fill  -->
	<!ENTITY st4 "fill:#CCCCCC;stroke:#CCCCCC; stroke-width:0.1;stroke-linecap:round;stroke-linejoin:round;">
	<!-- Light-blue fill -->
	<!ENTITY st5 "fill:#CCECF4;stroke:#000000; stroke-width:1.133;stroke-linecap:round;stroke-linejoin:round;">
	<!ENTITY st6 "fill:none;stroke-linecap:butt; stroke-linejoin:round;">
	<!ENTITY st7 "fill:none;stroke:#000000;stroke-linecap:round;stroke-linejoin:round;">
	<!ENTITY st8 "enable-background:new    ;">
	<!-- Black fill -->
	<!ENTITY st9 "fill:#000000;stroke:#000000; stroke-linecap:round;stroke-linejoin:round;">
	<!-- SRS note   -->
	<!ENTITY st10 "font-size:9px;font-family:'ArialMT';">
	<!ENTITY st11 "font-size:9px;font-family:'Svg Symbol';">
	<!ENTITY st12 "font-size:6px;font-family:'Svg Symbol';">
	<!ENTITY st13 "fill:none;stroke:#ff0000;stroke-linecap:round;stroke-linejoin:round;">
	<!-- Yellow fill  -->
	<!ENTITY st14 "fill:#FFFF00;stroke:#FFFF00; stroke-width:0.1;stroke-linecap:round;stroke-linejoin:round;">
	<!ENTITY st15 "font-size:6px;font-family:'MS-PGothic';adobe-font-script:japanese;">
	<!ENTITY st16 "1.00 0.00 0.00 1.00">
	<!ENTITY st17 "0.00 -1.00 1.00 0.00">
	<!ENTITY st18 "font-size:6px;font-family:'Arial';">
	<!ENTITY st19 "font-size:9px;font-family:'Arial';">
	<!ENTITY st20 "font-size:6px;font-family:'MS-PGothic','MS PGothic';adobe-font-script:japanese;">
	<!ENTITY st21 "font-size:7px;font-family:'MS-PGothic','MS PGothic';adobe-font-script:japanese;">
	<!ATTLIST svg
		xmlns:ewd CDATA #FIXED "http://shcl.co.jp/ewd"
		xmlns:a CDATA #FIXED "http://ns.adobe.com/AdobeSVGViewerExtensions/3.0/"
		ewd:ver CDATA #IMPLIED
	>
	<!ATTLIST a
		ewd:lineID CDATA #IMPLIED
		ewd:groupID CDATA #IMPLIED
		ewd:figtype CDATA #IMPLIED
		ewd:code CDATA #IMPLIED
		ewd:figID CDATA #IMPLIED
		ewd:pinNo CDATA #IMPLIED
		ewd:comment CDATA #IMPLIED >
	<!ATTLIST g
		ewd:lineID CDATA #IMPLIED
		ewd:groupID CDATA #IMPLIED
		ewd:figtype CDATA #IMPLIED
		ewd:code CDATA #IMPLIED
		ewd:figID CDATA #IMPLIED
		ewd:pinNo CDATA #IMPLIED
		ewd:comment CDATA #IMPLIED >
	<!ATTLIST text
		ewd:textID CDATA #IMPLIED >
	<!ATTLIST title
		ewd:textID CDATA #IMPLIED >
]>
<!-- Generator: Shintec Hozumi YS   -->
<svg onload="call_execInitLoadProc_svg('system')" style="overflow:visible;  enable-background:new 0 0 1307.394 710.000" viewBox="0 0 1307.394 710.000" height="710.000" width="1307.394" xml:space="preserve" ewd:ver="2.1.2.5" xmlns="&ns_svg;" xmlns:a="http://ns.adobe.com/AdobeSVGViewerExtensions/3.0/" xmlns:ewd="http://shcl.co.jp/ewd" xmlns:xlink="&ns_xlink;">
<path style="stroke-width: 1.42 ;&st7;  " d=" M   271.95,   112.27  L   280.45,   112.27  " /><path style="stroke-width: 1.42 ;&st7;  " d=" M   399.43,   146.26  L   390.93,   146.26  " /><text style="&st18;" transform="matrix(&st17;  344.75  560.15 )">W-B</text><text style="&st18;" transform="matrix(&st17;  302.25  413.27 )">BE</text><text style="&st18;" transform="matrix(&st16;  215.75  51.91 )">(*2)</text><text style="&st18;" transform="matrix(&st16;  218.85  40.58 )">R</text><text style="&st18;" transform="matrix(&st17;  203.1  146.72 )">(*3)</text><text style="&st18;" transform="matrix(&st17;  191.77  143.7 )">Y</text><text style="&st18;" transform="matrix(&st17;  140.78  143.7 )">Y</text><text style="&st18;" transform="matrix(&st17;  152.11  146.72 )">(*2)</text><text style="&st18;" transform="matrix(&st17;  55.79  139.45 )">B</text><text style="&st18;" transform="matrix(&st17;  242.76  79.88 )">R</text><text style="&st18;" transform="matrix(&st17;  254.09  82.99 )">(*3)</text><text style="&st18;" transform="matrix(&st17;  310.75  139.37 )">R</text><text style="&st18;" transform="matrix(&st17;  166.28  413.54 )">GR</text><text style="&st18;" transform="matrix(&st17;  64.29  532.25 )">BR</text><text style="&st18;" transform="matrix(&st17;  166.28  526.15 )">W-B</text><text style="&st18;" transform="matrix(&st17;  166.28  611.14 )">W-B</text><text style="&st18;" transform="matrix(&st17;  387.24  122.34 )">L</text><text style="&st18;" transform="matrix(&st17;  387.24  164.83 )">L</text><text style="&st18;" transform="matrix(&st17;  327.75  413.5 )">LG</text><text style="&st18;" transform="matrix(&st17;  361.74  412.96 )">SB</text><text style="&st18;" transform="matrix(&st16;  490.73  142.56 )">Y</text><text style="&st18;" transform="matrix(&st16;  490.85  159.56 )">L</text><g ewd:figtype="rb" ewd:figID="1" ewd:code="FUSE17"><path style="stroke-width: 1.42 ;&st7;  " d=" M   393.06,    95.27  L   388.81,    95.27  " /><path style="stroke-width: 1.42 ;&st7;  " d=" M   393.06,   103.77  L   388.81,   103.77  " /><path style="stroke-width: 0.85 ;&st7;  " d=" M   390.93,    78.27  L   390.93,    95.27  " /><path style="stroke-width: 1.42 ;&st7;   " d=" M   388.81,    95.27  C   386.46     95.27    384.56     97.17    384.56     99.52  " /><path style="stroke-width: 1.42 ;&st7;   " d=" M   384.56,    99.52  C   384.56    101.87    386.46    103.77    388.81    103.77  " /><path style="stroke-width: 1.42 ;&st7;   " d=" M   393.06,   103.77  C   395.41    103.77    397.31    101.87    397.31     99.52  " /><path style="stroke-width: 1.42 ;&st7;   " d=" M   397.31,    99.52  C   397.31     97.17    395.41     95.27    393.06     95.27  " /><path style="stroke-width: 0.28 ;&st9;  " d=" M   390.93,    90.37  L   388.10,    87.54  L   388.10,    91.79  L   390.93,    94.62  L   393.77,    91.79  L   393.77,    87.54  L   390.93,    90.37  " /><text style="&st18;" transform="matrix(&st16;  407.36  56.17 )">10A <tspan x="0 " dy="6.0">TURN&amp;HAZ</tspan></text><text style="&st18;" transform="matrix(&st16;  389.13  101.49 )">1</text><text style="&st18;" transform="matrix(&st16;  384.75  86.47 )">2</text><text style="&st18;" transform="matrix(&st16;  382.89  32.08 )">(BAT)</text><path style="stroke-width: 0.85 ;&st7;  " d=" M   390.93,    69.77  L   390.93,    78.27  " /><path style="stroke-width: 1.42 ;&st7;   " d=" M   390.93,    47.11  C   388.20     48.72    387.28     52.25    388.90     54.99  " /><path style="stroke-width: 1.42 ;&st7;   " d=" M   388.90,    54.99  C   389.42     55.87    390.05     56.51    390.93     57.03  " /><path style="stroke-width: 1.42 ;&st7;   " d=" M   390.93,    66.94  C   393.67     65.33    394.58     61.80    392.97     59.06  " /><path style="stroke-width: 1.42 ;&st7;   " d=" M   392.97,    59.06  C   392.45     58.18    391.82     57.55    390.93     57.03  " /><path style="stroke-width: 0.85 ;&st7;   " d=" M   392.35,    45.69  C   392.35     44.91    391.72     44.28    390.93     44.28  " /><path style="stroke-width: 0.85 ;&st7;   " d=" M   390.93,    44.28  C   390.15     44.28    389.52     44.91    389.52     45.69  " /><path style="stroke-width: 0.85 ;&st7;   " d=" M   389.52,    45.69  C   389.52     46.48    390.15     47.11    390.93     47.11  " /><path style="stroke-width: 0.85 ;&st7;   " d=" M   390.93,    47.11  C   391.72     47.11    392.35     46.48    392.35     45.69  " /><path style="stroke-width: 0.85 ;&st7;   " d=" M   392.35,    68.36  C   392.35     67.57    391.72     66.94    390.93     66.94  " /><path style="stroke-width: 0.85 ;&st7;   " d=" M   390.93,    66.94  C   390.15     66.94    389.52     67.57    389.52     68.36  " /><path style="stroke-width: 0.85 ;&st7;   " d=" M   389.52,    68.36  C   389.52     69.14    390.15     69.77    390.93     69.77  " /><path style="stroke-width: 0.85 ;&st7;   " d=" M   390.93,    69.77  C   391.72     69.77    392.35     69.14    392.35     68.36  " /><path style="stroke-width: 1.42 ;&st7;  " d=" M   378.19,    35.78  L   378.19,    78.27  L   403.68,    78.27  L   403.68,    35.78  L   378.19,    35.78  " /></g><g ewd:figtype="rb" ewd:figID="2" ewd:code="FUSE6"><path style="stroke-width: 0.85 ;&st7;  " d=" M   314.45,    78.27  L   314.45,    95.27  " /><path style="stroke-width: 1.42 ;&st7;  " d=" M   316.57,   103.77  L   312.32,   103.77  " /><path style="stroke-width: 1.42 ;&st7;  " d=" M   316.57,    95.27  L   312.32,    95.27  " /><path style="stroke-width: 1.42 ;&st7;   " d=" M   320.82,    99.52  C   320.82     97.17    318.92     95.27    316.57     95.27  " /><path style="stroke-width: 1.42 ;&st7;   " d=" M   316.57,   103.77  C   318.92    103.77    320.82    101.87    320.82     99.52  " /><path style="stroke-width: 1.42 ;&st7;   " d=" M   308.07,    99.52  C   308.07    101.87    309.98    103.77    312.32    103.77  " /><path style="stroke-width: 1.42 ;&st7;   " d=" M   312.32,    95.27  C   309.98     95.27    308.07     97.17    308.07     99.52  " /><path style="stroke-width: 0.28 ;&st9;  " d=" M   314.45,    90.37  L   311.61,    87.54  L   311.61,    91.79  L   314.45,    94.62  L   317.28,    91.79  L   317.28,    87.54  L   314.45,    90.37  " /><text style="&st18;" transform="matrix(&st16;  330.87  53.34 )">10A <tspan x="0 " dy="6.0">ECU-B </tspan><tspan x="0 " dy="6.0">NO.2</tspan></text><text style="&st18;" transform="matrix(&st16;  312.65  101.49 )">1</text><text style="&st18;" transform="matrix(&st16;  308.26  86.47 )">2</text><text style="&st18;" transform="matrix(&st16;  306.4  32.08 )">(BAT)</text><path style="stroke-width: 0.85 ;&st7;  " d=" M   314.45,    69.77  L   314.45,    78.27  " /><path style="stroke-width: 0.85 ;&st7;   " d=" M   315.86,    68.36  C   315.86     67.57    315.23     66.94    314.45     66.94  " /><path style="stroke-width: 0.85 ;&st7;   " d=" M   314.45,    66.94  C   313.67     66.94    313.03     67.57    313.03     68.36  " /><path style="stroke-width: 0.85 ;&st7;   " d=" M   313.03,    68.36  C   313.03     69.14    313.67     69.77    314.45     69.77  " /><path style="stroke-width: 0.85 ;&st7;   " d=" M   314.45,    69.77  C   315.23     69.77    315.86     69.14    315.86     68.36  " /><path style="stroke-width: 0.85 ;&st7;   " d=" M   315.86,    45.69  C   315.86     44.91    315.23     44.28    314.45     44.28  " /><path style="stroke-width: 0.85 ;&st7;   " d=" M   314.45,    44.28  C   313.67     44.28    313.03     44.91    313.03     45.69  " /><path style="stroke-width: 0.85 ;&st7;   " d=" M   313.03,    45.69  C   313.03     46.48    313.67     47.11    314.45     47.11  " /><path style="stroke-width: 0.85 ;&st7;   " d=" M   314.45,    47.11  C   315.23     47.11    315.86     46.48    315.86     45.69  " /><path style="stroke-width: 1.42 ;&st7;   " d=" M   314.45,    66.94  C   317.19     65.33    318.10     61.80    316.48     59.06  " /><path style="stroke-width: 1.42 ;&st7;   " d=" M   316.48,    59.06  C   315.96     58.18    315.33     57.55    314.45     57.03  " /><path style="stroke-width: 1.42 ;&st7;   " d=" M   314.45,    47.11  C   311.71     48.72    310.80     52.25    312.41     54.99  " /><path style="stroke-width: 1.42 ;&st7;   " d=" M   312.41,    54.99  C   312.93     55.87    313.57     56.51    314.45     57.03  " /><path style="stroke-width: 1.42 ;&st7;  " d=" M   301.70,    35.78  L   301.70,    78.27  L   327.20,    78.27  L   327.20,    35.78  L   301.70,    35.78  " /></g><g ewd:figtype="conn" ewd:figID="3" ewd:code="G93"><path style="stroke-width: 1.42 ;&st7;  " d=" M   186.97,    95.27  L   203.97,    95.27  L   203.97,   112.27  L   186.97,   112.27  L   186.97,    95.27  " /><path style="stroke-width: 0.85 ;&st7;  " d=" M   195.47,    95.27  L   195.47,   112.27  " /><text style="&st18;" transform="matrix(&st16;  186.18  120.46 )">12</text><text style="&st18;" transform="matrix(&st16;  186.18  91.58 )">15</text><g ewd:figtype="title"><text style="&st18;" transform="matrix(&st17;  218.68  115.17 )" ewd:textID="10">No. 1 <tspan x="0 " dy="6.0">Junction </tspan><tspan x="0 " dy="6.0">Connector</tspan></text><text style="&st18;" transform="matrix(&st17;  211.58  115.17 )">G93</text></g></g><g ewd:figtype="conn" ewd:figID="4" ewd:code="G102"><path style="stroke-width: 1.42 ;&st7;  " d=" M   135.98,    95.27  L   152.97,    95.27  L   152.97,   112.27  L   135.98,   112.27  L   135.98,    95.27  " /><path style="stroke-width: 0.85 ;&st7;  " d=" M   144.48,    95.27  L   144.48,   112.27  " /><text style="&st18;" transform="matrix(&st16;  135.19  120.46 )">22</text><text style="&st18;" transform="matrix(&st16;  135.19  91.58 )">19</text><g ewd:figtype="title"><text style="&st18;" transform="matrix(&st17;  160.59  115.17 )">G102</text><text style="&st18;" transform="matrix(&st17;  167.69  115.17 )" ewd:textID="12">No. 7 <tspan x="0 " dy="6.0">Junction </tspan><tspan x="0 " dy="6.0">Connector</tspan></text></g></g><g ewd:figtype="conn" ewd:figID="5" ewd:code="G16,G17"><path style="stroke-width: 0.85 ;&st7;  " d=" M    84.99,   210.00  L    84.99,   218.50  " /><path style="stroke-width: 0.85 ;&st7;  " d=" M   118.98,   218.50  L   118.98,   210.00  " /><path style="stroke-width: 0.85 ;&st7;  " d=" M   352.69,   273.74  L   344.19,   273.74  " /><path style="stroke-width: 0.85 ;&st7;  " d=" M   361.17,   264.08  L   353.81,   268.33  " /><path style="stroke-width: 0.85 ;&st7;  " d=" M   355.82,   271.79  L   363.18,   267.54  " /><path style="stroke-width: 0.85 ;&st7;  " d=" M   386.69,   273.74  L   378.19,   273.74  " /><path style="stroke-width: 0.85 ;&st7;  " d=" M   395.17,   264.08  L   387.81,   268.33  " /><path style="stroke-width: 0.85 ;&st7;  " d=" M   389.81,   271.79  L   397.17,   267.54  " /><path style="stroke-width: 0.85 ;&st7;  " d=" M   441.93,   222.75  L   382.44,   222.75  L   382.44,   231.25  " /><path style="stroke-width: 0.85 ;&st7;  " d=" M   416.43,   214.25  L   348.44,   214.25  L   348.44,   231.25  " /><path style="stroke-width: 0.85 ;&st7;  " d=" M   348.44,   290.74  L   382.44,   290.74  " /><path style="stroke-width: 0.85 ;&st7;  " d=" M   347.25,   289.73  L   346.98,   290.20  L   346.88,   290.74  L   346.98,   291.27  L   347.25,   291.74  L   347.66,   292.09  L   348.17,   292.27  L   348.71,   292.27  L   349.22,   292.09  L   349.63,   291.74  L   349.91,   291.27  L   350.00,   290.74  L   349.91,   290.20  L   349.63,   289.73  L   349.22,   289.39  L   348.71,   289.20  L   348.17,   289.20  L   347.66,   289.39  L   347.25,   289.73  L   347.64,   290.45  L   347.64,   291.03  L   348.02,   291.47  L   348.59,   291.57  L   349.09,   291.28  L   349.29,   290.74  L   349.09,   290.19  L   348.59,   289.90  L   348.02,   290.00  L   348.44,   290.74  " /><path style="stroke-width: 0.85 ;&st7;  " d=" M   169.97,   367.22  L   169.97,   384.22  " /><path style="stroke-width: 0.85 ;&st7;  " d=" M    59.49,   239.75  L    59.49,   248.24  " /><path style="stroke-width: 0.85 ;&st7;  " d=" M    50.99,   248.24  L    67.99,   248.24  " /><path style="stroke-width: 0.85 ;&st7;  " d=" M    59.49,   214.25  L    59.49,   188.75  " /><path style="stroke-width: 0.85 ;&st7;  " d=" M   101.98,   214.25  L    59.49,   214.25  " /><path style="stroke-width: 0.85 ;&st7;  " d=" M    55.24,   251.08  L    63.74,   251.08  " /><path style="stroke-width: 0.85 ;&st7;  " d=" M    56.66,   253.91  L    62.32,   253.91  " /><path style="stroke-width: 0.85 ;&st7;  " d=" M   101.98,   214.25  L   144.48,   214.25  L   144.48,   188.75  " /><path style="stroke-width: 0.28 ;&st9;  " d=" M    84.99,   214.25  L    76.49,   219.92  L    76.49,   208.58  L    84.99,   214.25  " /><path style="stroke-width: 0.28 ;&st9;  " d=" M   118.98,   214.25  L   127.48,   208.58  L   127.48,   219.92  L   118.98,   214.25  " /><path style="stroke-width: 0.85 ;&st7;  " d=" M   100.79,   213.25  L   100.52,   213.72  L   100.42,   214.25  L   100.52,   214.78  L   100.79,   215.25  L   101.20,   215.60  L   101.71,   215.79  L   102.25,   215.79  L   102.76,   215.60  L   103.18,   215.25  L   103.45,   214.78  L   103.54,   214.25  L   103.45,   213.72  L   103.18,   213.25  L   102.76,   212.90  L   102.25,   212.71  L   101.71,   212.71  L   101.20,   212.90  L   100.79,   213.25  L   101.18,   213.96  L   101.18,   214.54  L   101.56,   214.99  L   102.13,   215.09  L   102.63,   214.80  L   102.83,   214.25  L   102.63,   213.70  L   102.13,   213.41  L   101.56,   213.51  L   101.98,   214.25  " /><path style="stroke-width: 0.85 ;&st7;  " d=" M   101.98,   231.25  L   101.98,   214.25  " /><path style="stroke-width: 1.42 ;&st7;  " d=" M    84.99,   231.25  L    84.99,   248.24  L   118.98,   248.24  L   118.98,   231.25  L    84.99,   231.25  " /><path style="stroke-width: 0.85 ;&st7;  " d=" M    67.99,   299.24  L    67.99,   384.22  " /><path style="stroke-width: 1.42 ;&st7;  " d=" M    59.49,   273.74  L    59.49,   299.24  L   271.95,   299.24  L   271.95,   273.74  L    59.49,   273.74  " /><path style="stroke-width: 1.42 ;&st7;  " d=" M    42.49,   188.75  L    42.49,   384.22  L   467.42,   384.22  L   467.42,   188.75  L    42.49,   188.75  " /><path style="stroke-width: 0.85 ;&st7;  " d=" M   348.44,   290.74  L   348.44,   299.24  " /><path style="stroke-width: 0.85 ;&st7;  " d=" M   339.94,   299.24  L   356.94,   299.24  " /><path style="stroke-width: 0.85 ;&st7;  " d=" M   101.98,   273.74  L   101.98,   248.24  " /><path style="stroke-width: 0.85 ;&st7;  " d=" M   344.19,   302.07  L   352.69,   302.07  " /><path style="stroke-width: 0.85 ;&st7;  " d=" M    58.07,   256.74  L    60.91,   256.74  " /><path style="stroke-width: 0.85 ;&st7;  " d=" M    84.99,   239.75  L    59.49,   239.75  " /><path style="stroke-width: 0.85 ;&st7;  " d=" M   345.61,   304.90  L   351.27,   304.90  " /><path style="stroke-width: 0.85 ;&st7;  " d=" M   347.03,   307.73  L   349.86,   307.73  " /><path style="stroke-width: 0.85 ;&st7;  " d=" M   263.46,   299.24  L   263.46,   316.23  " /><path style="stroke-width: 0.85 ;&st7;  " d=" M   254.96,   299.24  L   254.96,   316.23  " /><path style="stroke-width: 0.85 ;&st7;  " d=" M   246.46,   299.24  L   246.46,   316.23  " /><path style="stroke-width: 0.85 ;&st7;  " d=" M   237.96,   299.24  L   237.96,   316.23  " /><path style="stroke-width: 1.42 ;&st7;  " d=" M   220.96,   316.23  L   220.96,   333.23  L   441.93,   333.23  L   441.93,   316.23  L   220.96,   316.23  " /><path style="stroke-width: 0.85 ;&st7;  " d=" M   416.43,   316.23  L   416.43,   299.24  " /><path style="stroke-width: 1.42 ;&st7;  " d=" M   407.93,   282.24  L   407.93,   299.24  L   450.42,   299.24  L   450.42,   282.24  L   407.93,   282.24  " /><path style="stroke-width: 0.85 ;&st7;  " d=" M   416.43,   282.24  L   416.43,   188.75  " /><path style="stroke-width: 0.85 ;&st7;  " d=" M   441.93,   282.24  L   441.93,   188.75  " /><path style="stroke-width: 0.85 ;&st7;  " d=" M   229.46,   299.24  L   229.46,   316.23  " /><path style="stroke-width: 0.85 ;&st7;  " d=" M   169.97,   299.24  L   169.97,   350.23  " /><path style="stroke-width: 1.42 ;&st7;  " d=" M   161.47,   350.23  L   161.47,   367.22  L   373.94,   367.22  L   373.94,   350.23  L   161.47,   350.23  " /><path style="stroke-width: 0.85 ;&st7;  " d=" M   178.47,   299.24  L   178.47,   350.23  " /><path style="stroke-width: 0.85 ;&st7;  " d=" M   186.97,   299.24  L   186.97,   350.23  " /><path style="stroke-width: 0.85 ;&st7;  " d=" M   365.44,   367.22  L   365.44,   384.22  " /><path style="stroke-width: 0.85 ;&st7;  " d=" M   331.44,   367.22  L   331.44,   384.22  " /><path style="stroke-width: 0.85 ;&st7;  " d=" M   415.24,   213.25  L   414.97,   213.72  L   414.87,   214.25  L   414.97,   214.78  L   415.24,   215.25  L   415.65,   215.60  L   416.16,   215.79  L   416.70,   215.79  L   417.21,   215.60  L   417.62,   215.25  L   417.89,   214.78  L   417.99,   214.25  L   417.89,   213.72  L   417.62,   213.25  L   417.21,   212.90  L   416.70,   212.71  L   416.16,   212.71  L   415.65,   212.90  L   415.24,   213.25  L   415.63,   213.96  L   415.63,   214.54  L   416.01,   214.99  L   416.58,   215.09  L   417.08,   214.80  L   417.28,   214.25  L   417.08,   213.70  L   416.58,   213.41  L   416.01,   213.51  L   416.43,   214.25  " /><path style="stroke-width: 0.85 ;&st7;  " d=" M   440.73,   221.75  L   440.46,   222.22  L   440.37,   222.75  L   440.46,   223.28  L   440.73,   223.75  L   441.15,   224.10  L   441.65,   224.28  L   442.20,   224.28  L   442.71,   224.10  L   443.12,   223.75  L   443.39,   223.28  L   443.48,   222.75  L   443.39,   222.22  L   443.12,   221.75  L   442.71,   221.40  L   442.20,   221.21  L   441.65,   221.21  L   441.15,   221.40  L   440.73,   221.75  L   441.13,   222.46  L   441.13,   223.04  L   441.50,   223.48  L   442.07,   223.58  L   442.58,   223.30  L   442.78,   222.75  L   442.58,   222.20  L   442.07,   221.91  L   441.50,   222.01  L   441.93,   222.75  " /><path style="stroke-width: 0.85 ;&st7;  " d=" M   348.44,   290.74  L   348.44,   256.74  L   345.61,   255.33  L   351.27,   252.49  L   345.61,   249.66  L   351.27,   246.83  L   345.61,   243.99  L   351.27,   241.16  L   348.44,   239.75  L   348.44,   231.25  " /><path style="stroke-width: 0.85 ;&st7;  " d=" M   382.44,   290.74  L   382.44,   256.74  L   379.60,   255.33  L   385.27,   252.49  L   379.60,   249.66  L   385.27,   246.83  L   379.60,   243.99  L   385.27,   241.16  L   382.44,   239.75  L   382.44,   231.25  " /><path style="stroke-width: 0.28 ;&st9;  " d=" M   348.44,   273.74  L   342.78,   265.24  L   354.11,   265.24  L   348.44,   273.74  " /><path style="stroke-width: 0.85 ;&st7;  " d=" M   361.18,   264.08  L   358.84,   267.12  L   357.37,   264.58  L   361.18,   264.08  L   359.89,   264.82  L   358.91,   266.10  L   358.29,   265.03  L   359.89,   264.82  L   359.25,   265.19  L   358.94,   265.59  L   358.74,   265.25  L   359.25,   265.19  " /><path style="stroke-width: 0.85 ;&st7;  " d=" M   363.18,   267.54  L   360.84,   270.59  L   359.38,   268.05  L   363.18,   267.54  L   361.89,   268.29  L   360.91,   269.57  L   360.29,   268.50  L   361.89,   268.29  L   361.25,   268.65  L   360.94,   269.06  L   360.75,   268.72  L   361.25,   268.65  " /><path style="stroke-width: 0.28 ;&st9;  " d=" M   382.44,   273.74  L   376.77,   265.24  L   388.10,   265.24  L   382.44,   273.74  " /><path style="stroke-width: 0.85 ;&st7;  " d=" M   395.17,   264.08  L   392.84,   267.12  L   391.37,   264.58  L   395.17,   264.08  L   393.89,   264.82  L   392.90,   266.10  L   392.28,   265.03  L   393.89,   264.82  L   393.25,   265.19  L   392.93,   265.59  L   392.74,   265.25  L   393.25,   265.19  " /><path style="stroke-width: 0.85 ;&st7;  " d=" M   397.17,   267.54  L   394.84,   270.59  L   393.37,   268.05  L   397.17,   267.54  L   395.89,   268.29  L   394.91,   269.57  L   394.29,   268.50  L   395.89,   268.29  L   395.25,   268.65  L   394.94,   269.06  L   394.74,   268.72  L   395.25,   268.65  " /><text style="&st18;" transform="matrix(&st16;  299.65  380.52 )">HAZ</text><text style="&st18;" transform="matrix(&st16;  70.57  380.53 )">ET</text><text style="&st18;" transform="matrix(&st16;  172.55  380.53 )">HAZ</text><text style="&st18;" transform="matrix(&st16;  147.06  196.95 )">B</text><text style="&st18;" transform="matrix(&st16;  62.07  196.95 )">IG+</text><text style="&st18;" transform="matrix(&st16;  84.71  256.44 )">5V+B</text><text style="&st18;" transform="matrix(&st16;  94.13  241.71 )">5V IC</text><text style="&st18;" transform="matrix(&st16;  159.42  288.46 )">CPU</text><text style="&st18;" transform="matrix(&st16;  334.03  380.53 )">EL</text><text style="&st18;" transform="matrix(&st16;  368.02  380.53 )">ER</text><text style="&st18;" transform="matrix(&st16;  388.75  196.39 )">B</text><text style="&st18;" transform="matrix(&st16;  424.62  292.71 )">I/F</text><text style="&st18;" transform="matrix(&st16;  326.89  326.7 )">I/F</text><text style="&st18;" transform="matrix(&st16;  263.15  360.69 )">I/F</text><text style="&st18;" transform="matrix(&st16;  419.01  196.95 )">LL</text><text style="&st18;" transform="matrix(&st16;  444.51  196.95 )">LR</text><text style="&st18;" transform="matrix(&st17;  340.78  280.41 )" ewd:textID="21">Turn LH</text><text style="&st18;" transform="matrix(&st17;  374.78  280.45 )" ewd:textID="22">Turn RH</text><path style="stroke-width: 1.42 ;&st7;  " d=" M    93.48,   333.23  L   127.48,   333.23  L   127.48,   316.23  L    93.48,   316.23  L    93.48,   333.23  " /><path style="stroke-width: 0.85 ;&st7;  " d=" M   110.48,   316.23  L   110.48,   299.24  " /><path style="stroke-width: 0.85 ;&st7;  " d=" M   110.48,   350.23  L   110.48,   333.23  " /><path style="stroke-width: 1.42 ;&st7;  " d=" M    93.48,   367.22  L   127.48,   367.22  L   127.48,   350.23  L    93.48,   350.23  L    93.48,   367.22  " /><text style="&st18;" transform="matrix(&st16;  105.93  326.7 )">I/F</text><text style="&st18;" transform="matrix(&st16;  101.35  360.69 )" ewd:textID="4">Buzzer</text><text style="&st18;" transform="matrix(&st16;  47.69  186.19 )">39</text><path style="stroke-width: 1.42 ;&st7;   " d=" M    64.02,   184.22  C    64.02    181.72     61.99    179.69     59.49    179.69  " /><path style="stroke-width: 1.42 ;&st7;   " d=" M    59.49,   179.69  C    56.99    179.69     54.96    181.72     54.96    184.22  " /><path style="stroke-width: 1.42 ;&st7;   " d=" M    54.96,   184.22  C    54.96    186.72     56.99    188.75     59.49    188.75  " /><path style="stroke-width: 1.42 ;&st7;   " d=" M    59.49,   188.75  C    61.99    188.75     64.02    186.72     64.02    184.22  " /><text style="&st18;" transform="matrix(&st16;  57.19  186.19 )">A</text><text style="&st18;" transform="matrix(&st16;  294.15  390.72 )">29</text><path style="stroke-width: 1.42 ;&st7;   " d=" M   310.48,   388.75  C   310.48    386.25    308.45    384.22    305.95    384.22  " /><path style="stroke-width: 1.42 ;&st7;   " d=" M   305.95,   384.22  C   303.45    384.22    301.42    386.25    301.42    388.75  " /><path style="stroke-width: 1.42 ;&st7;   " d=" M   301.42,   388.75  C   301.42    391.26    303.45    393.29    305.95    393.29  " /><path style="stroke-width: 1.42 ;&st7;   " d=" M   305.95,   393.29  C   308.45    393.29    310.48    391.26    310.48    388.75  " /><text style="&st18;" transform="matrix(&st16;  303.64  390.72 )">A</text><text style="&st18;" transform="matrix(&st16;  319.65  390.72 )">10</text><path style="stroke-width: 1.42 ;&st7;   " d=" M   335.98,   388.75  C   335.98    386.25    333.95    384.22    331.44    384.22  " /><path style="stroke-width: 1.42 ;&st7;   " d=" M   331.44,   384.22  C   328.94    384.22    326.91    386.25    326.91    388.75  " /><path style="stroke-width: 1.42 ;&st7;   " d=" M   326.91,   388.75  C   326.91    391.26    328.94    393.29    331.44    393.29  " /><path style="stroke-width: 1.42 ;&st7;   " d=" M   331.44,   393.29  C   333.95    393.29    335.98    391.26    335.98    388.75  " /><text style="&st18;" transform="matrix(&st16;  329.26  390.72 )">B</text><text style="&st18;" transform="matrix(&st16;  356.75  390.72 )">9</text><text style="&st18;" transform="matrix(&st16;  363.25  390.72 )">B</text><path style="stroke-width: 1.42 ;&st7;   " d=" M   369.97,   388.75  C   369.97    386.25    367.94    384.22    365.44    384.22  " /><path style="stroke-width: 1.42 ;&st7;   " d=" M   365.44,   384.22  C   362.94    384.22    360.91    386.25    360.91    388.75  " /><path style="stroke-width: 1.42 ;&st7;   " d=" M   360.91,   388.75  C   360.91    391.26    362.94    393.29    365.44    393.29  " /><path style="stroke-width: 1.42 ;&st7;   " d=" M   365.44,   393.29  C   367.94    393.29    369.97    391.26    369.97    388.75  " /><text style="&st18;" transform="matrix(&st16;  382.24  186.19 )">1</text><text style="&st18;" transform="matrix(&st16;  388.75  186.19 )">B</text><path style="stroke-width: 1.42 ;&st7;   " d=" M   395.47,   184.22  C   395.47    181.72    393.44    179.69    390.93    179.69  " /><path style="stroke-width: 1.42 ;&st7;   " d=" M   390.93,   179.69  C   388.43    179.69    386.40    181.72    386.40    184.22  " /><path style="stroke-width: 1.42 ;&st7;   " d=" M   386.40,   184.22  C   386.40    186.72    388.43    188.75    390.93    188.75  " /><path style="stroke-width: 1.42 ;&st7;   " d=" M   390.93,   188.75  C   393.44    188.75    395.47    186.72    395.47    184.22  " /><text style="&st18;" transform="matrix(&st16;  56.19  390.72 )">21</text><path style="stroke-width: 1.42 ;&st7;   " d=" M    72.52,   388.75  C    72.52    386.25     70.49    384.22     67.99    384.22  " /><path style="stroke-width: 1.42 ;&st7;   " d=" M    67.99,   384.22  C    65.49    384.22     63.46    386.25     63.46    388.75  " /><path style="stroke-width: 1.42 ;&st7;   " d=" M    63.46,   388.75  C    63.46    391.26     65.49    393.29     67.99    393.29  " /><path style="stroke-width: 1.42 ;&st7;   " d=" M    67.99,   393.29  C    70.49    393.29     72.52    391.26     72.52    388.75  " /><text style="&st18;" transform="matrix(&st16;  65.68  390.72 )">A</text><text style="&st18;" transform="matrix(&st16;  433.23  186.19 )">7</text><text style="&st18;" transform="matrix(&st16;  439.74  186.19 )">B</text><path style="stroke-width: 1.42 ;&st7;   " d=" M   446.46,   184.22  C   446.46    181.72    444.43    179.69    441.93    179.69  " /><path style="stroke-width: 1.42 ;&st7;   " d=" M   441.93,   179.69  C   439.42    179.69    437.39    181.72    437.39    184.22  " /><path style="stroke-width: 1.42 ;&st7;   " d=" M   437.39,   184.22  C   437.39    186.72    439.42    188.75    441.93    188.75  " /><path style="stroke-width: 1.42 ;&st7;   " d=" M   441.93,   188.75  C   444.43    188.75    446.46    186.72    446.46    184.22  " /><text style="&st18;" transform="matrix(&st16;  404.63  186.19 )">13</text><path style="stroke-width: 1.42 ;&st7;   " d=" M   420.96,   184.22  C   420.96    181.72    418.93    179.69    416.43    179.69  " /><path style="stroke-width: 1.42 ;&st7;   " d=" M   416.43,   179.69  C   413.93    179.69    411.90    181.72    411.90    184.22  " /><path style="stroke-width: 1.42 ;&st7;   " d=" M   411.90,   184.22  C   411.90    186.72    413.93    188.75    416.43    188.75  " /><path style="stroke-width: 1.42 ;&st7;   " d=" M   416.43,   188.75  C   418.93    188.75    420.96    186.72    420.96    184.22  " /><text style="&st18;" transform="matrix(&st16;  414.24  186.19 )">B</text><text style="&st18;" transform="matrix(&st16;  132.68  186.19 )">40</text><text style="&st18;" transform="matrix(&st16;  142.17  186.19 )">A</text><path style="stroke-width: 1.42 ;&st7;   " d=" M   149.01,   184.22  C   149.01    181.72    146.98    179.69    144.48    179.69  " /><path style="stroke-width: 1.42 ;&st7;   " d=" M   144.48,   179.69  C   141.97    179.69    139.94    181.72    139.94    184.22  " /><path style="stroke-width: 1.42 ;&st7;   " d=" M   139.94,   184.22  C   139.94    186.72    141.97    188.75    144.48    188.75  " /><path style="stroke-width: 1.42 ;&st7;   " d=" M   144.48,   188.75  C   146.98    188.75    149.01    186.72    149.01    184.22  " /><text style="&st18;" transform="matrix(&st16;  161.28  390.72 )">3</text><text style="&st18;" transform="matrix(&st16;  167.78  390.72 )">B</text><path style="stroke-width: 1.42 ;&st7;   " d=" M   174.50,   388.75  C   174.50    386.25    172.47    384.22    169.97    384.22  " /><path style="stroke-width: 1.42 ;&st7;   " d=" M   169.97,   384.22  C   167.47    384.22    165.44    386.25    165.44    388.75  " /><path style="stroke-width: 1.42 ;&st7;   " d=" M   165.44,   388.75  C   165.44    391.26    167.47    393.29    169.97    393.29  " /><path style="stroke-width: 1.42 ;&st7;   " d=" M   169.97,   393.29  C   172.47    393.29    174.50    391.26    174.50    388.75  " /><g ewd:figtype="title"><text style="&st18;" transform="matrix(&st17;  475.03  387.12 )">G16(A),G17(B)</text><text style="&st18;" transform="matrix(&st17;  482.14  387.13 )" ewd:textID="5">Combination Meter Assembly</text></g></g><g ewd:figtype="conn" ewd:figID="6" ewd:code="G13"><path style="stroke-width: 0.85 ;&st7;   " d=" M   332.86,   469.21  C   332.86    468.42    332.23    467.79    331.44    467.79  " /><path style="stroke-width: 0.85 ;&st7;   " d=" M   331.44,   467.79  C   330.66    467.79    330.03    468.42    330.03    469.21  " /><path style="stroke-width: 0.85 ;&st7;   " d=" M   330.03,   469.21  C   330.03    469.99    330.66    470.62    331.44    470.62  " /><path style="stroke-width: 0.85 ;&st7;   " d=" M   331.44,   470.62  C   332.23    470.62    332.86    469.99    332.86    469.21  " /><path style="stroke-width: 0.85 ;&st7;   " d=" M   349.86,   503.20  C   349.86    502.42    349.22    501.78    348.44    501.78  " /><path style="stroke-width: 0.85 ;&st7;   " d=" M   348.44,   501.78  C   347.66    501.78    347.03    502.42    347.03    503.20  " /><path style="stroke-width: 0.85 ;&st7;   " d=" M   347.03,   503.20  C   347.03    503.98    347.66    504.62    348.44    504.62  " /><path style="stroke-width: 0.85 ;&st7;   " d=" M   348.44,   504.62  C   349.22    504.62    349.86    503.98    349.86    503.20  " /><path style="stroke-width: 0.85 ;&st7;   " d=" M   366.86,   503.20  C   366.86    502.42    366.22    501.78    365.44    501.78  " /><path style="stroke-width: 0.85 ;&st7;   " d=" M   365.44,   501.78  C   364.66    501.78    364.02    502.42    364.02    503.20  " /><path style="stroke-width: 0.85 ;&st7;   " d=" M   364.02,   503.20  C   364.02    503.98    364.66    504.62    365.44    504.62  " /><path style="stroke-width: 0.85 ;&st7;   " d=" M   365.44,   504.62  C   366.22    504.62    366.86    503.98    366.86    503.20  " /><path style="stroke-width: 0.85 ;&st7;   " d=" M   349.86,   469.21  C   349.86    468.42    349.22    467.79    348.44    467.79  " /><path style="stroke-width: 0.85 ;&st7;   " d=" M   348.44,   467.79  C   347.66    467.79    347.03    468.42    347.03    469.21  " /><path style="stroke-width: 0.85 ;&st7;   " d=" M   347.03,   469.21  C   347.03    469.99    347.66    470.62    348.44    470.62  " /><path style="stroke-width: 0.85 ;&st7;   " d=" M   348.44,   470.62  C   349.22    470.62    349.86    469.99    349.86    469.21  " /><path style="stroke-width: 0.85 ;&st7;  " d=" M   365.44,   443.71  L   365.44,   426.71  " /><path style="stroke-width: 0.85 ;&st7;  " d=" M   331.44,   443.71  L   331.44,   426.71  " /><path style="stroke-width: 1.42 ;&st7;  " d=" M   288.95,   426.71  L   288.95,   528.70  L   390.93,   528.70  L   390.93,   426.71  L   288.95,   426.71  " /><path style="stroke-width: 0.85 ;&st7;  " d=" M   356.94,   443.71  L   356.94,   511.70  " /><path style="stroke-width: 0.85 ;&st7;  " d=" M   305.95,   494.70  L   373.94,   494.70  " /><path style="stroke-width: 0.85 ;&st7;  " d=" M   305.95,   460.71  L   373.94,   460.71  " /><path style="stroke-width: 0.85 ;&st7;  " d=" M   349.86,   503.20  L   364.02,   503.20  " /><path style="stroke-width: 0.85 ;&st7;  " d=" M   347.03,   469.21  L   332.86,   469.21  " /><path style="stroke-width: 0.85 ;&st7;  " d=" M   339.94,   443.71  L   339.94,   511.70  " /><path style="stroke-width: 0.85 ;&st7;  " d=" M   322.95,   443.71  L   322.95,   511.70  " /><path style="stroke-width: 0.85 ;&st7;  " d=" M   305.95,   477.71  L   373.94,   477.71  " /><path style="stroke-width: 1.42 ;&st7;  " d=" M   305.95,   443.71  L   373.94,   443.71  L   373.94,   511.70  L   305.95,   511.70  L   305.95,   443.71  " /><path style="stroke-width: 0.85 ;&st7;  " d=" M   348.44,   511.70  L   348.44,   528.70  " /><text style="&st18;" transform="matrix(&st16;  301.67  434.35 )">CR</text><text style="&st18;" transform="matrix(&st17;  299.42  492.77 )" ewd:textID="23">Turn Switch</text><text style="&st18;" transform="matrix(&st16;  344.51  454.18 )">EL</text><text style="&st18;" transform="matrix(&st16;  327.43  454.18 )">TL</text><text style="&st18;" transform="matrix(&st16;  361.39  454.18 )">TR</text><text style="&st18;" transform="matrix(&st16;  310.09  505.17 )">RH</text><text style="&st18;" transform="matrix(&st16;  310.28  488.17 )" ewd:textID="14">Off</text><text style="&st18;" transform="matrix(&st16;  310.13  471.18 )">LH</text><text style="&st18;" transform="matrix(&st16;  368.02  434.91 )">TR</text><text style="&st18;" transform="matrix(&st16;  334.03  434.91 )">TL</text><text style="&st18;" transform="matrix(&st16;  351.02  525.01 )">EL</text><text style="&st18;" transform="matrix(&st16;  296.66  423.02 )">13</text><text style="&st18;" transform="matrix(&st16;  322.16  423.02 )">11</text><text style="&st18;" transform="matrix(&st16;  339.16  536.89 )">15</text><text style="&st18;" transform="matrix(&st16;  356.15  423.02 )">12</text><g ewd:figtype="title"><text style="&st18;" transform="matrix(&st17;  398.55  531.6 )">G13</text><text style="&st18;" transform="matrix(&st17;  405.65  531.6 )" ewd:textID="9">Headlight Dimmer <tspan x="0 " dy="6.0">Switch Assembly</tspan></text></g></g><g ewd:figtype="conn" ewd:figID="7" ewd:code="G43"><path style="stroke-width: 0.85 ;&st7;  " d=" M   169.97,   494.70  L   169.97,   481.95  " /><path style="stroke-width: 0.85 ;&st7;  " d=" M   169.97,   456.46  L   169.97,   443.71  " /><path style="stroke-width: 1.42 ;&st7;  " d=" M   169.97,   479.12  L   175.64,   456.46  " /><path style="stroke-width: 0.85 ;&st7;   " d=" M   171.39,   457.88  C   171.39    457.09    170.75    456.46    169.97    456.46  " /><path style="stroke-width: 0.85 ;&st7;   " d=" M   169.97,   456.46  C   169.19    456.46    168.56    457.09    168.56    457.88  " /><path style="stroke-width: 0.85 ;&st7;   " d=" M   168.56,   457.88  C   168.56    458.66    169.19    459.29    169.97    459.29  " /><path style="stroke-width: 0.85 ;&st7;   " d=" M   169.97,   459.29  C   170.75    459.29    171.39    458.66    171.39    457.88  " /><path style="stroke-width: 0.85 ;&st7;   " d=" M   171.39,   480.54  C   171.39    479.76    170.75    479.12    169.97    479.12  " /><path style="stroke-width: 0.85 ;&st7;   " d=" M   169.97,   479.12  C   169.19    479.12    168.56    479.76    168.56    480.54  " /><path style="stroke-width: 0.85 ;&st7;   " d=" M   168.56,   480.54  C   168.56    481.32    169.19    481.95    169.97    481.95  " /><path style="stroke-width: 0.85 ;&st7;   " d=" M   169.97,   481.95  C   170.75    481.95    171.39    481.32    171.39    480.54  " /><path style="stroke-width: 1.42 ;&st7;  " d=" M   186.97,   494.70  L   186.97,   443.71  L   152.97,   443.71  L   152.97,   494.70  L   186.97,   494.70  " /><text style="&st18;" transform="matrix(&st16;  172.56  451.9 )">TB</text><text style="&st18;" transform="matrix(&st16;  172.55  491.01 )">E</text><text style="&st18;" transform="matrix(&st17;  164.86  478.07 )" ewd:textID="6">Hazard</text><text style="&st18;" transform="matrix(&st16;  160.69  502.9 )">13</text><text style="&st18;" transform="matrix(&st16;  163.79  440.02 )">7</text><g ewd:figtype="title"><text style="&st18;" transform="matrix(&st17;  136.22  497.6 )">G43</text><text style="&st18;" transform="matrix(&st17;  143.33  497.61 )" ewd:textID="19">Telltale Light <tspan x="0 " dy="6.0">Assembly</tspan></text></g></g><g ewd:figtype="conn" ewd:figID="8" ewd:code="G98"><path style="stroke-width: 0.85 ;&st7;  " d=" M   168.78,   570.19  L   168.51,   570.66  L   168.41,   571.19  L   168.51,   571.72  L   168.78,   572.19  L   169.19,   572.54  L   169.70,   572.73  L   170.24,   572.73  L   170.75,   572.54  L   171.16,   572.19  L   171.44,   571.72  L   171.53,   571.19  L   171.44,   570.66  L   171.16,   570.19  L   170.75,   569.84  L   170.24,   569.65  L   169.70,   569.65  L   169.19,   569.84  L   168.78,   570.19  L   169.17,   570.90  L   169.17,   571.48  L   169.55,   571.93  L   170.12,   572.03  L   170.62,   571.74  L   170.82,   571.19  L   170.62,   570.64  L   170.12,   570.35  L   169.55,   570.45  L   169.97,   571.19  " /><path style="stroke-width: 0.85 ;&st7;  " d=" M   169.97,   571.19  L   178.47,   571.19  " /><path style="stroke-width: 0.85 ;&st7;  " d=" M   169.97,   562.69  L   169.97,   579.69  " /><path style="stroke-width: 1.42 ;&st7;  " d=" M   161.47,   562.69  L   178.47,   562.69  L   178.47,   579.69  L   161.47,   579.69  L   161.47,   562.69  " /><text style="&st18;" transform="matrix(&st16;  181.05  567.5 )">10</text><text style="&st18;" transform="matrix(&st16;  163.79  587.88 )">6</text><text style="&st18;" transform="matrix(&st16;  160.69  559.0 )">11</text><g ewd:figtype="title"><text style="&st18;" transform="matrix(&st17;  145.88  582.59 )" ewd:textID="11">No. 5 <tspan x="0 " dy="6.0">Junction </tspan><tspan x="0 " dy="6.0">Connector</tspan></text><text style="&st18;" transform="matrix(&st17;  138.77  582.59 )">G98</text></g></g><g ewd:figtype="jb" ewd:figID="18" ewd:code="3"><path style="stroke-width: 0.85 ;&st7;  " d=" M    59.49,    78.27  L    59.49,    95.27  " /><path style="stroke-width: 1.42 ;&st7;  " d=" M    61.61,   103.77  L    57.37,   103.77  " /><path style="stroke-width: 1.42 ;&st7;  " d=" M    61.61,    95.27  L    57.37,    95.27  " /><path style="stroke-width: 0.85 ;&st7;  " d=" M    59.49,    69.77  L    59.49,    78.27  " /><path style="stroke-width: 1.42 ;&st7;   " d=" M    65.86,    99.52  C    65.86     97.17     63.96     95.27     61.61     95.27  " /><path style="stroke-width: 1.42 ;&st7;   " d=" M    61.61,   103.77  C    63.96    103.77     65.86    101.87     65.86     99.52  " /><path style="stroke-width: 1.42 ;&st7;   " d=" M    53.12,    99.52  C    53.12    101.87     55.02    103.77     57.37    103.77  " /><path style="stroke-width: 1.42 ;&st7;   " d=" M    57.37,    95.27  C    55.02     95.27     53.12     97.17     53.12     99.52  " /><path style="stroke-width: 0.85 ;&st7;   " d=" M    60.91,    68.36  C    60.91     67.57     60.27     66.94     59.49     66.94  " /><path style="stroke-width: 0.85 ;&st7;   " d=" M    59.49,    66.94  C    58.71     66.94     58.07     67.57     58.07     68.36  " /><path style="stroke-width: 0.85 ;&st7;   " d=" M    58.07,    68.36  C    58.07     69.14     58.71     69.77     59.49     69.77  " /><path style="stroke-width: 0.85 ;&st7;   " d=" M    59.49,    69.77  C    60.27     69.77     60.91     69.14     60.91     68.36  " /><path style="stroke-width: 0.85 ;&st7;   " d=" M    60.91,    45.69  C    60.91     44.91     60.27     44.28     59.49     44.28  " /><path style="stroke-width: 0.85 ;&st7;   " d=" M    59.49,    44.28  C    58.71     44.28     58.07     44.91     58.07     45.69  " /><path style="stroke-width: 0.85 ;&st7;   " d=" M    58.07,    45.69  C    58.07     46.48     58.71     47.11     59.49     47.11  " /><path style="stroke-width: 0.85 ;&st7;   " d=" M    59.49,    47.11  C    60.27     47.11     60.91     46.48     60.91     45.69  " /><path style="stroke-width: 1.42 ;&st7;   " d=" M    59.49,    66.94  C    62.23     65.33     63.14     61.80     61.53     59.06  " /><path style="stroke-width: 1.42 ;&st7;   " d=" M    61.53,    59.06  C    61.01     58.18     60.37     57.55     59.49     57.03  " /><path style="stroke-width: 1.42 ;&st7;   " d=" M    59.49,    47.11  C    56.75     48.72     55.84     52.25     57.45     54.99  " /><path style="stroke-width: 1.42 ;&st7;   " d=" M    57.45,    54.99  C    57.97     55.87     58.61     56.51     59.49     57.03  " /><path style="stroke-width: 1.42 ;&st7;  " d=" M    46.74,    35.78  L    46.74,    78.27  L    72.24,    78.27  L    72.24,    35.78  L    46.74,    35.78  " /><path style="stroke-width: 0.28 ;&st9;  " d=" M    59.49,    90.37  L    56.66,    87.54  L    56.66,    91.79  L    59.49,    94.62  L    62.32,    91.79  L    62.32,    87.54  L    59.49,    90.37  " /><text style="&st18;" transform="matrix(&st16;  75.91  56.17 )">5A <tspan x="0 " dy="6.0">METER</tspan></text><text style="&st18;" transform="matrix(&st16;  55.56  101.49 )">3D</text><text style="&st18;" transform="matrix(&st16;  45.88  101.49 )">36</text><text style="&st18;" transform="matrix(&st16;  53.31  86.47 )">2</text><text style="&st18;" transform="matrix(&st16;  54.28  32.08 )">(IG)</text></g><g ewd:figtype="w2w" ewd:figID="20" ewd:code="AG1"><path style="stroke-width: 1.42 ;&st7;  " d=" M   276.20,   103.20  L   280.45,   107.45  L   284.70,   103.20  " /><path style="stroke-width: 1.42 ;&st7;  " d=" M   284.70,   106.60  L   280.45,   110.85  L   276.20,   106.60  " /><text style="&st18;" transform="matrix(&st16;  264.72  118.49 )">17</text></g><g ewd:figtype="w2w" ewd:figID="21" ewd:code="AG1"><path style="stroke-width: 1.42 ;&st7;  " d=" M   395.18,   155.33  L   390.93,   151.08  L   386.69,   155.33  " /><path style="stroke-width: 1.42 ;&st7;  " d=" M   395.18,   151.93  L   390.93,   147.68  L   386.69,   151.93  " /><text style="&st18;" transform="matrix(&st16;  378.3  143.98 )">1</text></g><g ewd:figtype="gp" ewd:figID="27" ewd:code="GA"><path style="stroke-width: 0.85 ;&st7;  " d=" M    66.57,   710.00  L    69.41,   710.00  " /><path style="stroke-width: 0.85 ;&st7;  " d=" M    65.16,   707.17  L    70.82,   707.17  " /><path style="stroke-width: 0.85 ;&st7;  " d=" M    63.74,   704.33  L    72.24,   704.33  " /><path style="stroke-width: 0.85 ;&st7;  " d=" M    59.49,   701.50  L    76.49,   701.50  " /><path style="stroke-width: 0.85 ;&st7;  " d=" M    67.99,   697.25  L    67.99,   701.50  " /></g><g ewd:figtype="gp" ewd:figID="28" ewd:code="GD"><path style="stroke-width: 0.85 ;&st7;  " d=" M   167.14,   707.17  L   172.80,   707.17  " /><path style="stroke-width: 0.85 ;&st7;  " d=" M   165.72,   704.33  L   174.22,   704.33  " /><path style="stroke-width: 0.85 ;&st7;  " d=" M   161.47,   701.50  L   178.47,   701.50  " /><path style="stroke-width: 0.85 ;&st7;  " d=" M   169.97,   697.25  L   169.97,   701.50  " /><path style="stroke-width: 0.85 ;&st7;  " d=" M   168.56,   710.00  L   171.39,   710.00  " /></g></svg>