﻿<?xml version="1.0"?>
<!-- Generator: Adobe Illustrator 10.0, SVG Export Plug-In . SVG Version: 3.0.0 Build 77)  -->
<!DOCTYPE svg PUBLIC "-//W3C//DTD SVG 1.0//EN" "http://www.w3.org/TR/2001/REC-SVG-20010904/DTD/svg10.dtd"[
	<!ENTITY ns_flows "http://ns.adobe.com/Flows/1.0/">
	<!ENTITY ns_svg "http://www.w3.org/2000/svg">
	<!ENTITY ns_xlink "http://www.w3.org/1999/xlink">
	<!ENTITY st0 "fill:none;stroke:#000000;stroke-linecap:round;stroke-linejoin:round;">
	<!ENTITY st1 "fill:none;stroke:#000000;stroke-width:1.0;stroke-linecap:round;stroke-linejoin:round;">
	<!ENTITY st2 "fill:none;stroke:#000000;">
	<!ENTITY st3 "font-family:'Arial';font-weight:bold;">
	<!ENTITY st4 "font-size:8px;">
	<!ENTITY st5 "font-family:'Arial';">
	<!ENTITY st6 "font-size:10px;">
	<!ENTITY st7 "fill:none;stroke:#FFFFFF;stroke-width:0.2;">
	<!ATTLIST svg
		xmlns:ewd CDATA #FIXED "http://shcl.co.jp/ewd"
		xmlns:a CDATA #FIXED "http://ns.adobe.com/AdobeSVGViewerExtensions/3.0/"
		ewd:ver CDATA #IMPLIED>
	<!ATTLIST a
		ewd:innerGroupID CDATA #IMPLIED
		ewd:figtype CDATA #IMPLIED
		ewd:code CDATA #IMPLIED
		ewd:pinNo CDATA #IMPLIED>
]>
<svg width="510.436" height="643.664" viewBox="0 0 510.436 643.664" style="overflow:visible;enable-background:new 0 0 510.436 643.664" xml:space="preserve" onload="call_execInitLoadProc_svg('inner')" ewd:ver="2.1.2.5" xmlns="&ns_svg;" xmlns:ewd="http://shcl.co.jp/ewd" xmlns:a="http://ns.adobe.com/AdobeSVGViewerExtensions/3.0/" xmlns:xlink="&ns_xlink;">
<script type="text/javascript" xlink:href="../../../../../system/js/ewd/fig/svgfig.js"/>
<g id="WAKU">
	<path style="&st7;" d="M510.336,643.564V0.1H0.1v643.464H510.336z"/>
</g>
<g id="レイヤ_xFF0D__1">
	<path style="&st0;" d="M158.518,221.352v229.461h195.468V221.352H158.518"/>
</g>
<g id="キャプション">
	<g>
		<text transform="matrix(0.88 0 0 1 158.7188 195.77)"><tspan x="0" y="0" style="&st3; &st6;">G126(A), G128(B), G129(C), G130(D), G131(E), </tspan><tspan x="0" y="10" style="&st3; &st6;">G132(F), G133(G)</tspan></text>
	</g>
	<g>
		<path style="&st2;" d="M153.462,251.904c2.792,0,5.056-2.264,5.056-5.056c0-2.792-2.264-5.056-5.056-5.056     c-2.792,0-5.056,2.264-5.056,5.056C148.406,249.64,150.67,251.904,153.462,251.904z"/>
		<g>
			<text transform="matrix(0.88 0 0 1 151.0996 249.5537)"><tspan x="0" y="0" style="&st5; &st4;">A</tspan></text>
		</g>
	</g>
	<g>
		<path style="&st2;" d="M153.462,277.399c2.792,0,5.056-2.264,5.056-5.056c0-2.792-2.264-5.056-5.056-5.056     c-2.792,0-5.056,2.264-5.056,5.056C148.406,275.136,150.67,277.399,153.462,277.399z"/>
		<g>
			<text transform="matrix(0.88 0 0 1 151.0996 275.0493)"><tspan x="0" y="0" style="&st5; &st4;">B</tspan></text>
		</g>
	</g>
	<g>
		<path style="&st2;" d="M153.462,302.894c2.792,0,5.056-2.264,5.056-5.056c0-2.792-2.264-5.056-5.056-5.056     c-2.792,0-5.056,2.264-5.056,5.056C148.406,300.63,150.67,302.894,153.462,302.894z"/>
		<g>
			<text transform="matrix(0.88 0 0 1 150.9053 300.5439)"><tspan x="0" y="0" style="&st5; &st4;">C</tspan></text>
		</g>
	</g>
	<g>
		<path style="&st2;" d="M153.462,328.389c2.792,0,5.056-2.263,5.056-5.055s-2.264-5.056-5.056-5.056     c-2.792,0-5.056,2.264-5.056,5.056S150.67,328.389,153.462,328.389z"/>
		<g>
			<text transform="matrix(0.88 0 0 1 150.9053 326.0391)"><tspan x="0" y="0" style="&st5; &st4;">D</tspan></text>
		</g>
	</g>
	<g>
		<path style="&st2;" d="M153.462,353.884c2.792,0,5.056-2.264,5.056-5.056c0-2.793-2.264-5.057-5.056-5.057     c-2.792,0-5.056,2.264-5.056,5.057C148.406,351.62,150.67,353.884,153.462,353.884z"/>
		<g>
			<text transform="matrix(0.88 0 0 1 151.0996 351.5342)"><tspan x="0" y="0" style="&st5; &st4;">E</tspan></text>
		</g>
	</g>
	<g>
		<path style="&st2;" d="M359.042,251.904c2.792,0,5.056-2.264,5.056-5.056c0-2.792-2.264-5.056-5.056-5.056     s-5.056,2.264-5.056,5.056C353.986,249.64,356.25,251.904,359.042,251.904z"/>
		<g>
			<text transform="matrix(0.88 0 0 1 356.6792 249.5537)"><tspan x="0" y="0" style="&st5; &st4;">A</tspan></text>
		</g>
	</g>
	<g>
		<path style="&st2;" d="M359.042,302.894c2.792,0,5.056-2.264,5.056-5.056c0-2.792-2.264-5.056-5.056-5.056     s-5.056,2.264-5.056,5.056C353.986,300.63,356.25,302.894,359.042,302.894z"/>
		<g>
			<text transform="matrix(0.88 0 0 1 356.4849 300.5439)"><tspan x="0" y="0" style="&st5; &st4;">C</tspan></text>
		</g>
	</g>
	<g>
		<path style="&st2;" d="M359.042,328.389c2.792,0,5.056-2.263,5.056-5.055s-2.264-5.056-5.056-5.056s-5.056,2.264-5.056,5.056     S356.25,328.389,359.042,328.389z"/>
		<g>
			<text transform="matrix(0.88 0 0 1 356.4849 326.0391)"><tspan x="0" y="0" style="&st5; &st4;">D</tspan></text>
		</g>
	</g>
	<g>
		<path style="&st2;" d="M359.042,353.884c2.792,0,5.056-2.264,5.056-5.056c0-2.793-2.264-5.057-5.056-5.057     s-5.056,2.264-5.056,5.057C353.986,351.62,356.25,353.884,359.042,353.884z"/>
		<g>
			<text transform="matrix(0.88 0 0 1 356.6792 351.5342)"><tspan x="0" y="0" style="&st5; &st4;">E</tspan></text>
		</g>
	</g>
	<text transform="matrix(0.88 0 0 1 158.7188 215.6128)"><tspan x="0" y="0" style="&st5; &st6;">No. 2 CAN Junction Connector</tspan></text>
	<g>
		<path style="&st2;" d="M153.462,379.381c2.792,0,5.056-2.264,5.056-5.055c0-2.793-2.264-5.057-5.056-5.057     c-2.792,0-5.056,2.264-5.056,5.057C148.406,377.117,150.67,379.381,153.462,379.381z"/>
		<g>
			<text transform="matrix(0.88 0 0 1 151.2969 377.0313)"><tspan x="0" y="0" style="&st5; &st4;">F</tspan></text>
		</g>
	</g>
	<a ewd:innerGroupID="2" style="cursor:pointer;">
		<g>
			<path style="&st1;" d="M226.507,399.822v25.496h-67.989"/>
			<path style="&st1;" d="M158.518,246.848h67.989v152.974"/>
			<path style="&st1;" d="M158.518,272.344h67.989"/>
			<path style="&st1;" d="M158.518,297.839h67.989"/>
			<path style="&st1;" d="M158.518,323.335h67.989"/>
			<path style="&st1;" d="M158.518,348.831h67.989"/>
			<path style="&st1;" d="M158.518,374.326h67.989"/>
			<path style="&st1;" d="M158.518,399.822h67.989"/>
			<path style="&st1;" d="M225.314,271.341l-0.271,0.47l-0.094,0.533l0.094,0.532l0.271,0.471l0.414,0.346l0.507,0.187h0.544      l0.507-0.187l0.414-0.346l0.272-0.471l0.093-0.532l-0.093-0.533l-0.272-0.47l-0.414-0.346l-0.507-0.187h-0.544l-0.507,0.187      L225.314,271.341l0.394,0.711v0.583l0.374,0.445l0.572,0.099l0.504-0.289l0.198-0.547l-0.198-0.547l-0.504-0.289l-0.572,0.099      l0.425,0.737"/>
			<path style="&st1;" d="M225.314,296.836l-0.271,0.47l-0.094,0.533l0.094,0.533l0.271,0.47l0.414,0.346l0.507,0.187h0.544      l0.507-0.187l0.414-0.346l0.272-0.47l0.093-0.533l-0.093-0.533l-0.272-0.47l-0.414-0.345l-0.507-0.187h-0.544l-0.507,0.187      L225.314,296.836l0.394,0.711v0.583l0.374,0.445l0.572,0.099l0.504-0.289l0.198-0.547l-0.198-0.546l-0.504-0.289l-0.572,0.099      l0.425,0.736"/>
			<path style="&st1;" d="M225.314,322.333l-0.271,0.47l-0.094,0.532l0.094,0.533l0.271,0.47l0.414,0.346l0.507,0.187h0.544      l0.507-0.187l0.414-0.346l0.272-0.47l0.093-0.533l-0.093-0.532l-0.272-0.47l-0.414-0.346l-0.507-0.187h-0.544l-0.507,0.187      L225.314,322.333l0.394,0.711v0.583l0.374,0.445l0.572,0.099l0.504-0.289l0.198-0.547l-0.198-0.546l-0.504-0.289l-0.572,0.099      l0.425,0.736"/>
			<path style="&st1;" d="M225.314,347.828l-0.271,0.47l-0.094,0.533l0.094,0.532l0.271,0.471l0.414,0.346l0.507,0.187h0.544      l0.507-0.187l0.414-0.346l0.272-0.471l0.093-0.532l-0.093-0.533l-0.272-0.47l-0.414-0.346l-0.507-0.187h-0.544l-0.507,0.187      L225.314,347.828l0.394,0.711v0.583l0.374,0.445l0.572,0.1l0.504-0.289l0.198-0.547l-0.198-0.547l-0.504-0.289l-0.572,0.1      l0.425,0.736"/>
			<path style="&st1;" d="M225.314,373.323l-0.271,0.471l-0.094,0.532l0.094,0.533l0.271,0.471l0.414,0.346l0.507,0.187h0.544      l0.507-0.187l0.414-0.346l0.272-0.471l0.093-0.533l-0.093-0.532l-0.272-0.471l-0.414-0.346l-0.507-0.187h-0.544l-0.507,0.187      L225.314,373.323l0.394,0.711v0.584l0.374,0.445l0.572,0.099l0.504-0.288l0.198-0.548l-0.198-0.546l-0.504-0.289l-0.572,0.1      l0.425,0.735"/>
			<path style="&st1;" d="M225.314,398.819l-0.271,0.471l-0.094,0.532l0.094,0.533l0.271,0.47l0.414,0.346l0.507,0.188h0.544      l0.507-0.188l0.414-0.346l0.272-0.47l0.093-0.533l-0.093-0.532l-0.272-0.471l-0.414-0.346l-0.507-0.187h-0.544l-0.507,0.187      L225.314,398.819l0.394,0.711v0.584l0.374,0.445l0.572,0.099l0.504-0.289l0.198-0.547l-0.198-0.547l-0.504-0.288l-0.572,0.099      l0.425,0.736"/>
			<g>
				<text transform="matrix(0.88 0 0 1 151.6577 239.9702)"><tspan x="0" y="0" style="&st5; &st4;">2</tspan></text>
			</g>
			<g>
				<text transform="matrix(0.88 0 0 1 151.6577 265.4658)"><tspan x="0" y="0" style="&st5; &st4;">2</tspan></text>
			</g>
			<g>
				<text transform="matrix(0.88 0 0 1 151.6577 290.9604)"><tspan x="0" y="0" style="&st5; &st4;">2</tspan></text>
			</g>
			<g>
				<text transform="matrix(0.88 0 0 1 151.6577 316.4556)"><tspan x="0" y="0" style="&st5; &st4;">2</tspan></text>
			</g>
			<g>
				<text transform="matrix(0.88 0 0 1 151.6577 341.9502)"><tspan x="0" y="0" style="&st5; &st4;">2</tspan></text>
			</g>
			<g>
				<text transform="matrix(0.88 0 0 1 151.6577 367.4473)"><tspan x="0" y="0" style="&st5; &st4;">2</tspan></text>
			</g>
			<g>
				<text transform="matrix(0.88 0 0 1 151.6577 392.9443)"><tspan x="0" y="0" style="&st5; &st4;">2</tspan></text>
			</g>
		</g>
	</a>
	<g>
		<path style="&st2;" d="M153.462,404.878c2.792,0,5.056-2.264,5.056-5.056c0-2.793-2.264-5.057-5.056-5.057     c-2.792,0-5.056,2.264-5.056,5.057C148.406,402.614,150.67,404.878,153.462,404.878z"/>
		<g>
			<text transform="matrix(0.88 0 0 1 150.7095 402.5273)"><tspan x="0" y="0" style="&st5; &st4;">G</tspan></text>
		</g>
	</g>
	<g>
		<path style="&st2;" d="M359.042,277.399c2.792,0,5.056-2.264,5.056-5.056c0-2.792-2.264-5.056-5.056-5.056     s-5.056,2.264-5.056,5.056C353.986,275.136,356.25,277.399,359.042,277.399z"/>
		<g>
			<text transform="matrix(0.88 0 0 1 356.6792 275.0493)"><tspan x="0" y="0" style="&st5; &st4;">B</tspan></text>
		</g>
	</g>
	<g>
		<path style="&st2;" d="M359.042,404.878c2.792,0,5.056-2.264,5.056-5.056c0-2.793-2.264-5.057-5.056-5.057     s-5.056,2.264-5.056,5.057C353.986,402.614,356.25,404.878,359.042,404.878z"/>
		<g>
			<text transform="matrix(0.88 0 0 1 356.2886 402.5273)"><tspan x="0" y="0" style="&st5; &st4;">G</tspan></text>
		</g>
	</g>
	<a ewd:innerGroupID="1" style="cursor:pointer;">
		<g>
			<path style="&st1;" d="M285.998,399.822v25.496h67.988"/>
			<path style="&st1;" d="M353.986,246.848h-67.988v152.974"/>
			<path style="&st1;" d="M285.998,272.344h67.988"/>
			<path style="&st1;" d="M285.998,297.839h67.988"/>
			<path style="&st1;" d="M285.998,323.335h67.988"/>
			<path style="&st1;" d="M285.998,348.831h67.988"/>
			<path style="&st1;" d="M285.998,374.326h67.988"/>
			<path style="&st1;" d="M285.998,399.822h67.988"/>
			<path style="&st1;" d="M284.804,271.341l-0.271,0.47l-0.094,0.533l0.094,0.532l0.271,0.471l0.414,0.346l0.507,0.187h0.544      l0.507-0.187l0.413-0.346l0.272-0.471l0.094-0.532l-0.094-0.533l-0.272-0.47l-0.413-0.346l-0.507-0.187h-0.544l-0.507,0.187      L284.804,271.341l0.395,0.711v0.583l0.373,0.445l0.572,0.099l0.505-0.289l0.197-0.547l-0.197-0.547l-0.505-0.289l-0.572,0.099      l0.426,0.737"/>
			<path style="&st1;" d="M284.804,296.836l-0.271,0.47l-0.094,0.533l0.094,0.533l0.271,0.47l0.414,0.346l0.507,0.187h0.544      l0.507-0.187l0.413-0.346l0.272-0.47l0.094-0.533l-0.094-0.533l-0.272-0.47l-0.413-0.345l-0.507-0.187h-0.544l-0.507,0.187      L284.804,296.836l0.395,0.711v0.583l0.373,0.445l0.572,0.099l0.505-0.289l0.197-0.547l-0.197-0.546l-0.505-0.289l-0.572,0.099      l0.426,0.736"/>
			<path style="&st1;" d="M284.804,322.333l-0.271,0.47l-0.094,0.532l0.094,0.533l0.271,0.47l0.414,0.346l0.507,0.187h0.544      l0.507-0.187l0.413-0.346l0.272-0.47l0.094-0.533l-0.094-0.532l-0.272-0.47l-0.413-0.346l-0.507-0.187h-0.544l-0.507,0.187      L284.804,322.333l0.395,0.711v0.583l0.373,0.445l0.572,0.099l0.505-0.289l0.197-0.547l-0.197-0.546l-0.505-0.289l-0.572,0.099      l0.426,0.736"/>
			<path style="&st1;" d="M284.804,347.828l-0.271,0.47l-0.094,0.533l0.094,0.532l0.271,0.471l0.414,0.346l0.507,0.187h0.544      l0.507-0.187l0.413-0.346l0.272-0.471l0.094-0.532l-0.094-0.533l-0.272-0.47l-0.413-0.346l-0.507-0.187h-0.544l-0.507,0.187      L284.804,347.828l0.395,0.711v0.583l0.373,0.445l0.572,0.1l0.505-0.289l0.197-0.547l-0.197-0.547l-0.505-0.289l-0.572,0.1      l0.426,0.736"/>
			<path style="&st1;" d="M284.804,373.323l-0.271,0.471l-0.094,0.532l0.094,0.533l0.271,0.471l0.414,0.346l0.507,0.187h0.544      l0.507-0.187l0.413-0.346l0.272-0.471l0.094-0.533l-0.094-0.532l-0.272-0.471l-0.413-0.346l-0.507-0.187h-0.544l-0.507,0.187      L284.804,373.323l0.395,0.711v0.584l0.373,0.445l0.572,0.099l0.505-0.288l0.197-0.548l-0.197-0.546l-0.505-0.289l-0.572,0.1      l0.426,0.735"/>
			<path style="&st1;" d="M284.804,398.819l-0.271,0.471l-0.094,0.532l0.094,0.533l0.271,0.47l0.414,0.346l0.507,0.188h0.544      l0.507-0.188l0.413-0.346l0.272-0.47l0.094-0.533l-0.094-0.532l-0.272-0.471l-0.413-0.346l-0.507-0.187h-0.544l-0.507,0.187      L284.804,398.819l0.395,0.711v0.584l0.373,0.445l0.572,0.099l0.505-0.289l0.197-0.547l-0.197-0.547l-0.505-0.288l-0.572,0.099      l0.426,0.736"/>
			<g>
				<text transform="matrix(0.88 0 0 1 357.2368 239.9702)"><tspan x="0" y="0" style="&st5; &st4;">1</tspan></text>
			</g>
			<g>
				<text transform="matrix(0.88 0 0 1 357.2368 290.9604)"><tspan x="0" y="0" style="&st5; &st4;">1</tspan></text>
			</g>
			<g>
				<text transform="matrix(0.88 0 0 1 357.2368 316.4556)"><tspan x="0" y="0" style="&st5; &st4;">1</tspan></text>
			</g>
			<g>
				<text transform="matrix(0.88 0 0 1 357.2368 341.9502)"><tspan x="0" y="0" style="&st5; &st4;">1</tspan></text>
			</g>
			<g>
				<text transform="matrix(0.88 0 0 1 357.2368 265.4658)"><tspan x="0" y="0" style="&st5; &st4;">1</tspan></text>
			</g>
			<g>
				<text transform="matrix(0.88 0 0 1 357.2368 392.9443)"><tspan x="0" y="0" style="&st5; &st4;">1</tspan></text>
			</g>
			<g>
				<text transform="matrix(0.88 0 0 1 357.2368 366.6221)"><tspan x="0" y="0" style="&st5; &st4;">1</tspan></text>
			</g>
		</g>
	</a>
	<g>
		<path style="&st2;" d="M359.042,378.556c2.792,0,5.056-2.264,5.056-5.055c0-2.793-2.264-5.057-5.056-5.057     s-5.056,2.264-5.056,5.057C353.986,376.292,356.25,378.556,359.042,378.556z"/>
		<g>
			<text transform="matrix(0.88 0 0 1 356.8765 376.2061)"><tspan x="0" y="0" style="&st5; &st4;">F</tspan></text>
		</g>
	</g>
</g>
</svg>